<?xml version="1.0" encoding="utf-8"?>
<!-- Generator: Adobe Illustrator 21.1.0, SVG Export Plug-In . SVG Version: 6.00 Build 0)  -->
<svg version="1.1" id="Layer_1" xmlns="http://www.w3.org/2000/svg" xmlns:xlink="http://www.w3.org/1999/xlink" x="0px" y="0px"
	 viewBox="0 0 483 483" style="enable-background:new 0 0 483 483;" xml:space="preserve">
<style type="text/css">
	.st0{fill:#CCCCCC;}
	.st1{fill:#FEDF8F;}
	.st2{fill:#FFF0A1;}
	.st3{fill:#F7F8F8;}
	.st4{opacity:0.3;fill:#333333;}
	.st5{opacity:0.3;fill:#FFFFFF;}
	.st6{opacity:0.5;fill:#FFFFFF;}
	.st7{fill:#333333;}
	.st8{opacity:0;fill:#3E2B2E;}
</style>
<path class="st0" d="M138,422.7c-4.5,6.2-6.7,13.6-10.4,20.3c0.2,0.2,0.4,0.4,0.6,0.6c-0.2,0.8-0.1,1.7,0.2,2.5
	c0,0.1,0.1,0.2,0.1,0.2c1.1,2.9,3.7,4.7,6.8,4.2c0.1,0,0.3,0,0.4,0.1c0.3,0.3,0.7,0.6,1.1,0.8c5.1,2.5,10.2,4.9,15.3,7.4
	c0.8,0.4,1.6,0.6,2.4,0.7c1,0.5,2.1,0.9,3.1,1.2c3.8,1,6.5-0.4,8.8-2.6c0.1,1.2,0.3,2.4,0.5,3.4c2.6,10.7,18.3,6.3,25.5,10.2
	c2.1,1.1,4.5,0.8,6.3-0.8c0.1-0.1,0.2-0.2,0.3-0.2c0.3-0.2,0.6-0.4,0.9-0.7l2-1.9c0.4-0.3,0.6-0.7,0.9-1.1c0.3,1,0.6,2,1,3
	c2.1,4.6,7.4,5.1,11.7,5.5c6.6,0.5,13.2,1,19.8,1.5c1.8,0.1,3.6-1.1,4.5-2.6c1-1.9,2.1-3.6,3.4-5.3c0.3-0.3,0.5-0.7,0.6-1.1
	c0.5,1.1,1.1,2.1,1.8,3l-0.1,0.8c-0.4,3.3,3.4,5.2,6.1,4.6c0.7-0.1,1.3-0.3,2-0.4c0.3-0.1,0.5-0.1,0.8-0.3c1.2,0.4,2.4,0.7,3.7,0.8
	c3.3,0.3,7.3-0.9,10.7-1.3c6-0.7,7.7-2.6,12.1-6.5c0.4-0.3,0.7-0.7,0.9-1.1c1.5,1.6,3.3,2.4,5.3,2.7c0.3,0.3,0.6,0.5,0.9,0.7
	c1.6,0.7,3.2,0.9,4.8,0c0.5-0.3,0.9-0.7,1.3-1.1c0.9-0.2,1.8-0.4,2.7-0.6c6.4-1.5,14.6-2.2,20-6.3c1.9-1.5,3.3-3.3,4.1-5.3
	c0.5,0.4,1.1,0.7,1.7,1c0.1,0.1,0.1,0.1,0.1,0.2c0.4,0.5,1.1,0.8,1.7,1c1,0.3,1.8,0.1,2.6-0.3c1.4-0.1,2.8-0.5,4.2-1.4
	c0.4-0.3,0.9-0.5,1.3-0.8c0.5,0,1,0,1.5-0.2c2.5-1,4.9-1.9,7.4-2.9c1.1-0.4,2.1-1.2,2.7-2.1c0.2-0.1,0.4-0.2,0.6-0.4
	c0.1-0.1,0.3-0.2,0.4-0.3c0.1-0.1,0.3-0.1,0.4-0.2c1.8-0.6,3.6-1.2,5.2-2.1c0.9-0.6,1.8-1.2,2.5-1.9c1.7-0.7,3-2.3,2.9-4.7
	c0-0.2,0-0.5,0-0.7c0.1-1.1,0-2.2-0.3-3.4c0-0.2-0.1-0.3-0.2-0.4c0.7,0.3,1.3,0.6,2,0.9c0.3,0.5,0.8,0.9,1.4,1.1
	c2,0.9,3.5,1,5.6,0.7c1.6-0.2,3-0.9,3.8-2.1c2.5-1.6,4.8-3.5,7.2-5.3c2.3-1.7,6.2-3.8,7.4-6.7c0.9-2.1,1.2-3.9,1-5.5
	c8.3,3.2,13-6,19-10.6c5.3-4.1,7.6-10.5,6.2-16.6c1.9,0.9,3.8,1.1,5.5,0.7c0.1,0,0.2,0.1,0.3,0.1c1.2,0.2,2.3,0.3,3.5,0.3
	c1.2,0,2.3-1,2.3-2.3c0-0.3-0.1-0.6-0.2-0.9c0.1-0.2,0.2-0.3,0.2-0.5c0-0.1,0-0.1,0-0.2c1.8-1.7,3.5-3.7,4.9-5.7
	c1.3-1.7,2.3-3.4,3.2-5c0.3,0,0.6-0.1,0.8-0.2c1.9-1,2.5-2.6,2.1-4.7c0-0.1-0.1-0.2-0.1-0.3c1-3.5,0.6-6.9-0.3-10.6
	c0.1,0,0.1,0,0.2-0.1c0.1,0.1,0.2,0.1,0.3,0.2c7.9,3.2,11.7-5.4,14.4-11.1c0.5-1,0.9-2,1.2-3c0.3-0.2,0.5-0.5,0.7-0.9
	c0.5-0.9,0.8-1.8,1.1-2.8c0.4-1,0.7-2,1.1-3c0.5-1.4-0.2-2.6-1.3-3.3c-0.5-1.4-1.3-2.7-2.3-3.8c0,0,0,0,0.1,0
	c0.5,0.4,1.2,0.7,2.1,0.5c1.3-0.3,2.4-0.7,3.4-1.3c0,0,0,0,0,0c0.3-0.1,0.5-0.3,0.8-0.5c0.2,0.1,0.4,0.2,0.7,0.2
	c1.2,0,2.2-0.3,2.9-1.3c0.4-0.7,0.4-1.5,0-2.1c2.1-2.9,3.4-6.5,4.3-10.3c0.1-0.5,0.3-1,0.4-1.6c0-0.1,0.1-0.1,0.1-0.2
	c0.7-1.6,0.8-3.2,0.5-4.6c0-0.8,0-1.7-0.1-2.5c-0.4-2.8-1.6-4.4-3-6c0,0,0.1,0,0.1,0c1.5,0.3,2.7,0.1,3.9-0.5
	c0.2-0.1,0.5-0.2,0.8-0.3c0.3-0.2,0.6-0.4,0.8-0.6c0.3-0.3,0.7-0.5,1-0.8c0,0,0,0,0,0l0,0c0.1-0.1,0.3-0.2,0.4-0.3
	c0.5-0.4,0.7-1,0.6-1.6c1.8-3,2.8-6.8,3.4-9.2c1.1-4.9,1.8-10.3,0.9-15.2c-0.3-1.8-0.6-4-1.9-5.4c-0.6-0.6-1.3-1-2-1.2
	c0.2-0.3,0.4-0.6,0.6-0.9c1.2,0,2.4-0.3,3.6-1.4c0.3-0.3,0.6-0.6,0.9-0.9c4.7-5.6,3.2-16.2,2.6-23.1c0.1-0.2,0.3-0.4,0.4-0.6
	c0.9-1.9,0.8-3.8-0.3-5.4c0.1-1.2,0.1-2.2-0.5-3.2c-0.8-1.4-2.3-2.2-3.8-2.3c1-0.8,1.7-1.9,2-3.1c0.2-0.3,0.4-0.5,0.6-0.8
	c0.9-0.6,1.7-1.8,1.5-2.9c0-0.1,0-0.2,0-0.2c0-0.1,0-0.1,0-0.2c1.3-4.6,0.3-10-0.5-15.2c-0.7-4.2-1.1-9.3-3.8-12.8
	c-1.4-1.7-3.1-3.2-5.1-4.4c0-0.1,0.1-0.1,0.1-0.2c-9.2-2.2-19.1,0.4-28.5,1.4c0.9,3.2,2,6.3,3.8,9c0.2,0.3,0.5,0.6,0.7,0.8
	c0.1,0.7,0.3,1.4,0.4,2.2c-1.7,1.3-2.8,3.4-2.2,5.9c2.1,8.8,4.2,16.8,4.3,25.9c0.1,8.6-1,17.3-2,25.8c-0.2,1.6,0.2,2.8,1,3.8
	c-0.9,3.8-1.7,7.7-2.2,11.6c-1.6,6.7-3.4,13.5-4.2,20.3c0,0.1-0.1,0.1-0.1,0.2c-2,6.3-4.6,12.4-7.8,18.2c-0.4,0.7-0.9,1.4-1.4,2.2
	c-0.3,0.4-0.4,0.8-0.4,1.1c-1.2,2.1-2.5,4.2-3.9,6.3c-0.7,1-0.5,2,0.1,2.7c-3,6.4-6.2,12.6-9.7,18.7c-5.4,6.7-10.5,13.6-15.6,20.6
	c-0.1,0.1-0.2,0.3-0.3,0.4c-0.4,0.1-0.8,0.3-1.1,0.7c-2.7,3.4-5.5,6.8-8.3,10.2c-1.3,1.6-3,3.3-4.4,5.1c-0.4,0.3-0.8,0.7-1.1,1
	c-5.6,4.1-11.4,7.9-15.7,13.4c-1.8,1.1-3.6,2.2-5.4,3.3c-0.9,0.6-1.4,1.4-1.4,2.2c-5.6,3.5-11.1,7.1-16.8,10.5
	c-0.6,0.3-1.2,0.7-1.8,1c-0.4,0.1-0.7,0.3-1.1,0.5c-6.2,3.7-12.5,7.4-19.2,10c-2.8,1.1-5.5,2.2-8,3.5c-3.5,0.5-7,1.6-10.5,2.7
	c-7.8,2.4-15.6,4.1-23.6,5.7c-1,0.2-1.9,0.8-2.6,1.5c-0.4-0.1-0.8-0.1-1.3-0.1c-3.1,0.2-6.1,0.4-9.2,0.6c-7.8-0.8-15.9,1.1-23.9,1.8
	c-4-0.1-7.9-0.3-12-0.4c0,0.1,0,0.1,0,0.2c0,0,0,0,0,0c-3.3-0.6-6.7-0.9-10.3-1.2c-1.5-0.1-3-0.2-4.4-0.3c-1.4-1.3-3.5-1.7-5.1-0.4
	c-0.1,0-0.1-0.1-0.2-0.1c-0.5-0.4-1.1-0.6-1.8-0.8c-0.8-0.2-1.6-0.2-2.4,0c-0.2-0.1-0.5-0.3-0.7-0.3c-2.2-0.8-4.3-1.2-6.6-1.4
	c-2.2-0.9-4.4-2-6.3-2.2c-1.6-0.2-3.1-0.4-4.7-0.5c-0.4-0.2-0.9-0.4-1.4-0.6c-2-0.9-4-1.3-5.9-1.1c-5.9-3.9-13.6-5.8-19.7-8.6
	c-5.6-2.6-11.9-6.9-18.3-9.5C140.6,419.8,139.4,421.3,138,422.7z"/>
<path class="st0" d="M8.1,259.6c0.4,1.1,1,2.1,1.7,3c9.1,2,19.8-1.5,29-3c0.1-12.8,1.7-25.4,2.3-38.2c0-0.6,0-1.2-0.1-1.7
	c1.1-3.3,1.6-6.8,2.2-10.2c0.4-2.4,0.8-4.7,0.8-7.1c1.3-2.1,1.2-4.1,0.3-5.6c1.7-6.2,3.6-12.3,6-18.3c2.8-7,8-13.7,9.4-21.1
	c0.2-1,0.1-1.9-0.1-2.7c1.3-3,2.5-6.1,4-9.1c1.2-2.5,3.2-4.6,3.8-7.4c0.2-0.1,0.4-0.3,0.6-0.5c8.7-8.4,13-20.2,22.7-27.8
	c1.9-1.5,2.2-4,1.5-6.1c1.9-1.4,3.7-2.8,5.3-4.2c5.4-4.3,10.8-8.9,14.8-14.6c2.2-0.5,4.2-1.9,6.2-3.8c1.1-1,2.2-2,3.4-2.9
	c1.8-1.2,3.5-2.4,5.3-3.6c0.5-0.3,0.9-0.7,1.2-1c3.7-2.3,7.6-4.2,11.5-5.9c0.4-0.2,0.8-0.4,1.1-0.7c3.5-0.9,6.9-2.6,10.1-4.4
	c6.4-3.7,13-5.9,19.8-8.8c1.9-0.8,4.1-1.8,6-3.1c3.8-0.2,7.9-1.6,11.2-2.4c4.1-1,8.1-2,12.2-3.1c0.6-0.2,1.2-0.3,1.8-0.5
	c4.5,1.3,10,0.9,14.2-0.9c1.1-0.5,1.7-1.3,2.1-2.2c6.8-0.2,13.6,0.1,20.3,0.3c6.4,0.2,12,3.1,18.4,3.6c8.2,0.6,15.8-2.1,24-0.2
	c8.7,2,17.6,4.6,26,8c5.3-8.4,10.4-19.7,7-28.4c-0.2-0.5-0.2-1-0.2-1.5c-3.5-6-12.1-7.5-18.8-9.5c-4.1-1.2-9.1-0.4-13.2,1.8
	c0,0,0,0,0,0c-2.4-4.3-9.3-4.8-13.5-5.4c-3.4-0.4-7-0.8-10.4-0.8c-0.7-0.1-1.4-0.2-2.1-0.2c-3.8-0.2-7.9,1-10.6,3.7
	c-2.3-2.9-6.5-5-10.2-4.7c-5.4,0.4-11.3-1.2-16.6,0.2c-4.4,1.1-8.3,3.3-11.5,6.4c0,0,0,0,0,0c-0.7-1.3-1.7-2.3-3.3-2.8
	c-1.6-0.5-3.2-0.2-4.6,0.6c-0.1,0-0.1,0.1-0.2,0.1c-1.2-0.2-2.4,0-3.7,0.4c-0.9,0.3-1.7,0.8-2.3,1.4c-4.3-0.1-9,1.2-12.7,2.2
	c-1.1,0.3-2.2,0.7-3.3,1.2c-1-0.3-2-0.4-3-0.1c-1.3,0.4-2.4,1.2-3,2.4c0,0,0,0,0,0c-0.2,0.5-0.4,1-0.6,1.5c-0.1,0.3-0.1,0.6-0.2,0.9
	c-0.1,0.3-0.2,0.5-0.3,0.8c0,0.1-0.1,0.2-0.1,0.3c-0.1,0.2-0.2,0.3-0.4,0.5c-0.9-0.4-1.8-0.6-2.9-0.6c-0.3,0-0.7,0-1,0
	c-1-0.9-2.3-1.5-3.6-1.4c-1.5,0.1-3,0.4-4.3,1.3c-0.8,0.6-1.5,1.2-2.1,2c-5.8,1.8-11.6,4.5-16.7,7c-0.9,0.4-1.7,0.9-2.5,1.4
	c-0.2,0-0.5,0-0.7,0c-0.7-0.1-1.4,0-2,0.2c-1.3,0.5-2.3,1.1-3.1,2.4c-0.7,1.2-0.9,2.6-0.5,4c-0.3,0.7-0.6,1.3-0.8,2.1
	c-1.2-1-2.7-1.6-4.1-1.5c-6.9,0.4-13.5,6.6-19,10.4c-1.3,0.9-2.5,1.9-3.5,2.9c-0.4,0-0.8,0-1.2,0.1C99,55,97.8,57,97.3,59.2
	c-0.3,1.5-0.4,3.4,0.2,4.9c-3.4-1-6.7-1.3-9.9,1.6C82.1,70.6,77,76.1,72,81.4c-0.5,0.5-0.9,1.1-1.3,1.7c-2.3,0.6-3.5,3.5-2.9,5.7
	c0.2,0.9,0.8,1.6,1.4,2.2c0.1,0.9,0.3,1.8,0.6,2.7c-0.3,0-0.5,0-0.8,0c-2.8-2.1-7.2-2-9.4,1.7c-0.6,1.1-1.3,2.1-1.9,3.1
	c-0.5,0.3-0.9,0.6-1.3,1.1c-2.4,2.8-4.7,5.7-6.6,8.8c-0.7,1.1-1.3,2.4-1.8,3.8c-0.4,0.5-0.8,1-1.2,1.5c-3,3.8-2.8,6.9-1.4,10.1
	c-3-0.2-5.6,0.3-7.1,1.9c-2.6,2.6-3.5,7.3-5,10.6c-2.2,4.8-5,9.2-8.2,13.4c-1.1,1.5-0.7,3.5,0,5c0.1,0.3,0.1,0.6,0.2,0.9
	c0.1,1.3,0.6,2.4,1.5,3.2c-2.3-0.3-4.5,1.1-5.2,3.3c-0.1,0.4-0.1,0.8-0.1,1.1c-0.8,1.1-1.3,2.3-1.8,4.1c-0.3,1-0.4,2-0.2,2.8
	c-2.3,5.8-4.8,11.9-5.3,17.9c-1.3,2.3-0.6,5.1,1.1,7l0.6,0.7c0.6,0.7,1.2,1.1,1.8,1.4c-0.6,0.1-1.2,0.2-1.8,0.4c-4.7,1-5.5,6-6,10.4
	c-0.4,1.6-0.6,3.3-0.6,5c0,0.8,0.2,1.5,0.5,2.2c-1,3.5-1.9,7.1-0.7,11.2c0.5,1.6,1.5,2.7,2.7,3.4c-1.4,0.6-2.7,1.8-3.4,3.6
	c-1.7,4.4-2.7,9.5-0.9,13.7C6.7,251.4,6.4,255.6,8.1,259.6z"/>
<path class="st1" d="M14.8,270.7c3.5,1.4,7.1,2.8,10.7,3.9c-3.2,2.1-6.1,4.5-9.3,6.9c-1.5,1.2-0.9,3.9,0.6,4.8
	c2.7,1.5,5.8,2.9,8.9,3.6c-0.6,0.5-1,1.1-1.1,1.7c-0.3,1.9-0.1,3.2,0.9,4.9c0.7,1,1.6,1.5,2.6,1.4c1,0.7,2.1,1.2,3.2,1.5
	c-0.9,1.4-1.3,3.1-0.9,5.1c0.2,1.2,1.6,2.2,2.8,2.1c1-0.1,2.1-0.1,3.3-0.2c-0.3,0.3-0.6,0.5-0.9,0.8c-2.4,2.3-4.7,4.2-4.2,7.7
	c0.2,1.1,1.2,1.7,2.1,2.1c2.8,1.1,6.9,1.7,10.8,1.5c-4.8,4.1-9.5,8.1-14.3,12.2c-1,0.8-1.1,1.9-0.8,2.9c-0.2,0.5-0.2,1,0.2,1.5
	c1.2,1.6,3.4,2.9,5.5,2.5c2.8,2.1,6.8,3.4,10.1,3.2c-0.7,0.6-1.4,1.1-2,1.7c-5.2,4.6-10.9,9.1-14.7,15c-1.6,2.5,1,5.4,3.7,4.8
	c0.9-0.2,1.9-0.4,2.8-0.7c6.7,0.8,14.1-1.3,20.7-3c-2.7,4.7-5.5,9.3-7.9,14.1c-0.2,0.4-0.2,0.7-0.2,1.1c-0.4,0.6-0.8,1.2-1.3,1.8
	c-1.6,2.2,1,5.3,3.5,4.5c5.8-1.8,11.9-2.4,17.7-4.2c-0.3,1.4,0.4,2.5,1.4,3.1c-2.2,2.6-4.1,5.5-5.9,8.1c-4,5.7-8,12.1-10.2,18.7
	c-0.4,0.6-0.8,1.3-1.3,1.9c-1.5,2.2,0.9,4.3,3.1,4c8.2-1.1,17.7-3.6,24.9-8.1c1.1,1.5,3.4,2.2,5.2,0.6c0.1-0.1,0.2-0.2,0.3-0.2
	c1-0.4,2-0.8,2.9-1.3c-3.3,5.9-5.5,12.5-7.9,18.7c-0.4,0.9-0.2,1.8,0.3,2.5c-0.2,0.5-0.4,0.9-0.6,1.4c-0.9,2.3,1.8,4.8,4.1,4.1
	c8.4-2.8,18.5-7.5,25.4-13.9c0.2,1.4,0.8,2.7,1.9,3.9c0.2,0.2,0.4,0.4,0.6,0.5c-2.5,5.2-5.3,10.7-5.6,16.5c-0.1,2.3,2.8,4,4.7,2.7
	c3.8-2.6,8.2-5.2,11.9-8.2c0.1,2.3,0.5,4.5,2.1,6c2.5,2.5,6,1.3,8.4-0.6c3.3-2.6,6.6-5.2,9.7-7.9c-0.3,1.5-0.4,2.9-0.4,4.5
	c0,2.3,2.7,3.2,4.3,1.8c1.4-1.2,2.8-2.5,4.2-3.8c1.4-1.3,3.2-2.6,4.1-4.4c0.1-0.2,0.1-0.4,0.2-0.6c1.2,0.5,2.3,1.1,3.5,1.6
	c-0.3,1.7-0.4,3.5-0.4,5.3c-0.1,1.3,1.2,2.1,2.4,1.8c1.9-0.4,3.4-1.3,4.5-3c0.3-0.5,0.3-0.9,0.2-1.3c3.9,1.5,7.9,3,11.9,4.3
	c2.1,0.7,4.2,1.3,6.4,1.9c-0.1,0.6-0.2,1.2-0.3,1.8c-0.1,1.1-0.2,2.2-0.1,3.3c0.1,2.3,2.9,3,4.2,1.1c0.4-0.6,0.9-1.2,1.5-1.6
	c1.2-0.9,1.2-2.3,0.6-3.2c5,1.2,10.1,2.2,15.2,2.9c0.5,0.1,0.9,0.1,1.4,0.2c1.1,0.4,2.3,0.7,3.6,0.8c0.8,0.1,1.6,0.2,2.3,0.2
	c1.4,1.2,3.4,1.4,5.4,1.4c2.6,0,5,0.3,7.5,0.6c8,1.9,18.3,0.4,25.2,0.1c13.5-0.6,27-2.9,40.1-6.2c21.7-5.4,46.5-14.5,64.3-29.2
	c1.7-0.8,3.3-1.9,4.9-3c6.5,0.1,14.3-9.8,18.1-13.4c9.3-8.9,18.5-18.2,25.7-29c0.2-0.3,0.3-0.6,0.3-0.9c0.3-0.4,0.7-0.8,1-1.2
	c0.2-0.2,0.3-0.4,0.4-0.6c2.6-2.9,5-5.9,6.7-9.4c0.6-0.2,1.2-0.6,1.6-1.3c3.6-5.8,6.9-11.8,9.9-17.9c1.9-3.8,4.1-8.1,5.2-12.4
	c0.4-0.7,0.7-1.4,1.1-2.2c3.9-8,6.4-16.8,8.6-25.5c0.2-0.6,0.4-1.3,0.5-1.9c1.9,0.8,3.8-0.1,5.1-1.6c0.7,0,1.4-0.2,1.6-1
	c0.4-2.5-1.6-4.3-3.5-5.6c-0.7-0.5-1.5-0.4-2.1-0.1c2.6-7.1,4.5-14.7,4.3-21.9c0.3,0,0.5,0,0.8,0c1.3-0.1,2.9-0.4,3.6-1.7
	c0.4-0.8,0.3-1.6-0.3-2.3c-0.8-0.8-1.8-0.9-2.9-0.9c-0.5,0-1.1,0-1.6,0c0-0.1,0-0.3-0.1-0.4c0.2-1,0.4-2.1,0.6-3.1
	c0.3-1.2,0.5-2.3,0.6-3.5c0.2,0,0.3-0.1,0.5-0.1c1-0.4,2.2-0.8,3.2-1.3c0.2-0.1,0.4-0.2,0.6-0.3c0.3-0.1,0.6-0.3,0.8-0.5
	c0.1-0.1,0.2-0.1,0.2-0.2c0.3-0.3,0.5-0.8,0.7-1.1c0.4-0.5,0.3-1.4-0.4-1.6c0,0-0.1,0-0.1,0c-0.9-2.7-3.4-4.7-6.2-4.9
	c-0.3,0-0.5,0-0.8,0.1c-0.2-5.7-0.4-11.3-1-16.9c2.3-0.3,4.5-0.8,6.8-1.5c0.8-0.2,1.4-0.9,1.7-1.6c0.3,0,0.6-0.1,0.8-0.2
	c2-0.5,1.8-3.3,0-3.9c-0.3-0.1-0.7-0.2-1-0.3c0.3-0.1,0.6-0.1,1-0.2c1.7-0.4,3.2-1.2,4.8-1.9c2.6-1.2,4.9-3.3,7.4-4.3
	c1.8-0.7,2.3-3.7,0-4.1c-4.1-0.8-9.2-2.5-14.1-2.9c0.3-0.3,0.7-0.6,1-1c2-1.9,0.3-4.9-2.1-5.1c-0.2,0-0.4-0.1-0.7-0.1
	c1.7-1.3,3-3.2,4.3-4.8c2.6-3.3,5.5-6.4,8.5-9.3c1.7-1.7,0.5-5.2-2-4.9c-2.5,0.2-5,0.4-7.5,0.7c1.9-1.8,3.7-3.6,5.5-5.5c0,0,0,0,0,0
	c0.7-0.3,1.4-0.7,1.8-1.4c0.4-0.8,0.3-2.1-0.7-2.6c-0.4-0.2-0.8-0.3-1.2-0.3c-0.5-0.6-1.2-0.9-2.1-0.9c-4.2,0.1-8.3,0.1-12.5,0.2
	c1.8-1.9,3.4-4,5.1-6c1.6-1.9,0.6-4.7-2-4.9c-0.3,0-0.6,0-1,0c5.4-3.6,10.9-9.4,12.3-15c0.2-1,0-2.1-0.7-2.8
	c-2.8-2.6-7.4-1.4-10.8-1c-2.8,0.3-5.6,0.8-8.3,1.5c0.9-1.6,1.8-3.3,2.7-4.8c1.1-1.8-0.3-4.3-2.4-4.3c-3.6,0.1-7.1,0.5-10.6,1.3
	c-3.5,0.8-6.9,2.9-10.4,3.3c-0.2,0-0.5,0-0.7,0c5.8-6.8,10.6-14.9,15.4-22.5c1-1.5-0.3-4-2.2-3.8c-2.7,0.3-5.4,0.6-8.1,1
	c2.2-3.3,3.4-7.2,4.2-11c0.3-1.5-0.7-3.1-2.3-3c-4.4,0.1-8.5,0.9-12.5,2.3c-0.5-0.5-1.2-0.8-2.1-0.9c-3-0.2-5.9,0.5-8.8,1.6
	c1.2-1.8,2.2-3.8,3.1-5.6c3.1-5.7,5.6-11.7,6.8-18c0.4-1.9-1.3-4.5-3.6-3.6c-0.8,0.3-1.5,0.6-2.3,0.9c-3.9-1.5-7.6-0.4-11.3,1.4
	c-2.5,1.2-4.7,2.8-6.8,4.7c-0.6,0.5-1.3,1-2,1.5c-0.2-0.1-0.4-0.2-0.6-0.2c-2.3-0.4-5.3-0.4-7.9,0.4c2-3.9,3.7-8,5.5-12
	c1.2-2.6-1.2-4.9-3.8-3.8c-5.3,2.4-10.6,4.8-15.5,7.9c0-0.1,0-0.1,0-0.2c0.2-1.7,0.3-3.3,0.3-4.9c0-2-0.6-4.4,0.4-6.3
	c1.3-2.3-1.2-4.6-3.5-3.5c-1.3,0.6-2.6,1.3-3.8,2.1c1.5-4.7,2.1-9.7,2.5-14.6c0.1-1.6-1.9-3.3-3.5-2.7c-3,1.3-6.1,2.5-9,4
	c-1.9,0.1-3.9,1.1-5.7,1.7c-0.7,0.3-1.5,0.5-2.3,0.9c0.2-1.2,0.4-2.5,0.4-3.8c0-2.5-2.8-3.3-4.5-1.9c-4.2,3.4-8.1,6.9-12.3,10.3
	c0.2-1,0.1-2.1-0.4-3c0.1-0.3,0.2-0.7,0.2-1.1c0.1-1.5-1.8-2.2-2.8-1.2c-0.2,0.2-0.3,0.4-0.5,0.6c-1.3,0.2-2.7,1.2-3.6,1.9
	c-1.3,1-3,2.3-3.8,3.8c-0.8-0.3-1.5-0.6-2.3-0.8c2,0.1,3.8-2.5,2-4.4c-0.7-0.7-1.4-1.5-2.2-2.2c-0.8-0.8-2.3-1.1-3.2-0.4
	c-1.4,1-3.2,2-4,3.5c-0.2,0.3-0.2,0.6-0.3,0.9c-4.5-1.4-9.1-2.7-13.7-3.7c0.1-0.2,0.1-0.4,0.1-0.6c0-0.8-0.1-1.4-0.2-2.2
	c-0.1-0.3-0.2-0.5-0.4-0.7c0,0,0-0.1,0-0.1c-0.1-1.2-0.5-1.9-1.5-2.6c-0.6-0.5-1.7-0.4-2.3,0c-0.8,0.5-1.5,1.1-2.2,1.8
	c-0.8,0.8-0.9,2.2-0.3,3.1c-0.3,0-0.6-0.1-0.9-0.2c-1.5-0.7-3.4-1.2-5.4-1.6c0.1-0.4,0.2-0.9,0.1-1.4c0.1,0.6,0-0.2-0.1-0.3
	c-0.1-0.4-0.1-0.8-0.2-1.2c-0.2-1.1-1.4-1.9-2.5-1.9c-1.5,0-2.4,1.2-2.5,2.5c0,0.3,0,0.7,0,1c0,0.2,0,0.3,0,0.5c0,0,0,0.1,0,0.1
	c-1.1-0.1-2.2-0.1-3.3-0.2c0.2-0.3,0.3-0.6,0.3-0.9c0.1-2-0.7-4-1.3-5.8c-0.5-1.6-2.6-2.3-3.9-1c-1.3,1.5-3,2.9-4,4.6
	c-0.5,0.9-0.5,1.9-0.2,2.6c-6.1-0.5-12.3-0.8-18.4-1.1c-1.7-0.1-3.4,0-5,0.2c0.2-0.6,0-1.3-0.4-1.8c0-0.1-0.1-0.2-0.1-0.4
	c-0.1-0.3-0.2-0.6-0.3-0.8c-0.4-1-1-1.8-2.1-2.1c-2.7-0.8-4.7,3-4.4,5.3c-5.3,0.4-10.6,1.3-15.1,2c-2.1,0.3-4.2,0.6-6.5,1
	c0-0.7-0.2-1.3-0.6-1.9c-0.7-1-1.8-1.3-2.9-0.8c-0.6,0.3-1.1,0.8-1.5,1.3c-0.5,0.7-0.5,1.4-0.4,2.2c0,0,0,0.1,0,0.1
	c-8.7,1.6-17.7,4.1-24.4,8.7c-3.7,1.4-7.3,2.9-10.4,4.3c-7.3,3.1-18.5,6.7-25,12.9c-8.1,4.7-15.8,10.6-23,15.8
	c-4.8,3.5-9,7.6-13.1,11.8c-5.7,4.5-10.5,11-15,16.3c-6.4,7.6-12.1,15.8-17.3,24.2c-5.5,8.9-10.3,18.2-14.6,27.8
	c-2,4.5-4.5,9.6-6.1,14.7c-0.1,0-0.1,0-0.2-0.1c-1.9-0.3-3.6,0.6-4.2,2.5c-0.5,1.6,0.1,4.3,1.9,4.8c0.2,0,0.4,0.1,0.6,0.1
	c0.1,0,0.1,0.1,0.2,0.1c-0.2,1.6-0.2,3.2-0.1,4.8c0,0.1,0,0.1,0,0.2c-1,2.6-1.8,5.4-2.4,8.1c-0.4-0.4-1-0.6-1.6-0.6
	c-0.8,0-1.7,0.4-2.1,1.1c-1.1,0.2-1.8,1.4-1.8,2.4c0,1.4,1.2,2.5,2.5,2.5c0.3,0,0.6,0,0.8-0.1c0.4,0.1,0.8,0.1,1.2,0
	c-0.4,2.3-0.7,4.6-1,6.9c-0.5-0.4-1.2-0.6-1.9-0.5c-0.8-0.3-1.7-0.4-2.4,0.1c-0.6,0.3-1.5,0.8-2.1,0.8c-3.2,0.2-3.3,5.3,0,5.1
	c0.4,0,0.7-0.1,1-0.1c0.4,0.9,1.3,1.4,2.2,1.5c0.5,0.6,1.3,1.1,2.1,1c-0.9,6.1-1.8,12.5-1.8,18.6c-1.4,0.3-2.7,0.8-4,1.4
	c-1.1-0.3-2.3,0.4-2.9,1.3c-0.9,0.4-1.8,0.8-2.6,1.2c-1.1,0.5-1.6,2.1-1.3,3.2c0.8,2.3,2.2,4.3,4,5.8c-2.7,1.6-5.2,3.6-7.8,5.2
	c-3.6,2.4-8.3,4-10.6,7.9C11.8,268,13,270,14.8,270.7z M444.4,189.6c0.3-0.3,0.6-0.5,0.9-0.8c-0.4,0.6-0.8,1.3-1,2
	c0-0.3-0.1-0.5-0.2-0.7C444.2,189.9,444.3,189.8,444.4,189.6z M52.9,320.1c0.5-0.5,0.9-1.1,1.4-1.6c0.1-0.1,0.1-0.1,0.1-0.2
	c0.3,0.8,0.5,1.6,0.8,2.4C54.5,320.2,53.7,319.9,52.9,320.1z M74.6,358.6c-0.5-0.9-1.3-1.6-2.4-1.8c0,0,0-0.1,0.1-0.1
	c0.9-2.3-1.2-4.1-3.2-4.2c0.3-0.5,0.7-1,1-1.5c1.7,2.4,3.5,4.7,5.2,7C74.9,358.1,74.7,358.4,74.6,358.6z M127.1,409.1
	c-0.6-0.3-1.3-0.4-2-0.4c0.2-0.5,0.4-0.9,0.6-1.3c0.5,0.5,1.1,1,1.6,1.4C127.2,408.9,127.1,409,127.1,409.1z M415.4,106
	c0.2-0.2,0.4-0.4,0.7-0.6c-0.3,0.9-0.7,1.8-1,2.7c-0.1,0.1-0.1,0.3-0.1,0.4c-0.4,0.1-0.9,0.2-1.3,0.2
	C414.4,107.9,414.9,107,415.4,106z M401.4,117.8c0,0.7,0.1,1.3,0.2,2c-0.3-0.3-0.7-0.7-1-0.9c-0.2-0.2-0.4-0.5-0.6-0.7
	C400.5,118.1,401,118,401.4,117.8z M396.2,113.3c0.6,0.4,1.3,0.7,2,0.7c-0.1,0.5-0.1,1.1-0.2,1.6c-0.8-0.9-1.6-1.9-2.3-2.8
	C395.8,113,396,113.1,396.2,113.3z M386.7,101.8c0.4,0.3,0.8,0.4,1.2,0.6c-0.2,0.6-0.2,1.3-0.1,1.9c-0.7-0.7-1.3-1.4-2-2.1
	C386.1,102.1,386.4,102,386.7,101.8z M326.5,59.6c0.1-0.1,0.2-0.3,0.4-0.4c0.2,0.6,0.6,1.1,1.1,1.5c-0.6-0.3-1.2-0.5-1.8-0.8
	C326.2,59.8,326.3,59.7,326.5,59.6z M314.6,53.7c0.1,0.4,0.3,0.7,0.5,1.2c0.2,0.4,0.7,0.5,1.1,0.3c0,0,0,0,0.1,0c0,0.2,0,0.4,0,0.6
	c-0.3-0.1-0.7-0.3-1-0.4c-0.6-0.2-1.1-0.4-1.7-0.7C313.8,54.4,314.2,54.1,314.6,53.7z M47.7,260.5c0.9-16.1-1.1-31.8,1.3-48
	c1.1-7.7,3-15.2,5.2-22.6c2-6.6,5.8-13.2,7.1-20c0.6-1.9,1.2-3.8,1.9-5.6c2.3-6.1,5.6-11.9,8.8-17.6c5.2-9.4,11-18.3,17.2-27
	c0.3-0.3,0.5-0.7,0.8-1c1.9-2.3,4-4.5,6.1-6.8c2.6-1.9,4.8-4.3,7.2-6.7c5.1-5,10.2-9.9,16-14.2c6-4.4,12.6-8.3,18.8-12.6
	c8.2-4.8,16.1-9.6,24.8-13.5c5.2-2.3,10.5-4.3,15.9-6.2c0.7-0.3,1.5-0.5,2.3-0.8c8.8-2.1,17.7-5.6,26.4-7.3c2.8-0.5,5.5-1,8.3-1.4
	c3,1.3,5.2,1.1,8.6,0.4c6.7-1.4,12.5-1.2,19.3-0.8c5.9,0.4,11.8,0.6,17.7,0.8c0.1,0,0.1,0,0.2,0.1c8.1,2.3,16.7,3,24.9,4.9
	c8.3,1.9,16.4,4.3,24.3,7.2c8.5,3,16.7,6.7,24.7,10.7c4.1,2.1,8.1,4.6,12.2,6.9c2.1,1.9,4.5,3.5,6.5,5.3c3.6,3.3,7.2,6.5,11.2,9.3
	c0.7,0.5,1.3,0.3,1.7-0.2c2.6,2.4,5.2,4.9,7.7,7.4c8.3,8.3,15.5,18.3,23.7,27c1.5,2.6,3.2,5.2,4.7,7.7c4.6,7.8,8.8,15.8,12.8,23.9
	c1.3,2.5,2.5,5,3.7,7.5c0.7,2.3,1.7,4.6,2.6,6.8c1.5,3.4,3.2,6.9,4.6,10.5c1.1,5.8,2.3,11.6,3.6,17.4c0.1,0.4,0.2,0.7,0.4,1
	c0.7,3,1.8,5.9,2.7,8.9c-1.3,12.4,0.8,25.6,0.5,38c-0.3,10.2-1.4,20.3-3,30.4c-2.4,6.6-3.3,14.2-5.1,20.7
	c-2.8,10.4-6.8,20.4-11.6,30c-0.1,0.2-0.2,0.4-0.2,0.6c-1.1,2-2.2,4.1-3.2,6.2c-8.3,10.5-15,21.9-23.5,32.3
	c-3.5,3.7-7.1,7.4-10.7,11c-0.5,0.5-0.7,1-0.9,1.5c-3,2.9-6,5.7-9.1,8.4c-4.8,4.3-11,7.8-15.7,12.3c-8.3,4.6-16.2,9.6-24.7,13.8
	c-10.8,5.3-22.2,9.4-33.8,12.7c-21.4,6.1-47.4,10.2-69.7,5.9c-5.1-1.8-11.7-1.6-16.6-2.3c-8.4-1.3-16.7-3.3-24.9-5.7
	c-8.7-2.5-17.1-5.9-25.2-9.8c-6.1-2.9-12-7.3-18.4-9.8c-2.9-3.2-6.4-5.5-10.1-7.8c-6-7.6-14.9-14-22.2-20.4
	c-7.6-6.6-12.5-14.9-19.3-22.1c-0.5-0.6-1.2-0.5-1.7-0.2c-0.6-0.8-1.1-1.5-1.7-2.3c-3.9-5.3-7.2-11.3-11.2-16.6
	c-5.8-15-13.1-29.3-17.8-44.8c-2.3-7.5-4-15.1-5.6-22.8c-0.6-3.1-1.1-6.2-1.5-9.3C47.2,261.8,47.6,261.3,47.7,260.5z M45.6,295.7
	c0.3-0.6,0.3-1.3,0.2-2.2c0-0.3-0.1-0.6-0.2-0.9c0.3,1.1,0.7,2.3,1,3.4c0.8,2.6,1.6,5.1,2.4,7.7c-0.2,0.1-0.3,0.1-0.5,0.2
	c0-0.9-0.3-1.8-0.9-2.5c-0.1-0.7-0.5-1.4-1.2-1.5c-0.5-0.1-1-0.1-1.5-0.2C45.6,298.6,45.7,297.2,45.6,295.7z M40.3,300.5
	c-0.5,0.1-1.1,0.2-1.7,0.2c0.7-0.5,1.5-1,2-1.4c0.2,0.3,0.5,0.7,0.7,1C41,300.3,40.7,300.4,40.3,300.5z M41.8,281.9
	c0.1-0.1,0.1-0.3,0.2-0.5c0.4-1.1,0.2-2.1-0.4-3c0,0,0-0.1-0.1-0.1c0.1-0.1,0.2-0.1,0.3-0.2c0.3,1.3,0.6,2.7,1,4
	C42.5,282,42.1,281.9,41.8,281.9z"/>
<path class="st2" d="M197.7,446.5c1.3,0,2.2-1,2.3-2.3c0-0.1,0-0.1,0-0.2c1.3-1,0.9-3-0.7-3.5c-0.9-0.3-1.8,0-2.7,0.4
	c-0.7,0.3-1,1.2-1.1,1.9c0,0.5-0.1,1-0.1,1.5C195.4,445.4,196.5,446.5,197.7,446.5z"/>
<circle class="st3" cx="241.1" cy="243" r="193.2"/>
<path class="st4" d="M446.3,240.2c8.3,0.1,21.3-2.4,27.1,4.5c0.7,0.8,1.9,0.1,1.9-0.8c0.1-2.8-0.9-4.9-2.6-6.4
	c0.2-0.3,0.3-0.6,0.3-1c0-0.9-0.8-1.8-1.8-1.8c-0.7,0-1.4,0.1-2.1,0.2c-0.3,0-0.6,0.1-0.9,0.2c-6.9-2.3-17.2-1.2-22.1-1.3
	C442.2,233.7,442.2,240.1,446.3,240.2z"/>
<path class="st4" d="M443.3,274c6.7,3.2,23.9-2.3,26,7.3c0.1,0.3,0.2,0.5,0.4,0.6c0.1,0.9,0.2,1.8,0.2,2.7c0.1,1,1.7,1.4,1.9,0.3
	c0.2-0.9,0.2-1.8,0.1-2.7c0.3-0.2,0.5-0.5,0.6-0.9c2.8-14.8-20.6-8.5-27-12.8c-1.6-1-3.5,0.3-3.6,2c0,0.3,0,0.6,0,0.9
	C441.8,272.4,442.4,273.6,443.3,274z"/>
<path class="st4" d="M436.2,305.2c4.6,1.3,9.3,2.4,14,3.6c6.1,1.5,8.5,5,10.4,10.6c0.3,1,2.1,1.2,2.3,0
	c2.4-14.2-15.3-17.4-25.2-19.7C434.1,298.8,432.7,304.2,436.2,305.2z"/>
<path class="st4" d="M424.2,333.2c3.2,3.1,8.2,4.1,12.3,5.7c2.2,0.9,4.4,1.7,6.7,2.5c4.7,1.6,4.4,6.2,3.3,10.2
	c-0.3,1.2,1.5,2.1,2.1,0.9c2-4.4,4.5-11.5-1-14.5c-3.1-1.7-6.4-2.9-9.6-4.1c-3.9-1.5-8.1-4.1-12.3-3.9
	C423.9,329.9,422.9,332,424.2,333.2z"/>
<path class="st4" d="M414.1,360.6c3.1,2.3,6.6,4,10,5.9c3,1.7,4.9,3.6,5.4,7.3c0.2,1.9-0.2,3.2,0.3,5.1c0.1,0.5,0.9,0.5,1,0
	c0.3-1.8,0.6-3.3,0.8-4.8c0.7,0.1,1.3-0.2,1.5-1c0.7-3.3-0.6-6.5-3.1-8.6c0,0-0.1-0.1-0.1-0.1c0,0,0,0,0,0c-0.1-0.1-0.2-0.2-0.3-0.2
	c-0.8-0.6-1.6-0.1-2,0.6c-1.7-1.4-3.7-2.4-5.5-3.5c-1.3-0.7-2.5-1.5-3.8-2.2c-1.1-0.7-2.1-1.4-3.1-2.3c-0.3-0.5-0.6-0.8-0.9-1
	c0.1-0.2,0.1-0.5,0-0.9c-0.1-0.3-0.2-0.6-0.2-0.9c-0.2-0.8-1-1.3-1.8-1.3c-1.3-0.1-2.7,0.8-2.7,2.3
	C409.6,357.2,412.4,359.4,414.1,360.6z"/>
<path class="st4" d="M387.3,383.5c1.2,4.4,6.2,7.3,10.1,9.3c3.3,1.7,6.6,2.5,8.8,5.8c2,3-0.4,5.9,0.1,9.1c0.1,0.6,0.9,0.5,1.2,0.2
	c3.5-4.9,4.1-9.4,0.2-14.1c-2-2.4-5-3.8-7.6-5.4c-3.5-2-6.2-5.5-9.7-7.1C388.7,380.5,386.8,381.6,387.3,383.5z"/>
<path class="st4" d="M363.7,404.8c0,0.1,0,0.2,0.1,0.3c0.1,0.3,0.2,0.6,0.5,0.9c1.5,3.1,2.3,6,4.6,8.8c2.7,3.3,12.5,8.7,9.2,13.7
	c-0.8,1.1,0.7,2.7,1.9,1.9c2.2-1.5,3-3.5,3-5.5c0.2-0.1,0.3-0.2,0.4-0.3c0.4-0.2,0.6-0.6,0.7-1c0.2-0.9,0.2-1.9-0.3-2.7
	c-0.6-0.9-1.6-1.4-2.6-1c-0.1-0.2-0.3-0.4-0.5-0.7c-1.7-2.3-4-4-6-6.1c-2.8-2.9-4-5.8-5.4-9.5c-0.5-1.3-1.4-1.9-2.7-2.1
	c-0.1,0-0.3,0-0.4,0C364.5,401.4,363.4,403.4,363.7,404.8z"/>
<path class="st4" d="M341.8,432.8c3,4.4,10,7.3,9.8,13c-0.1,2,3.1,2.4,3.5,0.5c0.1-0.5,0.2-0.9,0.2-1.4c0.6,0.1,1.2-0.2,1.3-0.9
	c0.2-1.5-0.2-2.8-0.9-4c-0.5-0.9-1.3-1.9-2.3-2.2c-0.6-0.9-1.4-1.8-2.2-2.7c-0.7-0.7-1.4-1.4-2.1-2.2c-0.7-1.8-1.8-3.4-2.8-5.1
	c-1-1.7-1.8-3.6-3.4-4.6c0.2-1.5-0.2-3.1-1.3-4.1c-0.7-0.6-1.8-0.2-2.1,0.5c-1.1,0.2-2,1.2-2.1,2.3
	C337.2,425.8,339.8,429.8,341.8,432.8z"/>
<path class="st4" d="M306.5,436.7c1.3,4.1,2.7,8.3,4.2,12.4c1.6,4.5,4.4,9.5,2.8,14.3c-0.7,2,2.1,2.9,3.2,1.3
	c0.5-0.7,0.8-1.4,1.1-2.2c0.1,0,0.2,0,0.3-0.1c2.2-1.3,2.2-4.7,1.9-7c-0.6-3.4-2.3-6.5-3.8-9.5c-0.3-0.5-0.9-0.8-1.4-0.7
	c-1-3.3-2.1-6.6-3.2-9.9C310.4,432.3,305.5,433.5,306.5,436.7z"/>
<path class="st4" d="M272.1,442.9c0.9,5.4,1.8,10.8,2.4,16.3c0.5,4.9-0.3,9.9,0.8,14.7c0.2,0.7,1.1,0.8,1.4,0.2
	c0.3-0.6,0.6-1.1,0.8-1.7c0.7-0.2,1.2-0.7,1.6-1.4c1.7-1.6,2.1-5.2,2.4-7.1c0.2-1.5-1.2-2-2.3-1.7c0-7-1.9-14.6-2.9-20.5
	C276,438.9,271.3,440.1,272.1,442.9z"/>
<path class="st4" d="M236.6,475.9c0.2-0.1,0.4-0.3,0.6-0.4c0.4,0.2,0.9,0.3,1.3,0.1c3.6-1.4,4.1-4.6,4.5-8.2
	c0.6-6.6-0.1-13.6-0.8-20.3c-0.3-2.8-4.3-2.9-4.5,0c-0.6,9.3-0.4,18.8-2.1,27.9C235.4,475.7,236,476.2,236.6,475.9z"/>
<path class="st4" d="M194.9,471.2c0.1,1.3,2,1.9,2.5,0.7c0.7,0,1.5-0.3,2-1c0.5-0.8,1-1.6,1.4-2.5c0.7,0,1.5-0.3,1.6-1.2
	c0.5-2.6,0.2-4.7-0.2-7.3c1.3-5.6,2.5-11.2,3.9-16.7c0.5-1.9-1.9-3.5-3.4-2c-3.4,3.5-4.3,8.4-5.6,12.9
	C195.7,459.6,194.4,465.6,194.9,471.2z"/>
<path class="st4" d="M160.6,461c1.5-1.3,3.6-2,5-3.4c1-1,1.3-2.9,1.7-4.1c1.6-4.2,4.3-9.2,4.2-13.8c0-0.1,0-0.3-0.1-0.4
	c0.7-1.1,1.3-2.3,2-3.5c0.9-1.5-1.1-3.1-2.4-1.9c-6.7,6.5-11.1,16.4-13,25.5C157.6,461.1,159.4,462.1,160.6,461z"/>
<path class="st4" d="M8.6,225.2c0.6,1,1,2,1.8,2.9c1.8,2.1,5.1,1.1,7-0.3c0,0,0,0,0,0c0.3,0.1,0.6,0,0.8-0.2
	c3.4,0.3,7.2,0.1,10.7-0.2c0.1,0.3,0.2,0.6,0.5,0.8c1.5,0.7,3.2,0.6,4.8,0.7c1.8,0.1,3.4,0.9,5.2,0.9c0.8,0,1.4-0.9,0.9-1.6
	c-0.5-0.8-1.3-1.5-2.2-2c0.4-0.1,0.7-0.1,1-0.2c1.1-0.2,1.2-2.1,0-2.3c-4.5-0.6-9-0.6-13.5-0.5c-2.2,0-4.4,0.1-6.6,0.1
	c-4.6,0.1-6.7-1.9-9-5.3c-0.5-0.7-1.5-0.6-1.8,0.2c-0.6,1.6-0.6,3-0.4,4.2C7.4,223.3,8.1,224.4,8.6,225.2z"/>
<path class="st4" d="M14.7,194.5c0.9,1.5,2.7,3.1,4.6,3.1c1.2,0,1.9-1,1.9-2c3,0.7,9.6,1.1,14.3,1.5c-0.1,0.4,0.1,0.9,0.4,1.2
	c0.6,0.5,1.6,0.6,2.4,0.6c1,0.1,2,0.1,3,0.1c0.4,0,0.7-0.2,0.9-0.5c0.2-0.1,0.4-0.3,0.4-0.5c0.2-0.5,0.3-1.1,0.5-1.6
	c0.2-0.7-0.2-1.4-0.9-1.6c-4.5-1.2-9.1-1.5-13.7-2c-3.1-0.3-6-0.6-8.5-2.7c-2-1.6-2.4-4.5-3.1-6.8c-0.4-1.3-2-1.1-2.4,0
	c-0.7,1.7-0.7,3.4-0.3,5c-0.2,0.3-0.4,0.6-0.5,1.1C13.4,191.3,13.7,192.9,14.7,194.5z"/>
<path class="st4" d="M33,159.9c0.1,0,0.2,0,0.3-0.1c2.1,1.4,4.8,2.1,7.1,3c3.7,1.5,7.4,3,11.2,4.1c1.7,0.5,2.9-2.1,1.2-3
	c-0.2-0.1-0.4-0.2-0.6-0.3c0.3,0,0.5,0.1,0.8,0.1c1.5,0.1,2-2.1,0.7-2.7c-3.5-2-7.3-3-11.2-4.2c-5.1-1.6-13.5-2.8-13.9-9.6
	c-0.1-1.1-1.6-1.7-2.1-0.6c-0.7,1.3-1,2.6-0.9,3.8c0,0.1-0.1,0.2-0.1,0.3C24.8,155.3,28.3,160,33,159.9z"/>
<path class="st4" d="M48.4,125.6c3,1.4,6.4,2,9.6,3c0,0,0,0,0,0c2.3,2.1,5,3.8,7.6,5.4c0.5,0.6,1.4,1,2.1,1.2c1.6,0.6,2.5-1.2,2-2.4
	c0.2-0.1,0.3-0.3,0.4-0.5c0.8-3.1-3.9-5.2-6.1-6.4c-6.4-3.4-14.8-7.8-13.2-16.5c0.3-1.7-1.9-2.8-2.8-1.2
	C44.9,113.7,40.7,121.9,48.4,125.6z"/>
<path class="st4" d="M68.5,85.6c-0.1,1.1,0.1,2.2,0.6,3.2c0.2,1.8,0.9,3.5,2.2,5.1c4.5,5.2,13.1,6.9,16,13.4
	c0.5,1.2,2.4,0.8,2.7-0.4c0.1-0.4,0.2-0.9,0.3-1.3c0-0.1,0-0.3,0-0.4c0.1,0,0.2,0,0.2,0.1c1.5,0.3,2-1.7,0.6-2.3
	c-1.4-0.6-2.9-2.6-4-3.6c-1.7-1.5-3.4-3.2-5-4.8c-3.2-3.2-8.3-7.3-7.6-12.3c0.2-1.4-1.4-2.8-2.6-1.5c-0.3,0.3-0.5,0.6-0.7,0.9
	c-0.3,0-0.6,0.1-1,0.4c-0.8,0.7-1.3,1.5-1.5,2.3c0,0,0,0,0,0C68.5,84.8,68.4,85.2,68.5,85.6z"/>
<path class="st4" d="M100,65c0.4,0.6,1,0.7,1.5,0.5c0.2,0.1,0.4,0.2,0.7,0.2c1.2,2.9,3.8,5.3,5.7,7.6c2.6,3.3,5,6.7,7.9,9.7
	c1,1.1,2.8-0.3,2-1.6c-0.1-0.1-0.1-0.2-0.2-0.3c0.4-0.3,0.6-0.9,0.3-1.4c-5.3-8.2-14.5-14.9-12-25.8c0.5-2-2-2.8-3.1-1.3
	c-0.7,0.9-1.3,1.9-1.7,2.9c-0.4,0.1-0.7,0.3-1,0.8c-0.6,1-0.9,2-1.1,3C98.6,61.2,98.8,63.1,100,65z"/>
<path class="st4" d="M130.9,42.9c0.3,1.8,1.1,3.4,2.7,4.5c1.3,3.2,3.1,6.3,5,9.1c-0.1,0-0.3,0.1-0.4,0.1c-1.5,0.8,0.3,2.4,0.9,3.1
	c0.8,0.8,1.6,1.8,2.2,2.8c0,0.6,0.1,1,0.3,1.5c0.6,1.5,2.7,0.7,3-0.5c0.7,0,1.4-0.9,1-1.6c-4.5-7.7-13-17.8-9.2-27.2
	c0.5-1.3-1.4-2.3-2.3-1.3c-0.5,0.6-0.9,1.2-1.3,1.9c-0.8-0.4-1.9,0-1.9,1.1c0,1.8-0.5,3.6-0.7,5.4C130.1,42.4,130.5,42.8,130.9,42.9
	z"/>
<path class="st4" d="M171,32.9c0.3,0.7,0.7,1.1,1.3,1.2c0.2,0.7,0.4,1.4,0.6,2c0.2,0.6,0.7,0.8,1.1,0.8c0.4,2.2,1.1,4.3,2,6.2
	c-0.2,0.1-0.3,0.2-0.4,0.4c-0.5,0.9-0.1,1.8,0.1,2.7c0.2,0.9,0.6,1.8,1.2,2.5c0.4,0.5,0.8,0.8,1.4,0.6c0.4-0.1,0.8-0.5,0.9-0.9
	c0.1,0.1,0.1,0.1,0.2,0.2c0.4,0.6,1.2-0.1,1.1-0.6c-2-10.8-7.6-22.5,3.6-30.5c1.2-0.9,0.5-3.3-1.1-2.6c-3.1,1.2-6.5,2.2-9.2,4.2
	c-0.6-0.5-1.7-0.5-2.1,0.4C169.3,23.9,169.2,28.2,171,32.9z"/>
<path class="st4" d="M210.1,19.4c0.5,2.1,0.9,4.3,1.6,6.4c-0.2,4.8-0.4,9.3-1.3,14.2c-0.3,1.4,1.6,2.3,2.3,1c3.4-5,3.9-10.1,3.6-16
	c-0.5-9,4.3-12,11.7-15c0.4-0.2,0.7-0.9,0.2-1.2c-3-1.4-6.4-0.8-9.2,0.8c-3.7-0.6-7.6,0.2-9.6,3.8C208.5,15,209.7,17.7,210.1,19.4z"
	/>
<path class="st4" d="M243.7,37.5c-0.4,1.5,1.8,2.5,2.6,1.1c2.3-4,3.8-8.7,4.7-13.2c1.1-5.3,0.3-12.1,5.9-15.1c1-0.5,0.6-2.2-0.6-2.1
	c-1.2,0.1-2.2,0.4-3.1,0.8c-0.1,0-0.1-0.1-0.2-0.1c-4.1-1.3-6.7,2.2-7.4,5.9c-0.6,3,0.2,6.5,0.3,9.5c0,3.6-0.6,7.1-1.4,10.6
	C244.2,35.7,243.9,36.6,243.7,37.5z"/>
<path class="st4" d="M277.3,40.8c-0.6,1.7,1.8,3,3,1.7c3-3.1,4.5-6.2,5.9-10.3c1.8-5.3,2.1-13.8,7.7-16.6c1.3-0.6,0.7-2.8-0.7-2.7
	c-1,0.1-1.9,0.3-2.7,0.7c-0.5-0.7-1.5-1-2.4-0.6c-3.9,1.7-6.7,6.1-5.9,10.3c0,0.1-0.1,0.3-0.1,0.4C280.8,29.6,279.2,35.2,277.3,40.8
	z"/>
<path class="st4" d="M444.1,223.2c3.7-0.2,7.3-2.2,9.8-4.8c1.1-1.1-0.3-2.9-1.6-2.1c-2.8,1.7-5.6,2.4-8.7,3.2
	C441.6,220,442,223.3,444.1,223.2z"/>
<path class="st4" d="M434.1,179.2C434.1,179.2,434.2,179.2,434.1,179.2c0,0.6,0.3,1.2,0.7,1.6c-0.6,0.4-1,1.2-0.8,2.1
	c0.5,2.3,2.3,3.1,4.5,3.2c1.4,0,2.8-0.5,4.2-0.5c1.1,0,2.2,0.1,3.3,0.4c-0.6,1.8-1.7,3.3-3.4,4.4c-0.5,0.2-1,0.5-1.5,0.8
	c-0.6,0.4-0.8,1-0.9,1.6c-1-1.8-3.8-0.1-2.9,1.8c2,4.2,2.7,8.4,3.2,13c0,0.4,0.2,0.7,0.4,0.9c-0.6,0.6-0.6,1.7,0.1,2.2
	c-0.4,0.5-0.3,1.4,0.3,1.8c0.8,0.5,1.9,0.5,2.9,0.8c1,0.3,1.9,0.6,2.9,0.9c0.5,0.2,1-0.1,1.1-0.5c0.2,0.1,0.4,0.3,0.7,0.4
	c0.2,0.1,0.4,0.2,0.7,0.1c0,0.9,0.7,1.9,1.8,2c5.1,0.5,12.7-3.9,13.7-9.2c0.1-0.7-0.6-1.4-1.3-1c-1.9,1.2-3.5,2.8-5.4,4
	c-2.4,1.5-4.9,1.7-7.5,2.5c-0.1,0-0.1,0.1-0.2,0.1c0-0.1,0-0.2-0.1-0.2c-0.8-1.5-2.1-2.5-3.6-3.3c-0.7-0.3-1.4-0.7-2.3-0.9
	c2.4-1.8,4.7-3.7,6.7-5.8c0.3-0.3,0.4-0.7,0.4-1c0.8,0.9,2.3,1.1,3.1,0.1c0.4-0.5,0.7-0.9,0.9-1.3c2.6-0.7,5.2-1.4,8-1
	c2.8,0.4,4.3,2.3,6.4,3.9c0.5,0.4,1.6,0.4,1.7-0.5c0.6-3.6-2.3-6.1-5.4-7.4c-4.3-1.8-9.2-0.9-13.5,0.5c-1,0.3-2,1.3-1.9,2.4
	c0,0.4-0.1,0.8-0.1,1.2c-0.1,0.4-0.1,0.7,0,1.1c-0.4-0.3-0.9-0.3-1.3,0c-2.1,1.3-4.3,2.8-6.3,4.4c-0.1-3.4-1.1-6.8-2.4-9.9
	c0.4,0.3,1,0.4,1.7,0.1c1.6-0.6,3.1-0.8,4.8-0.8c1.3,0,2.1-1.7,1.1-2.6c-0.3-0.3-0.7-0.5-1.1-0.7c1.2-1.6,2-3.4,2.4-5.3
	c0.2-0.8-0.1-1.8-0.9-2.1c-1.6-0.7-3.2-1.2-4.9-1.4c-0.6-0.1-6.4,0.4-6.4,0.1c-0.1-0.3-0.2-0.6-0.4-0.8c2.3-1,4.6-1.9,7.1-2.5
	c2.3-0.6,4.9-0.7,7.1-1.6c0.7-0.3,1-1.3,0.2-1.7c-2.7-1.3-6.1-1.2-9.4-0.5c1.6-2,2.8-4.4,3.4-6.9c0.3-1.1-0.5-2.2-1.7-2.2
	c-0.9,0-1.7-0.1-2.5,0c-1.7,0.2-2.5,3.1-0.5,3.4c0.2,0,0.5,0,0.7,0.1c-0.5,1.4-1.2,2.7-2.1,3.9c-0.7,0.9-1.8,1.6-2.7,2.4
	c-0.1-0.1-0.2-0.1-0.3-0.2c-1.9-0.4-4.1,0.3-4.8,2.3C431.4,178.9,433,179.7,434.1,179.2z"/>
<path class="st4" d="M427.3,148.1c0,0.1,0.1,0.2,0.2,0.2c1.8,1.5,4.2,0.8,6.5,1c1.7,0.1,3.2,0.7,4.8,1.1c0.8,0.2,0.8,1,0.7,1.9
	c-0.4,0.1-0.8,0.3-1.1,0.9c-0.2,0.3-0.2,0.7,0,1c0.4,0.6,0.8,0.8,1.3,0.9c0.2,0.1,0.3,0.1,0.5,0.1c0.2,0,0.4,0,0.6,0.1
	c0.5,0.3,1,0.4,1.6,0.4c2.3,0,2.5-3.3,0.5-3.8c0.2-0.4,0.3-0.9,0.3-1.3c0-2.2-2-3.1-3.7-3.9c-1.3-0.7-3.5-1.3-5.6-1.5
	c0.4-0.6,0.7-1.2,1-1.8c1.1-2,2.2-4,3.3-5.9c1.1-2-1.9-3.7-3-1.8c-1.2,2.2-2.6,4.2-4.2,6.1c-1.4,1.6-3.7,3.3-4.3,5.4
	C426.4,147.5,426.8,148,427.3,148.1z"/>
<path class="st4" d="M318.7,54.5c1.9-0.2,3.2-1.6,4.7-2.8c1.1-0.8,2.2-1.6,3.2-2.4c0.5,1,0.8,2.1,1,3.2c0.2,1,0.2,2,0.3,3
	c-1.5,0.3-2.2,2.7-0.6,3.5c1.7,0.8,3.6,1.1,5.3,1.8c0.7,0.3,1.3-0.2,1.7-0.7c0.7-1,1.5-1.9,2.2-2.9c0.3-0.5,0.7-0.9,1.1-1.3
	c0.4,0.4,1.1,0.5,1.7,0.2c0.7-0.4,1.3-0.8,2-1.2c0,0.4,0.1,0.8,0.1,1.2c0.1,2.2-0.3,4.4-0.7,6.6c-0.3,0-0.6,0-0.8,0.3
	c-0.6,0.7-0.6,1.6-0.3,2.4c0.3,0.8,1.2,0.9,1.7,0.4c0.4,0.5,0.8,0.8,1.4,0.8c1.5,2.2,5.1,3.1,7.4,4.4c2.8,1.6,5.2,3.8,8.1,5
	c0.1,0,0.1,0,0.2,0c0.1,0.6,0.7,1.1,1.3,1.1c0.3,0,0.6,0,1,0c0.3,0.1,0.7,0,0.9-0.3c0.7-0.3,1.4-0.6,2-1c0.7-0.3,1.4-0.7,2-1
	c0,1.8,0.1,3.6,0.3,5.3c-1,0.4-1.2,2.2-0.2,3c2.1,1.6,4.3,3.2,6.4,4.7c0.4,0.3,0.8,0.3,1.1,0.1c0.8,0.5,1.6,1,2.4,1.4c0,0,0,0,0,0
	c0.5,0.5,1.3,0.7,2.1,0.3c1.1-0.5,2.2-1.1,3.3-1.7c0.1-0.1,0.2-0.1,0.3-0.2c0.3,0.6,1.1,0.7,1.8,0.6c0.4,0.4,1.1,0.6,1.7,0
	c0.1-0.1,0.2-0.2,0.2-0.2c0.3-0.1,0.7-0.1,1-0.2c0,2.2-0.8,4.6-1.5,6.8c-0.2,0-0.5,0-0.7,0c-1.1,0.2-1.4,1.7-0.7,2.5
	c-0.5,0.7-0.6,1.6,0.3,2.3c3.3,2.9,6.5,5.8,9.5,9c3,3.2,5.2,7,8.2,10.2c0.1,0.1,0.2,0.2,0.4,0.2c1.2,3.4,5,3.3,8.4,2.8
	c1.1-0.2,2.3-0.3,3.4-0.5c0.8-0.1,1.5-0.2,2.2-0.4c0.7,1,0.7,1.9-0.1,2.7c-0.8,1.5-1.9,3-2.4,4.7c-0.3-0.3-0.7-0.6-1.1-0.7
	c-1.1-0.3-1.9,0.5-2,1.5c-0.1,0.7,0.3,1.3,0.8,1.9c-0.2,0.3-0.3,0.8-0.1,1.1c0.6,1,1.5,1.6,2.3,2.6c0.8,1.1,1.5,2.3,2.2,3.4
	c0.9,1.4,1.9,3.9,3.3,5.2c0,0,0,0,0,0c-0.1,0.5-0.2,1.1,0.2,1.6c0.3,0.4,0.6,0.8,0.9,1.2c0.2,0.2,0.3,0.4,0.5,0.6
	c0,0.3,0.1,0.5,0.2,0.8c1.5,2.9,3.1,5.6,4.6,8.4c1.1,2.1,2.2,4.4,3.8,6.1c-0.4,0.6-0.4,1.3-0.1,1.9c0.7,1.3,1.5,2.5,2.4,3.8
	c0.9,1.2,3.1,0.5,2.5-1.1c-0.4-1.1-0.8-2.2-1.3-3.2c1.2-1.2,2.4-2.4,3.5-3.6c1.2-1.3,2.7-2.4,3.1-4.1c0.2-0.9-0.5-1.7-1.5-1.5
	c-1.8,0.4-2.8,1.9-4.1,3.1c-0.9,0.9-1.8,1.8-2.7,2.8c-0.5-1.6-1.5-3.1-2.3-4.7c-1.3-2.5-2.7-5.1-4-7.6c0.1-0.2,0.1-0.5,0-0.7
	c-0.4-0.9-0.8-1.7-1.3-2.4c0,0,0,0,0,0c0.9-1.7,1.3-3.4,1.9-5.2c0.6-1.9,1.7-4.1,1.7-6.1c0.1-2.4-1.8-5.3-4.6-4.2
	c-0.7,0.3-1.1,0.8-1.2,1.5c0,0.1,0,0.2,0,0.3c0,0.5,0.4,1,0.9,1.1c2.5,0.6,0.8,3.8,0.4,5.5c-0.5,1.6-1,3.1-1.3,4.7
	c-0.1,0-0.1,0-0.2-0.1c-0.2-0.5-0.5-0.9-0.9-1.5c-0.9-1.5-1.9-3-2.8-4.6c-0.6-1.1-1.3-2.4-2.2-3.6c0.1-0.2,0.2-0.5,0.1-0.7
	c-0.1-0.3-0.1-0.7-0.2-1c0,0,0-0.1,0-0.1l0,0c1.9-1.2,2.9-3.4,4.1-5.3c1.1-1.9,1.8-3.6,1.1-5.8c-1.4-4.7-12-0.9-14.1-1.7
	c1.9-2.6,3.4-5.4,4.7-8.4c1.4-0.1,2.8-0.7,4.2-1.1c2.3-0.6,4.6-1,6.7-1.9c1.2-0.5,0.9-2.6-0.4-2.8c-2.3-0.4-4.5-0.1-6.7,0.4
	c-0.6,0.1-1.3,0.3-2,0.4c1-3.1,1.7-6.5,0.9-9.4c-0.3-1.1-2-1.4-2.5-0.3c-1.6,3.2-1.7,7.1-2.7,10.5c-0.6,2.1-1.4,4.1-2.3,6.1
	c0,0,0,0,0,0c-1.1,0.6-3.5,2.7-3.1,4.3c-0.1,0-0.1,0.1-0.2,0.1c-2.9-6-7.8-11.6-12.8-16.2c3.1-1.9,6.4-3.1,9.9-4.1
	c1.8-0.5,1.5-3.4-0.5-3.3c-4.4,0.1-8.5,1.9-11.7,4.7c-0.1-0.6-0.4-1.1-0.9-1.5c0.4-0.7,0.8-1.5,1.1-2.3c0.2-0.6,0.4-1.2,0.5-1.8
	c2,1.2,5.5-0.1,7.1-1.4c0.7-0.5,0.5-1.7-0.5-1.7c-1.2,0-2.3,0.2-3.5,0.4c-0.9,0.2-1.9,0.2-2.7,0.6c0.2-0.9,0.3-1.8,0.7-2.7
	c0.3-0.9-0.5-1.9-1.4-1.9c0,0-0.1,0-0.1,0c1.2-3,1.6-6.8,0.6-9c-0.6-1.2-2.1-0.7-2.5,0.3c-0.6,1.6-0.4,3.6-0.7,5.3
	c-0.2,1.1-0.6,2.1-1,3.2c-0.1-0.1-0.3-0.2-0.6-0.2c-1.3,0-2.1,0.1-3.4,0.5c-1,0.3-2,0.8-3,1.2c-0.3-0.3-0.6-0.5-0.9-0.8
	c1.2-1.8,1.6-4.4,1.8-6.4c0-0.5-0.3-1.2-0.8-1.4c-0.5-0.2-0.8-0.3-1.3-0.2c-0.5,0.1-1.1,0.6-1.1,1.1c-0.2,1.3-0.4,2.6-0.8,3.9
	c-0.1,0.4-0.2,0.8-0.4,1.1c-0.2-0.1-0.5-0.1-0.8-0.2c-0.2,0-0.4,0-0.5,0.1c-1.1-1.2-2.5-2.1-4-2.8c0.4-2.7,0.3-5.5,0.4-8.2
	c0-0.9-1-1.7-1.8-1.4c-1.2,0.5-2.4,1-3.7,1.6c0.2-1,0.5-2,0.4-3c-0.2-1.4-2.2-2.4-3-0.8c-0.5,1-0.5,2.1-0.7,3.3
	c-0.1,0.6-0.1,1.2-0.1,1.8c-1.8-2.7-4.8-4.5-7.5-6.1c-1.9-1.2-4.5-3.1-7-3.3c1.3-1.1,2.7-2.2,4-3.2c1.8-1.3,3.6-2.3,5.2-3.9
	c1-1-0.1-2.3-1.2-2.1c-3,0.4-5.9,2.3-8.4,4.4c0.1-0.4,0.1-0.6,0.1-0.7c0.2-2.1,0.2-4.4-0.3-6.5c-0.5-2.1-2-2-3.5-1.2
	c0.1-1.4,0.1-2.8-0.1-4.1c-0.2-2.4-3.7-2.5-3.8,0c-0.1,1.9,0,3.8,0.5,5.6c-2.3,0.6-4.1,2.5-5.2,4.6c-0.6-0.3-1.2-0.7-1.8-1
	c1-3.3-0.4-7.7-1.9-10.5c-0.4-0.7-1.6-1.1-2.3-0.6c-1.7,1.3-3.2,2.6-4.8,4.1c-1.3,1.3-3.1,2.1-3.7,3.9
	C317.6,53.9,318.1,54.6,318.7,54.5z"/>
<path class="st4" d="M26.6,289.2c2.1-0.8,4.1-2,6.1-3c1.9-0.9,4-1.4,6-2c0,0,0.1,0,0.1,0c0.3,0,0.5-0.1,0.6-0.2
	c0.1,0,0.2-0.1,0.4-0.1c0.8,4.9,1.7,9.7,2.8,14.6c-1.3,0.8-2.7,1.6-4,2.6c-1.1-0.3-2.3-0.6-3.4-0.7c-1.3-0.2-2.7-0.8-3.9-0.1
	c-0.4,0.3-0.6,0.8-0.3,1.3c0.8,1.2,2.2,1.2,3.6,1.3c0.6,0.1,1.2,0.1,1.8,0.1c-1,1-2,2-2.8,3.1c-0.9,1.3,1,2.4,2,1.5
	c1.6-1.3,2.9-2.7,4.6-4c1-0.7,2-1.5,3-2.2c0.8,3.6,1.5,7.2,3.6,10.1c-1.3,0.7-2.6,1.4-3.8,2.2c-0.6,0.4-1.1,0.8-1.6,1.2
	c-0.6,0.5-0.6,1.3-0.9,2c-0.2,0.7,0.4,1.3,1,1.3c0.6,0,1.1,0.2,1.8,0c0.8-0.2,1.5-0.8,2.2-1.2c1.2-0.8,2.3-1.7,3.4-2.6
	c0,0.1,0,0.1,0,0.2c0.8,5.6-6.6,8.4-7,13.9c-0.2,2.5,0.7,5.6,2.9,6.7c0,0.1-0.1,0.2-0.1,0.4c-0.4,1.3-1.2,2.4-1.4,3.8
	c-0.1,0.4,0.2,0.8,0.6,1c-0.1,0.1-0.1,0.1-0.2,0.2c-2,3.4-5.8,10.5-2.1,14.2c1.7,1.7,3.9,1.6,6.1,1.3c2.1-0.2,4.3-0.5,6.3-1.2
	c-0.4,0.7-0.9,1.4-1.5,2c-1.2,1.2-0.7,3.8,1.3,3.7c0.6,0,1.1-0.4,1.4-0.9c0,0,0,0,0,0c0-0.1,0-0.1,0.1-0.1c0.1,0,0.1-0.1,0.2-0.1
	c0.5-0.4,1-0.9,1.4-1.5c0.5-0.7,0.9-1.5,1.2-2.3c0.3,0.3,0.6,0.5,1,0.4c1.9-0.2,3.8-0.8,5.6-1.5c-0.5,1-0.9,2-1.2,3
	c-0.8,2.1-2.2,5.3-1.6,7.6c0.5,1.8,3,1.8,4.4,1.9c0.4,0,0.7,0,1.1,0c-1.5,2.6-2.3,5.8-2,8.5c0.1,1.3,1.9,1.6,2.3,0.3
	c0.6-1.8,1.3-3.5,2-5.2c0.7-1.6,2-2.9,2.8-4.4c0.6-0.2,1.2-0.5,1.7-0.9c0.4-0.3,0.6-0.7,0.5-1.2c0.3,0.4,0.5,0.8,0.8,1.2
	c2.5,3.6,5.3,7.9,8.9,10.7c1.9,2.8,4.9,5.4,6.9,7.9c1.8,2.2,3.5,4.4,5.8,6c-0.8,0.3-1.6,0.6-2.3,0.9c-1.3,0.5-2.5,0.9-3.5,1.7
	c-4.2,1.3-8.5,2.5-12.5,4.3c0,0,0,0,0-0.1c0.2-1.7-1.6-2.2-2.8-1.6c-2.5-4.8,1.5-9.2,3.1-14.1c0.5-0.1,0.9-0.3,1.4-0.5
	c1.5-0.6,0.5-2.5-0.7-2.7c-0.2,0-0.5,0-0.7,0c-0.5-0.5-1.4-0.6-2.1-0.1c-2.1,0-4.3,0.2-6.3,0.2c-2.5,0-2.4,3.7,0,3.8
	c1.2,0.1,2.6,0.1,3.9,0c-2.6,5.6-5.3,14.5,0.3,16.4c-0.2,1.9-0.3,3.8,0.1,5.7c0.3,1.4,2.1,1.1,2.5,0c0.6-1.4,0.8-2.8,1-4.3
	c0.4,0.2,0.8,0.4,1.3,0.3c3.7-0.8,7.3-2.1,10.9-3.3c0,1.3,0,2.7,0.3,3.9c-1.3,0.2-2.5,0.6-3.5,1.1c-1.6,0.8-1,3.8,1,3.6
	c1-0.1,2-0.4,3.1-0.7c0.5-0.1,1-0.2,1.5-0.4c0.1,0.1,0.3,0.3,0.4,0.4c3.1,2.1,7.1,0.5,10.2-0.6c1.4-0.5,3.1-1.2,4.6-2.1
	c-0.6,1.4-1,3-1.5,4.4c-0.9,2.9-1.8,6.2-1.6,9.2c0.1,1.6,2.2,1.8,2.7,0.4c0.9-2.4,1.3-5.1,2.1-7.6c0.5-1.7,1.4-3.4,2.1-5
	c1,1.3,2.4,2.5,3.5,3.4c2,1.7,4.3,3.1,6.8,4c-1.7,1.8-3.4,3.6-5.6,4.9c-2.2,1.3-4.6,1.6-6.5,3.4c-1.7,1.5,0.5,4.1,2.4,3
	c2.9-1.5,5.8-2.4,8.4-4.4c0.3-0.2,0.6-0.5,0.9-0.8c-1.1,4.5-2,9.1-1.5,13.3c0.1,0.8,1.3,1.4,1.8,0.5c1.4-2.9,1.8-6.2,2.5-9.4
	c0.5-2.1,1-4.2,1.5-6.3c2.1,2.2,5.7,3.6,8.1,4.9c3.4,2,6.7,4.1,10.5,4.9c-1.2,1.4-2.2,2.8-3.2,4.3c-0.8,1.3,0.8,3.1,2.2,2.2
	c1.1-0.7,1.6-1.6,2.2-2.7c0.4-0.6,0.9-1.1,1.3-1.6c1.7-0.7,4.2,1.6,5.7,2.1c0.6,0.2,1.1-0.2,1.3-0.7c0.2,0.1,0.3,0.1,0.5,0.2
	c2.1,0.8,3-2.6,0.9-3.3c-2.4-0.8-4.7-1.8-6.9-2.9c-0.3-0.2-0.7-0.2-1-0.2c0,0,0,0,0,0c-7.1-2-14.7-6.7-20.4-11.4c0-0.1,0-0.1,0-0.2
	c0.5-1.7-1.5-3-2.9-2c-2.3-1.2-4.5-2.6-6.5-4.3c-1.5-1.3-2.9-4-4.8-4.8c-0.1-0.8-0.7-1.5-1.4-1.6c0.1-0.2,0.1-0.4,0.1-0.6
	c0.2-1.2-1-2.4-2.2-1.7c-0.2,0.1-0.4,0.3-0.7,0.5c-0.2-0.1-0.3-0.3-0.5-0.4c-1.2-1.1-2.4-2.2-3.6-3.4c-1.2-1.1-2.3-2.3-3.5-3.5
	c-1-1-1.6-2-3-2.3c-0.3-0.1-0.6,0-0.9,0.2c-1.8-1.7-3.3-3.7-4.9-5.8c-2.4-3-4.5-7.6-8-9.5c-0.2-0.1-0.3-0.1-0.5-0.1
	c-2-2.5-4.2-4.9-5.9-7.4c-3.1-4.6-5.6-9.4-8.3-14.3c-0.5-1-2-0.6-2.2,0.3c-0.5,0.1-0.9,0.3-1.3,0.9c-0.1,0.2-0.2,0.3-0.3,0.5
	c-2.6,0.4-5.3,1.1-7.7,2c-0.2,0.1-0.3,0.1-0.5,0.2c-0.2-0.6-0.8-1-1.4-1.2c-0.2-0.3-0.5-0.6-0.9-0.6c0,0,0,0-0.1,0
	c0-0.2-0.1-0.3-0.3-0.5c-1.6-1.6-1.2-3.2-0.4-5c0.2,0,0.3-0.1,0.5-0.2c0.2-0.2,0.4-0.4,0.7-0.6c0.3-0.1,0.6-0.3,0.7-0.6
	c1.1-1,2.2-1.9,3.2-3c0.7-0.7,1.8-1.7,2-2.7c0.2-1,0.2-1.8-0.2-2.8c-0.3-0.9-1.7-2.3-1.3-3.3c0.4-1.3-0.8-2.4-2-2.3
	c-0.6-1.7-1.5-3.3-2.2-5c-1.3-3-2.4-6-3.3-9c0.3-1.3,0-2.7-1.2-4.2c-0.5-0.6-1-0.7-1.5-0.6c0-0.1-0.1-0.2-0.1-0.4
	c-2.4-3.7-3.8-8-4.8-12.5c0.1-0.4,0-0.7-0.2-1c-1.3-6.1-1.8-12.5-2.7-18.3c-2-13.1-2.9-26.4-3.2-39.6c-0.1-2.3-3.6-2.3-3.5,0
	c0,2.2,0.1,4.3,0.2,6.5c-1.2,0.7-2.6,1.5-3.6,2.6c-1.4,1.5,0.4,4,2.2,2.9c0.6-0.3,1.1-0.7,1.6-1.2c0.3,4.6,0.6,9.1,1,13.7
	c-1.9,0.2-4.2,1.7-5.3,2.6c-2.3,1.8-4,4.2-4.9,6.9c-0.1,0-0.3,0.1-0.4,0.2c-0.1,0.1-0.2,0.1-0.2,0.2c-0.8,0.6-1.1,1.3-0.9,2.2
	c0.7,3.3,3.3,5.2,6.3,6.2c-2.4,0.8-4.9,1.7-6.8,3.3C23.9,287.6,25.1,289.7,26.6,289.2z M101,392.8c0.5,0.4,0.9,0.8,1.3,1.1
	c1.2,1.1,2.4,2.2,3.7,3.3c0.3,0.2,0.5,0.5,0.8,0.7c-1,0.8-2,1.5-3.3,2c-1.9,0.8-5.9,2.6-7.8,1.3c-0.4-0.3-0.8-0.4-1.2-0.3
	c0.3-1.7,0.1-3.7,0-5.4c0.7-0.2,1.5-0.5,2.2-0.8C98.1,394.1,99.6,393.5,101,392.8z M69.2,354.2c1.4,3.3,3.1,6.4,4.9,9.4
	c-0.2-0.1-0.3-0.1-0.5-0.1c-1.6,0.1-3,0.5-4.6,0.7c-0.8,0.1-1.7,0.1-2.5,0c0.2-1.2,0-2.3-0.5-3.4c0-0.1-0.1-0.1-0.1-0.2
	C66.7,358.3,67.9,356.2,69.2,354.2z M57.2,335.3c0.3,0.7,0.7,1.4,1.2,2.2c0.7,1.2-1.5,3.8-3.2,5.7c-0.7,0-1.5,0.1-2.1,0.4
	c0,0-0.1,0-0.1,0c-1.1,0.5-2.2,0.8-3.4,0.8c-1.2,0.1-2.4-0.6-3.6-0.1c-0.8,0.3-1.4,1.2-0.8,2c1.2,1.7,3.7,1.8,6,1.3
	c-0.1,0.8-0.2,1.7,0,2.6c0.2,0.8,0.6,1.5,1.1,2.1c-2.1,0.3-4.3,0.7-6.3,1c-6.5,1.1-1-8.4,0.4-10.7c0.5-0.8,0.2-1.7-0.4-2.1
	c0.8-0.9,1.7-4.8,2.7-4.8c1.8-0.2,3.7,0.2,5.5,0.1C55.4,335.6,56.3,335.5,57.2,335.3z M51.2,320.9c0.5,1.4,1.1,2.8,1.7,4.3
	c0.9,2.1,1.7,4.4,2.8,6.6c-1.6,0.3-3.1,0.4-4.8,0.3c-1.6-0.1-3.4-0.5-4.7,0.8C43.3,328.4,48.2,324.7,51.2,320.9z M31.1,278.7
	c0.3-0.7,0.2-1.4-0.1-2.1c0-0.1-0.1-0.2-0.1-0.2c0,0,0,0,0,0c0.8-2.6,2.3-4.7,4.6-6.2c0.5-0.3,1.4-0.7,2.3-1.1c0.4,4,0.9,8,1.5,12
	c0,0.1,0,0.2,0,0.3c-0.4,0-0.7,0.1-1.1,0.2c-2-0.9-4.2-1.2-6.2-2.2C31.7,279.2,31.4,279,31.1,278.7z"/>
<path class="st5" d="M453.3,229.5c1.6,0.2,3.3-0.3,5-0.4c1.9-0.1,3.6,0.4,5.5,0.6c2.3,0.2,3.2-2.9,1.8-4.3c-3.1-3.3-10.1-4.9-14-2.4
	C448.4,225,449.9,229.1,453.3,229.5z"/>
<path class="st5" d="M451.8,263.1c0.3,1.1,1.3,2.2,2.5,2.5c4.5,1,10.9,1.1,15-1.2c1.8-1,1.2-3.4-0.5-4c-1.9-0.7-4-0.7-6-0.9
	c-2.5-0.3-5-0.7-7.5-0.8c-1.3,0-2.4,0.7-3,1.7C451.6,261.3,451.5,262.1,451.8,263.1z"/>
<path class="st5" d="M446.3,300.8c1.7,2,4.4,1.8,6.8,2.1c2.5,0.3,5,1,7.5,1.1c2.4,0.1,4-3.3,2-4.9c-2.3-1.8-4.9-2.6-7.6-3.3
	c-2.8-0.7-6.6-1.2-8.7,1.1C445.3,298.1,445.3,299.7,446.3,300.8z"/>
<path class="st5" d="M435.1,328c1.1,1.9,3.5,1.9,5.4,2.4c4.2,0.9,8,3.3,12.2,3.9c1.9,0.3,4.2-1.6,2.8-3.6c-3.4-4.8-10.6-7.2-16.3-8
	c-1.8-0.3-3,0.2-4.1,1.7C434.3,325.4,434.4,326.8,435.1,328z"/>
<path class="st5" d="M424.9,356.5c3.6,1.1,6.9,2.9,10.5,4c2.9,0.9,4.4-2.6,2.7-4.6c-2.6-3.1-15.3-11.1-18.1-5
	C418.4,354.2,422.4,355.8,424.9,356.5z"/>
<path class="st5" d="M397.9,385.8c1.9,1.7,4.5,1.9,6.9,2.6c2.8,0.8,5.2,2.7,7.5,4.5c2.5,2,5.9-0.4,4.5-3.5c-1.7-3.5-4.8-6-8.4-7.4
	c-3.2-1.3-7.7-2.5-10.5,0.4C397,383.2,396.9,384.9,397.9,385.8z"/>
<path class="st5" d="M377.4,407c1.4,2,3.1,3.6,4.8,5.2c1.8,1.7,3.8,3.7,6,4.9c2.4,1.3,4.8-1.3,3.6-3.6c-1-2-2.8-3.9-4.2-5.5
	c-1.8-2-3.4-4-5.6-5.6c-1-0.7-2.4-0.5-3.4,0c-0.5,0.3-0.9,0.7-1.2,1.2C376.8,404.6,376.7,406,377.4,407z"/>
<path class="st5" d="M353.8,432c2.2,2.2,5.9,4.6,9.2,4.3c2.1-0.2,3.2-2.5,1.7-4.1c-1.7-1.7-3.8-2.9-5.5-4.7c-1.8-1.9-2.6-5.1-5-6.3
	c-1.8-0.9-3.7-0.1-4.4,1.8C348.5,426.3,351.6,429.9,353.8,432z"/>
<path class="st5" d="M316,444c1.8,5.2,6.5,9.4,11.2,11.8c2,1,5-1.2,3.4-3.4c-1.4-1.9-2.9-3.8-4.3-5.8c-1.5-2-2.7-4.3-4.4-6.1
	C319.6,438,314.8,440.7,316,444z"/>
<path class="st5" d="M283.9,457.7c1.5,3.6,2.9,7.4,5,10.7c1.7,2.6,5.2,0.8,4.8-2c-0.5-3.5-1.8-6.9-2.9-10.2c-1.1-3.4-1.6-7-4.7-9.1
	c-1.6-1.1-3.8,0-4.3,1.8C280.9,452.1,282.6,454.8,283.9,457.7z"/>
<path class="st5" d="M252.7,471.3c-0.2,1.6,2.2,2.5,3.2,1.3c4.9-5.7-1.7-11.5-3.8-16.7c-1.3-3.3-6.6-3.1-6.5,0.9
	C245.6,462.7,253.3,465.6,252.7,471.3z"/>
<path class="st5" d="M210.1,456.5c0.1,4.1-0.2,9.5,2.2,13c0.7,1,2,1,2.7,0c1.5-2.2,1.8-5,2-7.6c0.2-1.8,0.2-3.6,0.3-5.5
	c0-0.9,0-1.8,0.1-2.7c0-0.4,0-0.7,0.1-1c0.2-0.4,0.3-0.8,0.3-1.3c0-0.1,0-0.1,0-0.2c0-2.1-2.2-4-4.3-3.3
	C209.5,449.3,210,453,210.1,456.5z"/>
<path class="st5" d="M174.2,460.9c1,1.5,3.3,1.3,3.8-0.5c1.3-4.3,1-9,2-13.4c0.4-1.5-0.2-3.5-1.7-4.2c-0.6-0.3-1.2-0.5-1.9-0.5
	c-1.5-0.1-3.3,1.2-3.6,2.7C171.9,450.2,171.3,456.3,174.2,460.9z"/>
<path class="st5" d="M134.1,447.6c1.2,1.7,2.9,2.1,4.8,1.3c0.1,0,0.2-0.1,0.2-0.1c0.8-0.4,1.2-1.1,1.4-1.9c2.2-2.1,4.2-4.3,5.8-7
	c1.4-2.3-1.3-4.9-3.6-3.6c-2.1,1.2-4.1,2.7-5.9,4.4C135,442.5,132.2,444.7,134.1,447.6z"/>
<path class="st5" d="M16.4,241.7c2,0,4-0.5,6-0.7c2.3-0.2,4.7,0,7,0.1c2.6,0.1,4-4,1.4-5.2c-4.7-2.1-11.4-2.9-16.1-0.5
	C11.5,236.9,13.2,241.6,16.4,241.7z"/>
<path class="st5" d="M16.3,208.4c0.5,1.7,1.9,2.7,3.7,2.8c4.2,0.3,8.7,0.6,12.6-1.1c1.6-0.7,1.2-3,0-3.8c-3.6-2.3-8.4-2.5-12.6-2.8
	c-1.2-0.1-2.7,0.8-3.3,1.9C16.2,206.5,15.9,207.3,16.3,208.4z"/>
<path class="st5" d="M27.9,171.5c4.5,1.5,9.7,3.7,14.5,2.9c1.8-0.3,2-2.6,1-3.8c-3.2-3.6-9-5.1-13.4-6.7
	C25.2,162.1,23.1,169.8,27.9,171.5z"/>
<path class="st5" d="M44.6,138.7c1.7-0.3,3.3,1,5.4,2.1c2.6,1.3,5.2,2.9,8.2,3c1.6,0,2.4-1.7,1.7-3c-2-3.7-7.1-6.6-10.6-8.6
	c-3.2-1.8-9.1-1.3-9,3.4C40.4,137.8,42.4,139.1,44.6,138.7z"/>
<path class="st5" d="M64.9,105.4c1.9,0.8,3.7,1.7,5.4,3c1.5,1.1,2.9,2.7,4.7,3.5c1.5,0.7,3.4-0.1,3.3-1.9c-0.1-5.3-6-9.6-10.5-11.3
	C63.8,97.3,61.1,103.8,64.9,105.4z"/>
<path class="st5" d="M92,75.1c3.3,3.2,7.6,6.6,12,8.2c1.8,0.7,3.2-1.6,2.3-3c-2.3-4.1-6.5-7.7-10.2-10.5c-1-0.7-2.4-0.5-3.4,0
	c-0.9,0.4-1.3,1.1-1.6,2C90.8,72.9,91.2,74.3,92,75.1z"/>
<path class="st5" d="M121.7,54.4c0.4,0.6,1.2,1.2,2,1.4c0.1,0.2,0.3,0.5,0.4,0.7c0.6,1.1,1.1,2.2,1.8,3.3c1.1,1.8,2.3,3.8,4.5,4.3
	c1.2,0.3,2.2-0.4,2.6-1.5c0.8-2.1-0.2-4.2-1-6.2c-0.8-1.9-1.6-4-2.8-5.7c-1.3-1.9-3.9-3-6.1-1.7C121.3,50,120.4,52.7,121.7,54.4z"/>
<path class="st5" d="M159.6,32.8c1,1.5,1.9,3,2.8,4.7c0.9,1.8,1.3,3.8,2.3,5.6c1.1,1.9,4.2,1.6,4.8-0.6c1.1-4.2-1-9.9-3.6-13.3
	c-1.2-1.6-3.1-2.4-5-1.3C159.2,28.8,158.5,31.1,159.6,32.8z"/>
<path class="st5" d="M195.8,24.5c0.3,0.4,0.7,0.8,1.2,1.2c0.5,1.4,0.4,3.3,0.6,4.6c0.3,2,0.4,3.7,1.9,5.2c0.5,0.5,1.3,0.6,1.8,0.2
	c3.2-1.9,3.2-6.4,3-9.8c-0.3-3.6-1.8-7.9-6.3-6.8C195.9,19.6,194.4,22.7,195.8,24.5z"/>
<path class="st5" d="M230.6,18.3c0.7,0.7,0.7,4.1,0.9,5.2c0.4,2.4,0.9,4.8,1.8,7.1c1.1,2.6,4.6,2.2,4.9-0.7c0.3-3.1-0.1-6.3-0.4-9.3
	c-0.3-2.8-0.1-6.1-3-7.6C231.3,11.1,227.8,15.5,230.6,18.3z"/>
<path class="st5" d="M276.1,30c1-5,1.6-11.3-0.1-16.2c-0.7-2-4-2.4-4.5,0c-0.4,2.1-0.4,4.2-0.6,6.3c-0.2,2.8-0.7,5.5-1.1,8.2
	C269.3,32.3,275.2,34.2,276.1,30z"/>
<path class="st5" d="M303,38c0.3,2,3,2.4,4.3,1.1c2.2-2.1,2.5-5.4,2.8-8.4c0.3-3.2,0.1-6.3-0.5-9.5c-0.5-2.5-3.9-1.6-4.1,0.6
	c-0.3,2.7-0.7,5.5-1.2,8.2C303.7,32.8,302.5,35.2,303,38z"/>
<path class="st6" d="M18.3,269.2c0.9,0.1,1.8,0.1,2.7,0.3c1,0.2,1.9,0.5,2.9,0.7c2.3,0.3,4.4-2.3,2.4-4.2c-1.9-1.9-5.3-3-8-2.8
	c-1.6,0.1-3,1.3-3,3C15.3,268,16.7,269,18.3,269.2z"/>
<path class="st6" d="M18.3,283.6c0.7,0.6,1.4,1,2.2,1.4c0.3,0.1,0.5,0.2,0.8,0.3c0.5,0.2,0.7,0.2,0.5,0c0.2,0.1,0.5,0.1,0.7,0.1
	c0,0,0.2,0,0.4-0.1c1.1,0.4,1.8-0.9,1.4-1.8c0-0.3-0.1-0.5-0.2-0.8c-0.2-0.3-0.3-0.8-0.7-1.1c-0.7-0.6-1.4-1.4-2.2-1.8
	c-1-0.4-2-0.4-2.8,0.4C17.4,281.2,17.4,282.7,18.3,283.6z"/>
<path class="st6" d="M28.7,296.6c3.1,1.4,8.9,1.7,11.4-1.2c0.8-0.9,0.5-2.3-0.7-2.7c-1.4-0.5-3.1-0.3-4.5-0.4
	c-1.6-0.1-3.2-0.6-4.8-0.8C27.4,291.2,26.3,295.5,28.7,296.6z"/>
<path class="st6" d="M34.1,336.5c2.1,0.4,4.2,0.5,6.3,0.5c2.9-0.1,3.5-4.2,0.7-5c-2-0.6-4.1-1.1-6.2-1.2
	C31.6,330.5,30.9,335.9,34.1,336.5z"/>
<path class="st6" d="M35.5,361.1c2.2-0.8,4.6-1,6.9-1.8c1.5-0.6,1.7-2.3,0.4-3.3c-1.9-1.4-4.2-1.5-6.5-1.1c-1.9,0.3-5.7,1.3-5.5,3.9
	C31,361.4,33.3,361.9,35.5,361.1z"/>
<path class="st6" d="M51.1,379.1c2,0.6,3.8-0.5,5.6-1.2c1.7-0.7,3.5-1.2,4.4-2.9c0.4-0.9,0.2-1.8-0.6-2.3c-1.6-1.1-3.5-0.6-5.3-0.2
	c-2.1,0.5-4.5,0.9-5.6,2.9C48.7,376.9,49.6,378.6,51.1,379.1z"/>
<path class="st6" d="M60.8,410.1c3.9-1.3,7.4-3.3,9.7-6.8c0.9-1.3-0.6-3.3-2.1-2.7c-3,1.3-6,2.7-9.2,3.8
	C55.7,405.5,57.2,411.2,60.8,410.1z"/>
<path class="st6" d="M84.7,426.7c3.5,0.8,6.7-1.9,9.5-3.6c3.2-1.9,7.3-4.1,9.3-7.4c0.9-1.5-0.6-3-2.1-2.8c-3.2,0.5-6.3,2.8-9.1,4.4
	c-2.8,1.6-7.5,2.9-8.9,6C82.7,424.6,83.1,426.3,84.7,426.7z"/>
<path class="st6" d="M109.5,437.5c1.9-0.3,3.5-1.9,4.8-3.3c1.4-1.5,2.3-3.3,3.1-5.2c0.6-1.4-1-2.9-2.2-1.7c-1.2,1.2-2.5,2.1-3.9,3.1
	c-1.4,1-3.2,1.7-4.2,3C105.4,435.3,106.9,437.9,109.5,437.5z"/>
<path class="st6" d="M130.5,436.4c1.8-1.4,3.3-3.2,4.8-4.9c1.3-1.7,2.8-3.4,3.2-5.6c0.2-1-0.7-2.2-1.8-1.8c-2.1,0.7-3.6,2.2-5.2,3.6
	c-1.7,1.5-3.5,3-5,4.7C123.9,435.1,127.7,438.7,130.5,436.4z"/>
<path class="st6" d="M84.8,395.1c1.5-0.7,2.8-1.6,4.2-2.6c1.4-0.9,2.8-2,3.3-3.7c0.3-1.2-0.4-2.5-1.6-2.8c-1.7-0.5-3.3,0.3-4.9,1
	c-1.5,0.7-3,1.4-4.3,2.4C78,391.9,81,396.9,84.8,395.1z"/>
<path class="st6" d="M70.4,375.1c0.4,1.6,1.9,2.1,3.4,1.9c1.8-0.3,3.7-1.4,4.8-2.6c1.4-1.5,0.3-3.5-1.5-3.7
	c-1.7-0.2-3.9,0.2-5.5,1.2C70.6,372.6,70.1,373.9,70.4,375.1z"/>
<path class="st6" d="M453.1,185c1,0.4,1.9,0.6,2.9,0.1c1.1-0.4,1.8-1,2.5-1.9c0.9-1.2,1.6-3.3,0.5-4.6c-0.5-1-1.8-1.1-2.6-0.4
	c-0.5,0.3-0.8,0.8-1.1,1.3c0,0.1,0,0.1-0.1,0.1c0,0,0,0-0.1,0.1c0,0-0.2,0.2-0.3,0.2c-0.1,0.1-0.3,0.2-0.4,0.2
	c-0.1,0.1-0.7,0.3-0.1,0.1c-0.7,0.3-1.2,0.5-1.8,1C451.5,182.1,451.8,184.4,453.1,185z"/>
<path class="st6" d="M444.7,149.2c1.4,0.8,3.5,0.4,4.3-1.1c1.4-2.7,3.3-4.9,5.1-7.3c0.6-0.9,0.3-2.2-0.4-2.9
	c-0.8-0.8-1.9-0.8-2.9-0.4c-3.2,1.4-5.7,4.4-7.1,7.5C442.9,146.5,443.1,148.3,444.7,149.2z"/>
<path class="st6" d="M449.6,174.2c0.6,0.3,1.1,0.4,1.8,0.4c0.8,0,1.5-0.4,2.1-0.8c1-0.6,1.8-1.3,2.6-2.2c1.1-1.4-0.4-3.2-1.9-3.3
	c-0.9-0.1-1.9,0.2-2.8,0.5c-0.5,0.2-1,0.3-1.5,0.6c-0.7,0.4-1.2,1.2-1.5,2C448.2,172.4,448.6,173.8,449.6,174.2z"/>
<path class="st6" d="M427.6,137.6c0,0.1,0,0.1,0,0.2c0.1,1.2,1,2.4,2.3,2.3c-0.6-0.1-0.4-0.1,0.4,0c0.8,0,1.5-0.3,2-0.8
	c0.5-0.5,1-1,1.3-1.6c0.7-0.9,1.3-1.9,1.8-2.8c0.5-1,0.4-2.1-0.4-2.9c-0.7-0.7-2-1-2.9-0.4c-1,0.7-1.9,1.5-2.8,2.4
	C428.3,135,427.5,136.2,427.6,137.6z"/>
<path class="st6" d="M419.5,117.6c3.7,2.2,10.8-4.1,7.7-7.6c-0.3-1.5-2.4-2-3-0.6c-0.9,0.4-1.4,1.1-1.9,1.8c0.3-0.4-0.4,0.3-0.3,0.3
	c-0.3,0.2-0.9,0.5-0.5,0.3c-0.8,0.3-1,0.4-0.6,0.2c-0.2,0.1-0.4,0.1-0.6,0.2c-0.8,0.2-1.6,0.8-2,1.5
	C417.6,115.1,418.1,116.8,419.5,117.6z"/>
<path class="st6" d="M400.7,107.3c0.3,0.4,0.8,0.7,1.3,0.8c1.2,0.2,2.7-0.1,3.3-1.4c0.7-1.5,1.3-2.9,1.6-4.6
	c0.2-0.9,0.3-1.8,0.2-2.7c-0.1-1.2-0.7-1.7-1.6-2.5c-0.5-0.4-1.2-0.3-1.7,0c-1.4,0.7-1.7,1.8-2.1,3.2c-0.3,1.2-0.9,2.4-1.5,3.5
	C399.6,105,399.8,106.3,400.7,107.3z"/>
<path class="st6" d="M401.3,82.5c0.5-1.4,1-2.7,1.6-4.1c0.7-1.4,1.6-2.6,2.4-3.9c1.1-1.9-1.2-4.5-3.2-3.2c-3.1,2.1-5.6,6-6.6,9.6
	C394.5,84.6,400,86,401.3,82.5z"/>
<path class="st6" d="M374.2,73.7c0.8-1.9,1.6-3.6,2.9-5.3c1.3-1.7-1.2-3.9-2.9-2.9c-2.3,1.4-4.1,3.5-5,6
	C368.2,74.5,373,76.6,374.2,73.7z"/>
<path class="st6" d="M357.6,66c2.4-2.7,3.4-6.8,1.8-10.2c-1.1-2.3-4.3-0.9-4.4,1.2c-0.2,2.2-0.4,3.7-1.7,5.6
	C351.5,65.3,355.6,68.4,357.6,66z"/>
<path class="st6" d="M346.6,50.7c1,1,2.7,1,3.7,0c1-0.9,1.7-2.2,2.2-3.3c0.6-1.4,0.7-2.7,0.7-4.2c-0.1-2.3-2.8-2.6-3.9-0.8
	c-0.5,0.7-0.9,1.6-1.3,2.4c-0.5,1-1.2,1.8-1.9,2.8C345.5,48.4,345.8,49.9,346.6,50.7z"/>
<path class="st6" d="M331.3,46.1c0.7,0.6,1.3,1.4,1.8,2.2c0.5,0.9,0.4,1.9,1,2.8c0.7,1,1.8,1.2,2.8,0.4c1.5-1.3,1.2-3.6,0.4-5.2
	c-0.8-1.7-2.2-3-4.1-3.3C331.4,42.6,329.8,44.7,331.3,46.1z"/>
<path class="st6" d="M414.9,100.3c0.2,0.7,0.9,1.4,1.7,1.3c3-0.4,4.2-4,4.3-7c0.4-1.4,0.2-3-1.5-3.3c-0.8-0.2-1.9,0.1-2.2,0.9
	c-0.5,1.3-1,2.5-1.5,3.8C415.3,97.3,414.4,98.9,414.9,100.3z"/>
<path class="st6" d="M324,422.7c18.4-2,35.1-16.1,47.8-28.7c7.2-7.1,13.8-14.8,20.3-22.5c4-4.7,7.7-9.7,11.6-14.4
	c3.1-3.7,6.5-7.2,8.3-11.7c0.2-0.6-0.5-1.1-1-0.8c-4,2.5-6.8,6.3-9.9,9.9c-3.5,4.1-7.3,7.9-10.8,12c-6.1,7.1-12.2,14-18.8,20.6
	c-6.9,6.9-14.3,13.3-22.3,18.8c-8.2,5.6-17.2,8.9-26.1,13.1C321.2,419.8,322,423,324,422.7z"/>
<path class="st6" d="M58,168.5c8-8.2,12.4-21,18-30.9c6.4-11.2,15.9-20.5,21.8-31.8c0.6-1.2-0.7-2.8-1.9-1.9
	c-9.3,6.3-16.3,17-22.3,26.3c-3.8,5.9-6.9,12.3-10.2,18.5c-3.1,5.9-6.9,11.7-7.9,18.4C55.2,168.4,56.8,169.7,58,168.5z"/>
<path class="st6" d="M339.6,100.5c14,11.4,27.4,21.8,38.1,36.5c12.1,16.7,20.1,35.8,26.5,55.3c6.4,19.6,11.6,39.7,13,60.4
	c1.5,21.2-3.5,40.7-12.7,59.6c-1.1,2.2,1.8,3.7,3.2,1.8c25.8-34.9,15.9-85.8,3.9-123.9c-6.4-20.2-14.9-39.9-27.1-57.2
	c-10.5-14.9-24.9-30.4-42.6-36.4C339.8,96,337.9,99.1,339.6,100.5z"/>
<path class="st6" d="M66.4,274.9c3.9,23.5,12.7,46.1,24.8,66.6c5.7,9.7,12.3,18.8,19.4,27.5c6.6,7.9,14.8,18.6,24.5,22.6
	c0.7,0.3,1.3-0.7,1-1.3c-4.8-8.7-13.8-15.7-20-23.5c-7.2-9-13.6-18.6-19.2-28.7c-10.9-19.6-18.4-41-22.6-63
	c-4.6-23.9-4-48.8,0.2-72.7c4.2-24,13.4-46.2,23.9-68.1c0.8-1.7-1.4-2.9-2.4-1.4C66.3,172.5,58.5,227.2,66.4,274.9z"/>
<g>
	<path class="st7" d="M212.9,10.9c9-1.1,18.2-1.7,27.5-1.7h1.6c-0.7-0.6-1.5-1.1-2.3-1.5c0,0,0,0,0,0c-0.5,0-1,0-1.5,0
		c-8,0.1-15.9,0.6-23.7,1.5h0c-0.3,0-0.6,0.1-0.9,0.1c0,0-0.1,0-0.1,0c-1.1,0.3-2.2,1-3,1.9C211.3,11.1,212.1,11,212.9,10.9
		L212.9,10.9z"/>
</g>
<g>
	<path class="st7" d="M254.5,8.1c0,0-0.1,0-0.1,0h-3.3c-0.8,0.3-1.6,0.7-2.2,1.2c0.8,0,1.6,0,2.4,0.1c0,0,0,0,0,0
		c9.6,0.4,19,1.4,28.2,2.9c0.5,0.1,1,0.2,1.5,0.3c-0.4-0.6-0.8-1.2-1.3-1.7l0,0h0c-0.1,0-0.3-0.1-0.5-0.1
		C271.1,9.5,262.9,8.5,254.5,8.1C254.5,8.1,254.5,8.1,254.5,8.1z"/>
</g>
<g>
	<path class="st7" d="M172.6,19.4L172.6,19.4c10.1-3.1,20.4-5.5,31-7.2c0.4-0.1,0.8-0.1,1.3-0.2c-0.5-0.4-1-0.7-1.4-1.1
		c-0.8,0.2-1.6,0.3-2.3,0.2c-8.8,1.5-17.5,3.5-25.9,6c-0.9,0.3-1.7,0.5-2.6,0.8c0,0,0,0,0,0c-0.7,0.6-1.3,1.3-1.8,2.1
		C171.4,19.8,172,19.6,172.6,19.4z"/>
</g>
<g>
	<path class="st7" d="M207.7,475.1C207.8,475.1,207.8,475.1,207.7,475.1c0.1,0,0.2,0,0.4,0.1c9.4,1.3,18.9,2.1,28.5,2.3
		c0.3,0,0.6,0,0.9,0c0,0,0,0,0,0c0.2,0,0.5,0,0.7,0c0.4-0.5,0.9-1,1.3-1.4c-0.6,0-1.1,0-1.7,0c-10.3-0.1-20.4-1-30.3-2.4
		c-0.6-0.1-1.2-0.2-1.8-0.3C206.4,473.9,207,474.5,207.7,475.1z"/>
</g>
<g>
	<path class="st7" d="M328.1,460.7c9.4-3.8,18.5-8.1,27.3-13c0.4-0.7,0.8-1.4,1.2-2c0.1-0.1,0.1-0.2,0.2-0.4
		c-0.2,0.1-0.4,0.2-0.5,0.3c-0.7,0.4-1.4,0.8-2.2,1.2c0,0,0,0,0,0c-8.8,4.9-17.9,9.2-27.3,12.9C327.2,460,327.6,460.3,328.1,460.7z"
		/>
</g>
<g>
	<path class="st7" d="M362.5,442.2c0.1,0,0.3,0.1,0.4,0.1c0.5-0.1,0.9,0,1.3,0.1c6.3-3.9,12.4-8.1,18.3-12.6
		c0.1-0.3,0.3-0.5,0.4-0.8c0.3-0.6,0.5-1.3,0.7-1.9c-0.1,0.1-0.1,0.1-0.2,0.2c-1.1,0.9-2.3,1.7-3.4,2.6c-0.2,0.1-0.4,0.3-0.5,0.4
		c-5.1,3.8-10.3,7.3-15.7,10.6c-0.6,0.4-1.2,0.8-1.9,1.2C362.3,442.1,362.4,442.1,362.5,442.2z"/>
</g>
<g>
	<path class="st7" d="M441.3,365.2c3.6-5.8,6.9-11.8,9.9-17.9c-0.1-0.9-0.2-1.8-0.3-2.7c-0.3,0.6-0.5,1.1-0.8,1.7
		c-3.2,6.4-6.7,12.7-10.5,18.8v0c-0.1,0.1-0.1,0.2-0.2,0.3c-0.2,0.3-0.4,0.5-0.5,0.8C439.7,366,440.5,365.6,441.3,365.2z"/>
</g>
<g>
	<path class="st7" d="M457.1,334.7c2.5-5.8,4.8-11.7,6.8-17.7c-0.2-1.1-0.4-2.1-0.5-3.2c-0.1,0.2-0.1,0.4-0.2,0.6
		c-0.3,0.9-0.6,1.7-0.9,2.6c-2.1,6.3-4.5,12.5-7.2,18.5c0,0,0,0.1,0,0.1c0,0.1,0,0.1-0.1,0.2C455.7,335.4,456.4,335,457.1,334.7z"/>
</g>
<g>
	<path class="st7" d="M419.5,395.1c4.4-5.1,8.5-10.4,12.5-15.9c0-0.3,0-0.7,0.2-1c0.3-0.8,0.5-1.6,0.6-2.5c-0.1,0.2-0.3,0.4-0.4,0.6
		l0,0c-0.4,0.6-0.8,1.2-1.2,1.8c0,0,0,0,0,0c-4,5.6-8.2,11-12.7,16.2c0,0,0,0,0,0c-0.4,0.4-0.8,0.9-1.1,1.3l0,0
		c-0.1,0.1-0.2,0.3-0.4,0.4C417.7,395.8,418.6,395.5,419.5,395.1z"/>
</g>
<g>
	<path class="st7" d="M392.6,421.9c6.1-5.2,12-10.7,17.5-16.4c0.1-0.2,0.1-0.3,0.2-0.5c0.2-0.8,0.4-1.6,0.6-2.4
		c-0.2,0.2-0.4,0.4-0.6,0.6c0,0,0,0,0,0c-0.8,0.8-1.6,1.6-2.4,2.5c0,0,0,0,0,0c-5.6,5.7-11.4,11.1-17.6,16.2c0,0,0,0,0,0
		C391.1,421.7,391.8,421.7,392.6,421.9z"/>
</g>
<g>
	<path class="st7" d="M288.1,472.5c0.1,0.1,0.1,0.1,0.2,0.2c9.4-1.9,18.5-4.4,27.5-7.4c0.6-0.7,1.2-1.4,1.7-2.1
		c-0.6,0.2-1.2,0.4-1.8,0.6c0,0,0,0,0,0c-8.8,3-17.8,5.4-27,7.4c0,0,0,0,0,0c-0.7,0.1-1.3,0.3-2,0.4
		C287.2,471.8,287.7,472.1,288.1,472.5z"/>
</g>
<g>
	<path class="st7" d="M249,476.4C249,476.5,249.1,476.5,249,476.4C249.1,476.5,249.1,476.5,249,476.4c0.4,0.3,0.7,0.5,0.9,0.8
		c8.7-0.3,17.2-1.1,25.7-2.4c0.6-0.6,1.1-1.1,1.6-1.7c-0.5,0.1-1,0.2-1.5,0.2c-8.6,1.3-17.2,2.1-26.1,2.4c-0.4,0-0.8,0-1.3,0
		C248.6,476,248.8,476.2,249,476.4z"/>
</g>
<g>
	<path class="st7" d="M474.5,237.8c0,0.2,0,0.4,0,0.5c0,0,0,0,0,0c0,1,0,2.1,0,3.1c0,0,0,0,0,0v1.1c0,8.1-0.4,16-1.2,23.9v0
		c-0.1,0.5-0.1,1-0.2,1.6c0,0.2-0.1,0.5-0.1,0.7c0.6-0.5,1.1-1,1.7-1.5c0.8-8.1,1.3-16.3,1.3-24.6c0-0.6,0-1.1,0-1.7
		C475.6,239.8,475.1,238.8,474.5,237.8z"/>
</g>
<g>
	<path class="st7" d="M472.4,201.5C472.4,201.5,472.4,201.5,472.4,201.5c-0.1-0.4-0.1-0.8-0.2-1.1c0,0,0,0,0,0c0,0,0,0,0,0
		c-0.3-0.3-0.5-0.6-0.6-1c-0.4-1-0.9-1.9-1.6-2.7c0.1,0.3,0.1,0.6,0.2,0.9c0.1,0.8,0.3,1.5,0.4,2.3v0c1.8,9.8,3,19.9,3.6,30.1
		c0,0.4,0.1,0.8,0.1,1.2c0,0,0,0.1,0,0.1c0.5-0.5,0.9-1.1,1.4-1.7c0,0,0,0,0,0c0-0.3,0-0.6-0.1-0.8
		C475.1,219.5,474,210.4,472.4,201.5z"/>
</g>
<g>
	<path class="st7" d="M472,276.7c0,0.1,0,0.3-0.1,0.4c-0.2,1.1-0.3,2.2-0.5,3.2c-1.4,8.5-3.2,16.8-5.5,25v0
		c-0.1,0.3-0.1,0.5-0.2,0.8c0.2,0,0.4-0.1,0.6-0.1c0.4,0,0.7-0.2,1.1-0.4c2.5-8.8,4.4-17.8,5.8-27C472.8,278,472.4,277.4,472,276.7z
		"/>
</g>
<g>
	<path class="st7" d="M129.9,35.7C129.9,35.7,129.9,35.8,129.9,35.7c-0.1,0.6-0.2,1.2-0.3,1.8c0.5-0.2,0.9-0.5,1.4-0.7h0
		c10.1-5.4,20.7-10.1,31.6-14.1h0c0.5-0.2,0.9-0.3,1.4-0.5c-0.8-0.3-1.5-0.5-2.3-0.8c-0.3,0.1-0.7,0.3-1,0.4
		c-10.2,3.7-20.1,8.2-29.6,13.2C130.7,35.3,130.3,35.5,129.9,35.7z"/>
</g>
<g>
	<path class="st7" d="M288.8,14.1c7.9,1.6,15.6,3.7,23.2,6.1c-0.5-0.6-1-1.3-1.4-2c-6.4-2-13-3.7-19.6-5.2c-0.6-0.1-1.2-0.3-1.8-0.4
		c0,0,0,0,0,0c-0.9,0.2-1.8,0.5-2.7,0.9C287.3,13.7,288,13.9,288.8,14.1z"/>
</g>
<g>
	<path class="st7" d="M24.6,155.3c0.3-0.6,0.5-1.3,0.8-1.9c4.1-9.8,8.8-19.3,14.1-28.3c0.4-0.7,0.8-1.4,1.2-2
		c-0.8,0.2-1.6,0.5-2.3,1c-0.5,0.9-1.1,1.8-1.6,2.7v0c-4.2,7.3-7.9,14.8-11.3,22.6c-0.5,1-0.9,2.1-1.3,3.2c0,0.6,0,1.2,0.1,1.7
		C24.4,154.6,24.5,155,24.6,155.3z"/>
</g>
<g>
	<path class="st7" d="M8.4,224.1c0.6-7.7,1.6-15.3,2.9-22.7c0,0,0,0,0,0c0.1-0.8,0.3-1.6,0.4-2.4c-0.8,0.7-1.5,1.5-2,2.6v0
		c-0.1,0.8-0.3,1.6-0.4,2.4c-0.9,5.4-1.6,11-2.1,16.6c-0.1,0.9-0.2,1.7-0.2,2.6c0,0,0,0,0,0v0c0.1,1.1,0.6,2.3,1.2,3.3
		C8.3,225.7,8.4,224.9,8.4,224.1z"/>
</g>
<g>
	<path class="st7" d="M123.1,41.2C123.2,41.2,123.2,41.2,123.1,41.2c0.6-0.3,1.1-0.6,1.6-1c-0.9-0.1-1.8-0.2-2.7-0.1
		c-0.5,0.3-1,0.6-1.5,0.9c-7.5,4.5-14.7,9.4-21.6,14.7h0c-0.5,0.4-1.1,0.8-1.6,1.2c-0.2,0.7-0.3,1.4-0.3,2.1c0.5-0.4,1-0.8,1.6-1.2
		C106.4,51.8,114.6,46.3,123.1,41.2z"/>
</g>
<g>
	<path class="st7" d="M13.2,192.2c2.4-10.8,5.5-21.3,9.4-31.5c0.2-0.6,0.4-1.2,0.7-1.8c-0.8,0.3-1.5,0.7-2.1,1.3
		c-0.3,0.8-0.6,1.6-0.9,2.4v0c-2.9,8-5.4,16.2-7.4,24.6c-0.3,1.3-0.6,2.6-0.9,3.9v0c0.1,1,0.4,1.9,0.9,2.8
		C12.9,193.4,13.1,192.8,13.2,192.2z"/>
</g>
<g>
	<path class="st7" d="M44.7,116.6C44.7,116.6,44.7,116.5,44.7,116.6c5.3-8.2,11-16,17.2-23.4c0.3-0.4,0.6-0.8,1-1.2
		c-0.7,0-1.4,0.1-2,0.3c-0.1,0.1-0.2,0.3-0.3,0.4c-0.2,0.2-0.3,0.3-0.5,0.4c-0.3,0.3-0.6,0.7-0.8,1c-5.3,6.5-10.3,13.3-14.9,20.3
		l0,0c-0.1,0.1-0.2,0.2-0.3,0.4l0,0c-0.3,1.1-0.4,2.1-0.3,3.2C44.1,117.5,44.4,117,44.7,116.6z"/>
</g>
<g>
	<path class="st7" d="M67.1,87.2c0.4-0.4,0.8-0.8,1.1-1.3c7.3-8,15.1-15.5,23.4-22.5c0.5-0.4,0.9-0.8,1.4-1.2
		c-0.8-0.1-1.5-0.1-2.3,0c0,0,0,0,0,0c-0.5,0.4-0.9,0.8-1.4,1.2c-7.4,6.3-14.4,13-21,20.2c-0.4,0.5-0.8,0.9-1.2,1.4
		C67,85.8,67,86.5,67.1,87.2z"/>
</g>
<g>
	<path class="st7" d="M169.6,465.8c0.1,0.2,0.2,0.4,0.2,0.6c8.3,2.7,16.9,4.9,25.6,6.6c0.3,0.1,0.5,0.1,0.7,0.2c0,0,0,0,0,0
		c0.9-0.2,1.7-0.6,2.4-1c-0.7-0.1-1.4-0.3-2-0.4c-9-1.7-17.8-4-26.4-6.8h0c-0.4-0.1-0.8-0.3-1.3-0.4
		C169.1,464.9,169.3,465.4,169.6,465.8z"/>
</g>
<g>
	<path class="st7" d="M389.2,381.1c4.8,3.6,12.2,11.2,19.6,13.9c2.1,4.8,0.6,9.3-2.7,13.1c-0.2,0.3,0.1,0.7,0.4,0.5
		c4.3-2.8,5.2-8.9,3.2-13.3c3.6,1.1,7.1,1.1,10.3-1.2c0.2-0.1,0.1-0.5-0.2-0.4c-11,4.4-21.9-7.8-30-13.9
		C389.2,379.3,388.4,380.6,389.2,381.1z"/>
</g>
<g>
	<path class="st7" d="M366.1,402.8c3.6,7,9.9,13.1,16.1,17.9c0.4,0.3,0.7,0.5,1.1,0.8c0,0.1-0.1,0.2,0,0.3c0.4,2,0.1,3.8-0.8,5.6
		c-0.9,1.7-2.4,2.6-3.8,3.8c-0.3,0.2,0,0.6,0.3,0.5c4.1-0.6,6-6,5.3-9.7c3.1,1.7,6.7,2,9.2-1.1c0.2-0.3-0.1-0.6-0.4-0.4
		c-8.8,7.1-21.6-12.8-26.2-18.3C366.4,401.8,365.8,402.4,366.1,402.8z"/>
</g>
<g>
	<path class="st7" d="M341,419.5c2.5,4.7,7.8,15.3,14.3,20.2c0,0,0,0.1,0,0.1c1,2.2,0.8,4.4-0.6,6.4c-0.9,1.1-2.2,1.7-3.3,2.6
		c-0.3,0.2,0,0.6,0.3,0.5c3.8-0.6,6.3-5.3,4.9-8.7c3.1,1.9,6.4,2.5,9.8,0.6c0.2-0.1,0.1-0.5-0.2-0.4c-12.3,2.5-18.8-13.2-24.1-21.8
		C341.6,418.3,340.6,418.8,341,419.5z"/>
</g>
<g>
	<path class="st7" d="M309.6,434.6c2.4,6.8,5.8,13.4,8.9,20c1.8,3.9,5.3,7.7,9.8,6c0.3-0.1,0.3-0.6-0.1-0.5
		c-6.8,0.3-8.8-6.3-11-11.3c-2.2-4.8-4.1-9.8-6.7-14.5C310.2,433.7,309.4,434,309.6,434.6z"/>
</g>
<g>
	<path class="st7" d="M315,465.1c1.6,0.1,3.2-1.4,4.1-2.5c0.5-0.7,1-1.4,1.3-2.2c0.1-0.4,0.4-0.8,0.3-1.2c0-0.3-0.2-0.8-0.2-1.1
		c0-0.2-0.4-0.3-0.4-0.1c-0.1,0.5-0.5,0.9-0.6,1.4c-0.2,0.8-0.6,1.5-1.1,2.2c-1,1.4-2.4,1.9-3.7,2.9
		C314.5,464.7,314.7,465.1,315,465.1z"/>
</g>
<g>
	<path class="st7" d="M276.4,473.9c2.7-1.4,4.6-3.8,5.3-6.6c2.2,3.7,5.3,5.9,9.8,4.5c0.2-0.1,0.1-0.3,0-0.3
		c-12.1-0.1-13.1-19.4-14.2-28.3c-0.1-0.7-1.2-0.7-1.2,0c0.5,4.5,1.4,16.1,5.1,23.1c-0.7,2.9-2.5,5.4-5.2,6.8
		C275.5,473.5,275.9,474.2,276.4,473.9z"/>
</g>
<g>
	<path class="st7" d="M243.4,467.8c1.1,3.5,3.3,9,7.4,9.3c0.5,0,0.6-0.7,0.1-0.9c-5.2-1.4-6.9-10.2-7.8-14.6
		c-1.1-5.3-0.9-10.7-1.1-16c0-0.7-1.1-0.7-1.1,0C240.6,453.1,241.1,460.7,243.4,467.8z"/>
</g>
<g>
	<path class="st7" d="M237.1,477.6c3.6-1.5,6.6-5.9,6-9.9c0-0.3-0.5-0.3-0.5,0c-0.9,4-2.3,6.7-5.8,9.1
		C236.4,477,236.6,477.8,237.1,477.6z"/>
</g>
<g>
	<path class="st7" d="M195.5,472.3c0.4-0.2,0.7-0.4,1-0.7c2.1-1.3,4-2.5,5.5-4.8c0,0,0.1-0.1,0.1-0.1c-0.6-8,1.2-16.4,3.6-24
		c0-0.1,0.1-0.2,0.1-0.3c0.3-0.8,1.5-0.5,1.3,0.4c0,0,0,0.1,0,0.1c-2.4,7.9-3.1,15.7-4,23.9c0,0,0,0,0,0c1.1,2.6,2.7,4.6,4.5,6.6
		c0.2,0.2,0.5,0.5,0.7,0.7c0.3,0.3,0.1,0.7-0.2,0.8c-0.1,0-0.2,0-0.3,0c0,0,0,0,0,0c-0.7-0.5-1.4-1.1-1.9-1.8
		c-1.4-1.4-2.4-3.2-3.3-4.9c-1,1.4-2.4,2.8-3.9,3.7c0,0,0,0,0,0c-0.8,0.5-1.6,0.9-2.4,1c0,0,0,0,0,0c-0.1,0-0.2,0-0.3,0.1
		c-0.2,0-0.4-0.1-0.5-0.2C195.3,472.8,195.3,472.5,195.5,472.3z"/>
</g>
<g>
	<path class="st7" d="M159.5,462.8c1.3-0.7,2.5-1.6,3.7-2.4c0.3-0.2,2.2-1.9,2.6-0.7c0.2,0.5,0.3,1,0.5,1.4c0.9,2,2,3.7,3.8,5
		c0.4,0.3,0.8-0.3,0.5-0.7c-1.4-1.4-2.5-3-3.3-4.8c-0.3-0.8-0.4-2.1-1.2-2.6c0,0,0,0,0,0c2.9-7.5,5.6-15.3,8.2-23
		c0.2-0.6-0.7-1-1-0.4c-3.4,7.2-6.4,15.4-7.9,23.2c0,0,0,0,0,0c-0.5,0-0.9,0.2-1.4,0.5c-1.8,1-3.6,2.3-5.2,3.6
		C158.4,462.3,159,463,159.5,462.8z"/>
</g>
<g>
	<path class="st7" d="M6.4,234.4L6.4,234.4c0.3-1,0.9-1.8,1.6-2.5c0.9-0.9,2.2-1.6,3.5-2.1c-1.2-0.7-2.4-1.9-3.2-3.3
		c-0.6-1-1.1-2.2-1.2-3.3v0c0,0,0,0,0,0c-0.1-0.9-0.1-1.8,0.2-2.6c0.1-0.4,0.3-0.7,0.5-1.1c0.1-0.2,0.6-0.2,0.6,0.1
		c0,1.6-0.3,3.1,0.1,4.6c0.1,0.3,0.1,0.5,0.2,0.8c0.7,1.9,1.9,3.3,3.6,4.3c0.1,0.1,0.1,0.1,0.2,0.2c0.4-0.1,0.9-0.2,1.3-0.3
		c7.7-1.4,16.4-2.1,24.1-0.2c0.2,0.1,0.3,0.2,0.3,0.4c0,0,0,0.1,0,0.1c0,0.2-0.1,0.3-0.4,0.3c-6.3-0.1-25.1-3-30,4v0
		c-0.7,1-1.1,2.1-1.1,3.5c0,0.3-0.3,0.4-0.4,0.3c-0.1,0-0.1-0.1-0.1-0.2C6,236.3,6.1,235.3,6.4,234.4z"/>
</g>
<g>
	<path class="st7" d="M20.6,161.2c-0.2,0.5-0.5,1-0.7,1.5c0,0,0,0,0,0c0.1,0.1,0.2,0.1,0.4,0l0,0v0c0.7-0.9,1.5-1.5,2.3-2
		c4-2.3,9.1,0,13.4,1.3c5.1,1.6,10.1,3.4,15.3,4.6c0.5,0.1,0.8-0.7,0.3-0.9c-6.7-2.7-13.9-4.5-20.8-6.6c-2.4-0.7-5.3-1-7.6-0.1v0
		c-0.8,0.3-1.5,0.7-2.1,1.3c-0.1,0.1-0.2,0.3-0.4,0.4C20.7,160.8,20.7,161,20.6,161.2z"/>
</g>
<g>
	<path class="st7" d="M24.2,152.5c0-1.1,0.2-2.3,1-3.1c0.1-0.1,0.3-0.1,0.4-0.1c0.1,0,0.3,0.1,0.3,0.3c-0.1,1.3-0.5,2.5-0.4,3.8
		c0,0.3,0.1,0.6,0.1,0.9c0.2,0.8,0.5,1.6,0.9,2.3c0.3,0.4,0.3,1,0.6,1.4c0.2,0.2-0.1,0.4-0.3,0.3c-0.2-0.2-0.7-0.4-1-0.6
		c-0.3-0.2-0.5-0.7-0.7-1.1c-0.2-0.4-0.4-0.8-0.5-1.3c-0.1-0.4-0.2-0.8-0.3-1.2C24.3,153.7,24.2,153.1,24.2,152.5z"/>
</g>
<g>
	<path class="st7" d="M37.7,124.6c-0.5,0.9-1,1.9-1.5,2.8c0.2-0.2,0.4-0.5,0.7-0.6v0c0.8-0.7,1.7-1.3,2.7-1.7
		c8.4-3.4,20.7,6.2,27,10.7c0.6,0.4,1.4-0.4,0.8-0.9c-3.7-2.7-12.9-9.6-20.7-11.6c-1.4-2-2.1-4.3-1.9-6.7c0,0,0,0,0,0
		c0-0.6,0.1-1.1,0.3-1.7c0.1-0.4-0.3-0.6-0.6-0.5l0,0c-0.1,0-0.2,0.1-0.2,0.3c0,0,0,0.1,0,0.1l0,0c-0.3,1.1-0.4,2.1-0.3,3.2
		c0.1,1.8,0.7,3.6,1.7,5.1c-1.7-0.3-3.4-0.4-4.8,0c-0.8,0.2-1.6,0.5-2.3,1C38.2,124.2,37.9,124.4,37.7,124.6z"/>
</g>
<g>
	<path class="st7" d="M60.6,92.6c-0.5,0.5-1.1,0.9-1.7,1.4c0.1,0,0.2,0.1,0.3,0c0,0,0.1,0,0.1-0.1c0.8-0.5,1.7-0.8,2.6-0.9
		c4.4-0.5,10.3,2.9,13.5,4.7c4.7,2.7,8.6,6.4,12.7,9.8c0.6,0.5,1.3-0.3,0.7-0.8c-5.4-5.1-11.4-9.7-18.2-12.8
		c-2.1-0.9-5.1-2.1-7.7-2.1c-0.7,0-1.4,0.1-2,0.3C60.9,92.4,60.8,92.5,60.6,92.6z"/>
</g>
<g>
	<path class="st7" d="M68.3,83.7c0-0.2,0-0.3,0.1-0.5c-0.4,0.4-0.8,0.8-1.2,1.2c0,0.2-0.1,0.4-0.1,0.6c-0.1,0.7,0,1.4,0.1,2.1
		c0.3,2.7,1.6,5.3,3.8,6.7c0.2,0.1,0.5-0.2,0.3-0.4c-1.8-2.5-2.9-4.8-3-7.6C68.1,85.3,68.2,84.5,68.3,83.7z"/>
</g>
<g>
	<path class="st7" d="M93,62.3c-0.8-0.1-1.5-0.1-2.3,0c-0.2,0.1-0.3,0.2-0.5,0.3c-0.5,0.3-0.9,0.5-1.3,0.8c0.1,0,0.1,0.1,0.2,0.1
		h0.2c0.8,0,1.6,0,2.3,0c2.2,0,4.3,0.3,6.4,1h0c5.6,6.1,11,11.8,15.3,19c0.4,0.7,1.5,0,1.1-0.7c-4.2-6.9-9.3-13.9-15.7-18.9
		c0,0,0-0.1,0-0.1c-0.5-2.1-0.4-3.9-0.1-5.9c0.1-0.7,0.2-1.4,0.3-2.1h0c0-0.1,0-0.2,0-0.3c-0.5,0.4-1,0.8-1.5,1.1
		c0,0.1-0.1,0.3-0.1,0.4c-0.2,0.7-0.3,1.4-0.3,2.1c-0.1,1.4,0.1,2.7,0.3,4C95.9,62.7,94.4,62.4,93,62.3z"/>
</g>
<g>
	<path class="st7" d="M120.5,41.1c0.1,0.1,0.2,0.1,0.3,0.1c0.8,0,1.6,0,2.4,0.1c0,0,0,0,0,0c1.1,0.1,2.2,0.3,3.3,0.7
		c0.8,0.3,1.8,1.1,2.7,0.8c0,0,0,0,0,0c3.7,7.2,7.8,14.3,11.8,21.4c0.3,0.5,1.2,0.1,1-0.5c-3.1-7.3-7.3-15-12.1-21.3c0,0,0,0,0,0
		c0.3-0.4,0.4-0.9,0.5-1.3c0.3-1.3,0.5-2.7,0.6-4.1h0c0.1-0.6,0.1-1.2,0.1-1.7c0-0.1,0-0.2,0-0.3c-0.3,0.2-0.5,0.4-0.8,0.7
		c-0.1,0.1-0.2,0.2-0.4,0.3c0,0-0.1,0.1-0.1,0.1c-0.1,0.6-0.2,1.2-0.3,1.8l-0.2,1.4c0,0.4-0.1,2.9-1.2,2.4c-0.5-0.2-0.9-0.4-1.4-0.6
		c-0.7-0.2-1.4-0.4-2.1-0.5c-0.9-0.1-1.8-0.2-2.7-0.1c-0.1,0-0.3,0-0.4,0c-0.4,0.2-0.8,0.4-1.3,0.6C120.3,40.9,120.4,41,120.5,41.1z
		"/>
</g>
<g>
	<path class="st7" d="M161.6,21.5c-0.3,0.1-0.6,0.2-0.9,0.2c0,0.1,0,0.1,0,0.2c0,0.1,0.1,0.2,0.2,0.2c0.6,0.2,1.1,0.5,1.7,0.7
		c0,0,0,0,0,0c1.2,0.5,2.3,0.9,3.5,1.3c0.8,0.3,1.9,0.8,2.8,0.8c1.7,8.3,4.6,16.7,7.1,24.8c0,0.1,0.1,0.2,0.1,0.2
		c0.3,0.3,0.9,0.1,0.9-0.3c0-0.1,0-0.2,0-0.3c-2.2-8.2-4.4-16.7-7.5-24.6c0.5-0.3,0.7-1,0.8-1.5c0.5-1.5,1.2-2.7,2.1-3.7h0
		c0.6-0.7,1.4-1.3,2.3-1.9c0.1-0.1,0.2-0.2,0.2-0.4c0,0,0-0.1,0-0.1c-0.2,0.1-0.5,0.1-0.7,0.2c0.4,0-0.4,0.2-0.2,0.1
		c-0.3,0.1-0.7,0.2-1,0.3c-0.1,0-0.2,0.1-0.3,0.1c-0.1,0.1-0.2,0.1-0.3,0.2c0,0,0,0,0,0c-0.7,0.6-1.3,1.3-1.8,2.1h0
		c-0.3,0.4-0.5,0.8-0.7,1.3c-0.3,0.5-0.4,1.1-0.5,1.6c-0.4,1.4-3.1,0.2-3.8-0.1c-0.6-0.2-1.1-0.4-1.7-0.6
		C163.2,22,162.4,21.7,161.6,21.5C161.6,21.5,161.6,21.5,161.6,21.5z"/>
</g>
<g>
	<path class="st7" d="M203.4,10.9c-0.4,0.1-0.8,0.2-1.2,0.2c0.4,0.4,0.9,0.7,1.3,1.1c1.5,1.1,3,2.2,4.4,3.4
		c1.4,8.7,2.8,16.6,1.5,25.5c0,0.2,0.1,0.4,0.2,0.6c0.3,0.2,0.8,0.2,0.9-0.1c0,0,0-0.1,0.1-0.2c1.1-8.3,1.3-18-1.9-25.8c0,0,0,0,0,0
		c0.5-1.2,1.2-2.2,2.1-3.2c0.6-0.6,1.3-1,2-1.4h0c0.6-0.3,1.2-0.6,1.7-1c0.3-0.2,0.2-0.6-0.1-0.7c0,0,0,0,0,0c0,0,0,0-0.1,0
		c-0.3,0-0.5,0-0.8,0.1c0,0-0.1,0-0.1,0c-1.1,0.3-2.2,1-3,1.9h0c-1,1-1.8,2.1-2.3,3.3c-1.1-0.8-2.2-1.6-3.3-2.5
		C204.3,11.6,203.9,11.3,203.4,10.9z"/>
</g>
<g>
	<path class="st7" d="M239.7,7.7C239.7,7.7,239.7,7.7,239.7,7.7c-0.1,0-0.2-0.1-0.2-0.1h-1.3c-0.1,0-0.1,0-0.2,0
		c0.1,0,0.2,0.1,0.2,0.1c0.8,0.5,1.5,0.9,2.3,1.5c1.8,1.3,3.3,2.9,4.6,4.9c-0.5,8.2-0.4,16.4-1.5,24.6c0,0.3,0.1,0.5,0.3,0.6
		c0.2,0.2,0.5,0.2,0.8,0c0,0,0,0,0,0c0.1-0.1,0.2-0.2,0.2-0.4c1.2-8,2.2-16.8,1.2-24.8c0,0,0.1,0,0.1-0.1c1.3-2.1,3-3.7,5.2-4.6
		c0,0,0,0,0,0c0.9-0.4,1.9-0.7,2.9-0.9c0.2,0,0.3-0.2,0.4-0.4c0,0,0,0,0,0c-0.1,0-0.1,0-0.2,0h-3.3c-0.8,0.3-1.6,0.7-2.2,1.2
		c-1.3,0.9-2.4,2.1-3.3,3.4c-1-1.3-2.2-2.5-3.5-3.5C241.3,8.6,240.6,8.1,239.7,7.7z"/>
</g>
<g>
	<path class="st7" d="M279.5,12.3c0.9,1.5,1.6,3,2.1,4.7c0,0,0,0,0,0c-0.9,4.1-1.5,8.2-2.4,12.3c-0.9,4-2.5,8.1-3.1,12.1
		c-0.1,0.5,0.6,0.7,0.8,0.3c3.5-6.7,5-16,5.4-23.7c0.2,0,0.3,0,0.5-0.2c1.7-1.8,3.7-3.1,6-3.8c0.5-0.2,1.1-0.3,1.7-0.4
		c0.4-0.1,0.5-0.3,0.6-0.6c0-0.2,0-0.3-0.1-0.4c-0.1,0-0.3,0-0.4-0.1c-0.1,0-0.2,0-0.4-0.1c-0.1,0-0.1,0-0.2,0
		c-0.3,0.1-0.5,0.1-0.8,0.2c0,0,0,0,0,0c-0.9,0.2-1.8,0.5-2.7,0.9c-1.4,0.7-2.8,1.6-3.9,2.7c-0.4-1.3-0.9-2.6-1.6-3.7
		c-0.4-0.6-0.8-1.2-1.3-1.7l0,0h0c-0.1-0.1-0.3-0.1-0.5-0.1c-0.3,0.1-0.4,0.4-0.3,0.7C279.1,11.8,279.3,12,279.5,12.3z"/>
</g>
<g>
	<path class="st7" d="M312.7,38.8c-1.2,4.1-2.8,8-4.1,12c-0.2,0.7,0.8,1,1.1,0.4c3.1-6.4,5.8-14.5,6.5-21.7
		c-0.1-0.3-0.1-0.6-0.1-0.9v-3.6c-0.6-1.8-1.5-3.6-3-4.5c-0.2-0.1-0.4,0.1-0.3,0.3c1.1,2.4,2.6,4.1,2.8,6.9c0,0.2,0.1,0.3,0.2,0.4
		c0,0-0.1,0.1-0.1,0.1C314.3,31.5,313.7,35.2,312.7,38.8z"/>
</g>
<g>
	<path class="st7" d="M475.4,241.6c0.2-2.7-2.3-5.4-4.5-6.8c1.6-1.9,3.4-3.6,5-5.5c0.3-0.3-0.3-0.8-0.6-0.5
		c-1.9,1.8-3.6,3.9-5.6,5.7c-8.8,0.4-16.8,0.9-25.5-1.4c-0.8-0.2-1.2,1-0.4,1.2c8.1,2.1,17.7,3.3,25.9,1c0,0,0,0,0,0
		c1.1,0.7,2.1,1.5,2.9,2.5c1,1.2,1.2,2.6,2,3.9C474.8,242.1,475.3,242,475.4,241.6z"/>
</g>
<g>
	<path class="st7" d="M472.8,281.1c-0.1-3.6-1.8-6.7-4.4-9c2.7-1.6,5.1-3.8,6.5-6.6c0.2-0.3-0.3-0.6-0.5-0.3c-2,2.8-4.2,4.8-7.3,6.3
		c-8.1-1.5-16.2-2.3-24.3-4.3c-0.8-0.2-1.2,1-0.4,1.2c7.8,2.1,16.4,4.1,24.5,4c0,0,0,0.1,0.1,0.1c2.8,2.2,4.3,5.2,4.6,8.7
		C471.6,281.8,472.8,281.8,472.8,281.1z"/>
</g>
<g>
	<path class="st7" d="M463.5,316.7c-0.2-3-1.1-5.8-3-8.2c2.1-0.3,4-1,5.7-2.3c0.4-0.3-0.1-1.1-0.5-0.8c-1.9,1-3.7,1.7-5.7,2
		c0,0,0,0,0,0c-4-1.3-8-2.4-11.9-3.8c-3.9-1.4-7.7-3.4-11.7-4.4c-0.5-0.1-0.8,0.5-0.4,0.8c6.3,4.2,15.4,6.7,22.9,8.1
		c0,0.2,0,0.3,0.1,0.5c2,2.4,3.1,5,3.3,8.1C462.3,317.4,463.6,317.5,463.5,316.7z"/>
</g>
<g>
	<path class="st7" d="M451.3,346c0.4-2.8-0.4-5.6-2.2-7.7c2.3-0.2,4.7-0.9,6.1-2.7c0.1-0.2-0.1-0.4-0.3-0.4c-2.5,0.9-4.4,2.1-7.1,2
		c-0.2,0-0.3,0.1-0.4,0.2c0,0-0.1-0.1-0.1-0.1c-3.3-1.5-6.9-2.6-10.3-4c-3.9-1.6-7.6-3.7-11.4-5.5c-0.6-0.3-1.1,0.7-0.5,1.1
		c6.4,4.1,14.7,7.8,22.1,9.2c0,0,0.1,0,0.1,0c0,0.1,0,0.1,0.1,0.2c2.1,2.2,3.1,4.7,2.7,7.7C449.9,346.7,451.1,346.8,451.3,346z"/>
</g>
<g>
	<path class="st7" d="M433.2,373.1c0.4-2.3-0.9-4.6-0.6-6.8c0.3,0.1,0.7,0.2,1,0.2c0.1,0,0.2,0,0.3,0c2,0.5,4.1,0.4,5.7-1.1
		c0.2-0.2,0-0.5-0.2-0.4c-2.4,0.7-4.4,1.2-6.8-0.1c-0.2-0.1-0.3-0.1-0.5-0.1c-3.7-1.5-7.3-3.1-10.7-5.2c-3.5-2.2-6.3-5.1-9.6-7.5
		c-0.3-0.2-0.5,0.2-0.4,0.4c4.2,6.2,12.6,11.2,20,13.4c-0.3,1.3,0,2.6,0.3,4c0.6,2.7-0.5,5-1.5,7.4c-0.2,0.5,0.5,1,0.9,0.6
		C432.4,376.6,432.9,374.9,433.2,373.1z"/>
</g>
<g>
	<path class="st7" d="M105.6,416.2c0.1-0.1,0.2-0.3,0.4-0.4c0.1-0.1-0.1-0.3-0.2-0.2c-0.1,0.1-0.3,0.2-0.4,0.4
		C105.3,416.1,105.5,416.3,105.6,416.2z"/>
</g>
<g>
	<g>
		<path class="st7" d="M26.8,290c0.1,0.1,0.2,0.2,0.3,0.3c0.1-0.2,0.1-0.5-0.2-0.6c-3.3-1.5-7-2.3-10.1-4.1
			c-4.4-2.5,1.6-5.9,2.9-6.8c0.6-0.4,5.1-2.8,5-3.3c0,0.3,0.5,0.5,0.7,0.2c0.1-0.1,0.1-0.2,0.2-0.3c0.1-0.2,0.1-0.4-0.1-0.6
			c-0.1-0.1-0.2-0.2-0.3-0.3c-0.2-0.2-0.5-0.2-0.7-0.1c-2.8,1.5-5.5,3.3-8.1,5.2c-1.6,1.1-2.6,2.3-2.6,4.3
			c0.1,3.5,12.1,6.9,12.3,6.4c0,0.1,0,0.3,0.1,0.4c0.1,0.1,0.1,0.1,0.2,0.2c0.1,0.1,0.3,0.2,0.5,0.1c0.1,0,0.1-0.1,0.2-0.1
			c0.1-0.1,0.2-0.2,0.2-0.3c0-0.1,0-0.2,0-0.2C27.3,289.9,27,289.8,26.8,290L26.8,290z"/>
	</g>
</g>
<g>
	<g>
		<path class="st7" d="M443.7,221.4c2.4-0.4,4.6-1.2,6.8-2.2c0.9-0.4,2.8-1.2,2.6-2.5c-0.3-1.7-2.3-2-3.7-2.5
			c-2.3-0.9-4.9-2.2-7.3-2.3c-0.5,0-0.6,0.6-0.2,0.9c2.5,1.6,5.9,2.1,8.6,3.1c2.7,1-1.4,2.4-2.3,2.8c-1.6,0.6-3.2,1-4.8,1.5
			C442.8,220.6,443,221.5,443.7,221.4L443.7,221.4z"/>
	</g>
</g>
<g>
	<g>
		<path class="st7" d="M442.3,206.5c2.6-2,5.1-4,7.7-6.1c1.5-1.2,3.1-2.4,2.3-4.4c-0.6-1.6-3.4-1.9-4.7-2.2c-3-0.6-6.3-0.9-9.4-0.6
			c-0.9,0.1-0.9,1.4,0,1.4c4,0.1,7.9,0.1,11.7,1.2c3.6,1-2.8,5.4-3.3,5.8c-1.7,1.3-3.4,2.7-5,4C441.1,206,441.8,206.9,442.3,206.5
			L442.3,206.5z"/>
	</g>
</g>
<g>
	<g>
		<path class="st7" d="M439.5,193c1.8-1,3.4-2.3,5-3.5c0.9-0.7,2-2.2,1.3-3.4c-0.6-1.1-1.7-1.4-2.9-1.5c-2-0.2-4.3-0.4-6.3,0
			c-0.5,0.1-0.5,0.9,0,1c2.2,0.6,4.6,0.1,6.9,0.5c2.7,0.5-1.1,3.3-1.7,3.7c-1,0.7-2.1,1.5-3,2.3C438.3,192.5,438.9,193.3,439.5,193
			L439.5,193z"/>
	</g>
</g>
<g>
	<g>
		<path class="st7" d="M428.3,162.4c5.7-2.2,10-7.2,12.3-12.6c0.2-0.4,0.1-0.9-0.4-1c-5.8-1.5-13.1-2.4-18.8-0.1
			c-0.5,0.2-0.5,1.1,0.1,1c6.4-0.3,11.9-1.2,18.3,0.4c-0.1-0.3-0.3-0.7-0.4-1c-2.5,5.6-6.4,9.2-11.6,12.3
			C427.4,161.8,427.7,162.7,428.3,162.4L428.3,162.4z"/>
	</g>
</g>
<g>
	<g>
		<path class="st7" d="M419.5,143.8c1.5-1.8,2.6-3.8,3.6-6c0.6-1.3,1.6-3.1,0.8-4.5c-0.8-1.3-3.4-1.3-4.7-1.4c-2.3-0.2-4.8,0-7,0.8
			c-0.8,0.3-0.5,1.4,0.3,1.2c3.2-0.7,6.3-0.9,9.6-0.1c2.3,0.5-2.8,8.3-3.5,9.2C418.1,143.6,419.1,144.3,419.5,143.8L419.5,143.8z"/>
	</g>
</g>
<g>
	<g>
		<path class="st7" d="M401.4,117.4c4.7-4.9,10.6-15.4,9.8-22.4c0-0.3-0.2-0.6-0.5-0.7c-7.5-2.4-18.4,2.5-24.5,6.6
			c-0.7,0.5-0.1,1.6,0.7,1.2c3.2-2,6.4-3.6,10-4.8c1.6-0.5,13.5-3.8,12.7,0.1c-1.5,7.3-5.2,13.2-9,19.4
			C400.4,117.2,401,117.7,401.4,117.4L401.4,117.4z"/>
	</g>
</g>
<g>
	<g>
		<path class="st7" d="M383.8,96.8c2.3-2.3,3.3-5.7,3.3-8.9c0-0.4-0.3-0.6-0.6-0.6c-3.3-0.4-7.5,0.3-9.9,2.7
			c-0.4,0.4,0.1,1.1,0.6,0.8c1.5-0.7,2.8-1.6,4.4-2c1.6-0.5,3.2-0.5,4.8-0.3c-0.2-0.2-0.4-0.4-0.6-0.6c0,3.2-1.1,5.7-2.8,8.3
			C382.6,96.7,383.4,97.2,383.8,96.8L383.8,96.8z"/>
	</g>
</g>
<g>
	<g>
		<path class="st7" d="M359.1,75.7c1.6-4.4,2-9.2,2.4-13.8c0.1-1.5,1.3-7-1.3-7.6c-3.1-0.8-6.1,1.7-8.6,3.4
			c-3.7,2.5-6.9,5.6-9.8,8.9c-0.6,0.7,0.4,1.8,1.1,1.1c4-4.7,8.6-8.5,14-11.5c4.8-2.7,3,7.4,2.9,8.8c-0.3,3.6-1.2,7.1-1.5,10.7
			C358.2,76.1,359,76.1,359.1,75.7L359.1,75.7z"/>
	</g>
</g>
<g>
	<g>
		<path class="st7" d="M339.9,64.5c1.8-2.8,2.2-6.5,2.2-9.8c0-0.5-0.4-0.7-0.9-0.7c-3.7,0.6-6.1,3.8-8.1,6.8
			c-0.5,0.8,0.7,1.4,1.2,0.7c1.8-2.7,3.8-5.6,7.2-6.2c-0.3-0.2-0.6-0.4-0.9-0.7c0,3.3-0.9,6.2-1.7,9.4
			C339,64.7,339.7,64.9,339.9,64.5L339.9,64.5z"/>
	</g>
</g>
<g>
	<g>
		<path class="st7" d="M326.9,57.7c1.3-2.4,1.6-6.7-0.8-8.5c-1-0.8-2.8,0.8-3.5,1.4c-1.5,1.2-2.7,2.5-3.7,4.1
			c-0.4,0.7,0.6,1.2,1,0.6c1.2-1.8,2.8-3.3,4.7-4.5c1.6-1,1.9,1.8,2,2.8c0.1,1.3-0.3,2.6-0.7,3.8C325.6,57.9,326.6,58.3,326.9,57.7
			L326.9,57.7z"/>
	</g>
</g>
<g>
	<g>
		<path class="st7" d="M449.6,213.9c3.5-0.5,6.8-2.1,9.9-3.7c1.3-0.7,3.1-1.5,4.2-2.6c0.6-0.6,0.2-2.7,0.2-3.5
			c0-0.3-0.2-0.6-0.5-0.7c-4.2-1.2-8.5-2.7-12.9-3.5c-0.8-0.1-1,0.9-0.3,1.1c2.2,0.9,4.6,1.4,6.9,2c1.9,0.5,5.4,0.6,5.4,3
			c0,1.6-4.2,3.2-5.4,3.8c-2.5,1.3-5.2,2-7.8,3C448.7,213.2,448.9,214,449.6,213.9L449.6,213.9z"/>
	</g>
</g>
<g>
	<g>
		<path class="st7" d="M448.1,194c4.6-4.1,8.8-8.7,13-13.3c1.5-1.6,1.9-3.3,0.2-4.8c-2.1-1.8-7.3-0.5-9.5-0.1
			c-5.6,0.9-11.7,1.8-16.7,4.5c-0.5,0.3-0.1,1,0.4,0.9c7.5-1.5,14.5-4,22.3-4.7c6.6-0.6-0.2,6.4-1.6,7.9c-2.8,3-5.8,5.9-8.6,8.9
			C447.1,193.8,447.7,194.4,448.1,194L448.1,194z"/>
	</g>
</g>
<g>
	<g>
		<path class="st7" d="M434.4,176.7c3.8-0.8,6.8-4.7,8.4-8c0.2-0.4,0-0.9-0.5-1c-3.5-0.2-7.4-0.9-10.9-0.6c-0.5,0.1-0.7,0.9-0.1,1
			c3.5,0.8,7.5,0.6,11,0.8c-0.2-0.3-0.4-0.6-0.5-1c-0.9,1.8-1.9,3.4-3.4,4.8c-1.3,1.3-2.9,2.1-4.3,3.2
			C433.7,176.3,434.1,176.7,434.4,176.7L434.4,176.7z"/>
	</g>
</g>
<g>
	<g>
		<path class="st7" d="M472.1,200.1c-2.4-9-15-7.4-22.2-6c-0.6,0.1-0.4,1,0.1,1c3.7,0.1,7.4-0.4,11.1-0.4c4.9,0,8.2,1.1,10.5,5.7
			C471.7,200.7,472.2,200.4,472.1,200.1L472.1,200.1z"/>
	</g>
</g>
<g>
	<g>
		<path class="st7" d="M439.4,167.7c2.3-1.2,4.2-3.1,5.9-5c1.3-1.4,3-3.2,3.1-5.2c0.2-3.6-9.5-2.5-11.2-2.3c-0.6,0.1-0.4,0.9,0.1,1
			c1.7,0.1,3.4,0,5.1,0.1c2.1,0.1,6.2-0.1,3.9,3.3c-2,3-4.7,5.1-7.4,7.4C438.4,167.3,438.9,167.9,439.4,167.7L439.4,167.7z"/>
	</g>
</g>
<g>
	<g>
		<path class="st7" d="M425.7,148.4c4.2-3.5,7.8-8,11.5-12c1.6-1.7,3.7-5,2.3-7.4c-1-1.8-7.8-0.2-9.4-0.1
			c-5.8,0.5-11.5,1.7-17.1,3.3c-0.8,0.2-0.5,1.5,0.3,1.3c7.4-2.1,14.9-3.4,22.5-3.9c5.7-0.3-0.1,6.4-0.7,7c-1.2,1.4-2.5,2.8-3.8,4.2
			c-2.1,2.3-4.4,4.6-6.2,7.2C424.9,148.3,425.4,148.6,425.7,148.4L425.7,148.4z"/>
	</g>
</g>
<g>
	<g>
		<path class="st7" d="M410.7,129.3c2.5-0.9,7.1-5,5.9-8c-0.6-1.4-3.1-0.8-4.2-0.7c-2.5,0.3-5.3,0.8-7.3,2.3
			c-0.3,0.2-0.1,0.6,0.2,0.6c2.9-0.4,5.6-1.4,8.5-1.6c2.6-0.2,0.2,3-0.4,3.8c-0.9,1.1-2.1,1.8-3.2,2.7
			C409.8,128.7,410.1,129.6,410.7,129.3L410.7,129.3z"/>
	</g>
</g>
<g>
	<g>
		<path class="st7" d="M415.6,131.5c3.5-3.7,6.6-7.9,9.5-12.1c2.6-3.7,5.9-7.7,5.3-12.5c0-0.3-0.4-0.5-0.7-0.5
			c-7.5,0.1-15.1,0.9-22.3,3.1c-0.8,0.2-0.4,1.4,0.3,1.2c3.4-0.7,6.7-1.5,10.1-2c2.2-0.3,4.4-0.5,6.7-0.7c1.1-0.1,2.3-0.1,3.4-0.2
			c1.4,1.8,1.3,3.5-0.4,5.2c-3.6,6.4-8.3,12.1-12.7,17.9C414.6,131.4,415.3,131.9,415.6,131.5L415.6,131.5z"/>
	</g>
</g>
<g>
	<g>
		<path class="st7" d="M392.7,98.3c2.1-2,3-4.7,3-7.6c0-0.4-0.3-0.7-0.7-0.7c-1.6,0.1-3.2,0.3-4.7,0.7c-1.3,0.4-3,0.8-3.8,2
			c-0.1,0.2,0,0.5,0.3,0.5c1.2,0,2.3-0.7,3.4-1c1.6-0.5,3.2-0.8,4.9-0.9c-0.2-0.2-0.4-0.4-0.7-0.7c0.1,2.6-0.8,5-2.3,7.1
			C391.7,98.2,392.4,98.7,392.7,98.3L392.7,98.3z"/>
	</g>
</g>
<g>
	<g>
		<path class="st7" d="M372,85.5c2.7-4.1,4.4-8.9,5.9-13.6c0.6-1.8,3-6.8,1.6-8.6c-1.7-2.1-4.6-0.9-6.7-0.4
			c-4.3,1.1-8.7,2.7-12.3,5.5c-0.4,0.3-0.2,1,0.3,0.8c2.7-1,5.4-2.3,8.1-3.4c1.1-0.4,9.6-3.6,9.1-0.6c-1.2,7-4.7,13.3-7,19.9
			C370.8,85.7,371.7,85.9,372,85.5L372,85.5z"/>
	</g>
</g>
<g>
	<g>
		<path class="st7" d="M382.1,87.2c1.2-1.5,2-3,2.6-4.8c0.6-1.5,1.4-3.6,0.9-5.2c-0.3-1.1-2.2-0.9-3-0.9c-2.2-0.1-4.5,0.2-6.4,1.4
			c-0.3,0.2-0.2,0.7,0.2,0.7c1.4-0.2,2.7-0.5,4.1-0.7c0.7-0.1,1.4-0.1,2.1-0.1c1.1,0,2.2-0.3,1.9,1.4c-0.5,2.8-1.7,5.2-3.1,7.6
			C381.1,87.1,381.8,87.6,382.1,87.2L382.1,87.2z"/>
	</g>
</g>
<g>
	<g>
		<path class="st7" d="M336.9,57.5c0.9-4.2,0.6-8.7,0.3-13c-0.1-1.9-0.9-4.6-3.3-4.4c-3.2,0.2-5.8,2.3-8.2,4.2
			c-3.1,2.5-6.6,5.4-8.5,9c-0.3,0.5,0.4,1,0.8,0.6c3.9-3.6,7-7.6,11.5-10.6c1.5-1,5.8-3.9,6.4,1.2c0.2,1.4,0.2,2.9,0.3,4.3
			c0.1,2.9-0.2,5.7,0,8.6C336.3,57.8,336.8,57.9,336.9,57.5L336.9,57.5z"/>
	</g>
</g>
<g>
	<g>
		<path class="st7" d="M318.9,53.6c0.4-2.8,0.2-5.7,0.2-8.5c0-0.5-0.4-0.8-0.9-0.7c-3.3,0.7-7.9,3.3-8.4,7.1c0,0.3,0.3,0.5,0.5,0.3
			c1.2-1.1,2-2.5,3.3-3.6c1.4-1.2,3.2-2,5-2.4c-0.3-0.2-0.6-0.5-0.9-0.7c0,2.8-0.1,5.7,0.3,8.5C318,54.1,318.8,54.1,318.9,53.6
			L318.9,53.6z"/>
	</g>
</g>
<g>
	<path class="st7" d="M6.5,254.2c0.1,0.2,0.2,0.4,0.2,0.6c0.1,0.2,0.1,0.4,0.2,0.5c-0.1,2.3-0.1,4.7,1.5,6.2
		c1.4,1.4,3.3,2.3,5.2,1.9c-0.7,0.8-1.3,1.6-1.7,2.6c-2.4,5.8,14.5,9.1,18.8,9.6c-0.1,0.3-0.1,0.6-0.1,0.9c0.1,4,5,5.2,8.8,5.3
		c-3.7,1.6-7.1,3.6-10.4,5.9c-1.7,1.2-6.5,4.2-5.6,7c1,3.2,4.3,3.8,7.2,4.5c0.2,0.1,0.4,0.1,0.6,0.1c-1.6,1.6-3.5,4.2-2.3,6.1
		c1,1.6,3.2,2.2,5.3,2.1c-1.9,1.7-4,3.8-4.3,5.6c-1.2,5.8,7.6,5.9,12.3,5.6c-0.9,0.7-1.7,1.4-2.3,1.9c-3.8,2.9-9.2,6.8-11.7,11
		c-3.3,5.7,8.9,7.7,15.3,8.5c-4.6,4.6-9.2,9.3-13.7,14c-1.8,1.9-2.9,4.1-2.6,6.3c0.1,0.1,0.2,0.3,0.3,0.4c0.2,0.2,0.4,0.4,0.6,0.6
		c0.5,0.2,0.8,0.6,1.1,0.9c0.4,0.3,0.8,0.6,1.2,0.9l0,0c0,0,0,0,0,0c0,0,0.1,0,0.1,0c7.8-0.6,15.8-1.4,23.4-3.3
		c-1.2,1.8-2.4,3.7-3.5,5.5c-2.6,4.3-5.8,9.1-5.5,14.3c0,0.3,0.2,0.6,0.5,0.7c6.9,2.1,15.9-1.1,22.6-3.2c0.2,0.2,0.5,0.4,0.7,0.6
		c-0.2,0-0.4,0.1-0.6,0.3c-4,6-8,12-12,18c-2.6,3.9-5,7.5-5.9,11.9c0,1.5,0.2,3,1.1,4.1c8.9,1,19.3-3.5,27-7.7c0.4,0.9,1,1.4,2,1.4
		c1.6,0,3.4-0.6,5-1.3c-0.2,0.6-0.5,1.3-0.6,2c-0.2,0-0.4,0.1-0.5,0.3c-1.4,3.1-9.1,20.8-3,22.8c4.3,1.4,8.8-1.9,12.5-3.9
		c5-2.6,10.5-5.7,14.3-9.8c0.2,0.9,0.6,1.7,1.4,2.4c0.2,0.2,0.5,0.4,0.7,0.5c-0.3,0.3-0.5,0.7-0.5,1.3c-0.5,1.4-1,2.7-1.6,4.1
		c-0.9,2.3-1.7,4.6-2.5,6.9c-1,2.7-1.5,5.8,0.7,8c1.5,1.5,4.5-0.2,5.9-0.9c3.7-1.9,7.1-4.4,9.9-7.5c-0.1,3,0.2,7.5,2.9,8.3
		c0.6,0.2,1.2,0.3,1.8,0.3c-1.1,1.3-1.5,3-1.1,4.8c0.3,1.2,1.2,2.6,2.4,3.2l0.3,0.8c9.7,5.3,19.9,10,30.4,14
		c0.2,0.1,0.4,0.2,0.7,0.3c0,0,0,0,0,0c0.4-0.4,0.9-0.7,1.3-1.1c-0.3-0.1-0.7-0.2-1-0.4c0,0,0,0,0,0c-10.4-3.9-20.5-8.5-30.2-13.8
		c-0.2-0.1-0.4-0.2-0.6-0.4c-0.7-0.8-1.5-1.4-1.9-2.4c-0.7-1.7,0-3.6,1.2-4.9c0,0,0,0,0,0c5.1-0.4,9.8-5.2,13.6-9.9
		c-0.4,2.8-0.5,6.6,2.2,6.7c2.3,0.1,4.1-1.8,5.7-3.3c2-1.8,3.7-3.9,5.2-6.1c0.1-0.2,0.1-0.4,0-0.6c0.8,0.4,1.6,0.7,2.4,1.1
		c-0.3,0.8-0.3,1.7-0.4,2.4c-0.1,1.3-0.5,3.8,0.4,5c0.9,1.1,2.2,0.8,3.4,0.3c1.8-0.8,3.5-2.1,4.9-3.6c0.2-0.2,0.2-0.4,0.1-0.5
		c2.6,1.1,5.3,2.1,8,3c0,0,0,0,0,0c0.2,0.1,0.3,0.1,0.5,0.2h0c2.5,0.9,5.1,1.7,7.6,2.5c0.1,1.8,0.4,3.7,0.6,5.5
		c0.1,1,0.5,2.3,1.8,2.3c2.8-0.1,5.4-2.9,6.7-5.3c1.3,0.3,2.7,0.6,4,1c-0.3,1.9,0.6,4.2,1.2,5.9c0.1,0.3,0.4,0.6,0.8,0.5
		c2.3-0.8,4.6-2.4,5.4-4.7c1.1,0.2,2.3,0.5,3.4,0.7c0.4,0.1,0.9,0.1,1.3,0.2c11,1.9,22.3,2.8,33.7,2.9h1.1c11.7,0,23.2-1.1,34.3-3
		c0.2,0,0.4-0.1,0.6-0.1c22.9-4.1,44.5-12,64.1-23.1c0.3-0.2,0.6-0.4,1-0.6c8.4-4.8,16.5-10.2,24.1-16.2c0.2-0.2,0.5-0.4,0.7-0.5
		c8.1-6.4,15.7-13.4,22.7-20.9c0.3-0.3,0.6-0.7,1-1c7.8-8.5,14.9-17.6,21.2-27.3c0.1-0.2,0.3-0.4,0.4-0.6c4.8-7.5,9.2-15.4,13-23.5
		c0.2-0.4,0.3-0.7,0.5-1.1c4.2-8.9,7.7-18.2,10.5-27.8c0.1-0.3,0.2-0.6,0.3-0.9c0.7-2.5,1.4-5.1,2.1-7.7c0.1,0,0.2,0,0.3-0.1
		c1.9-1.2,6.9-0.3,7.5-3.4c0.3-1.5-0.5-2.3-1.5-3.4c-1-1.1-2-3-3.5-3.1c-0.1,0-0.2,0.1-0.2,0.2c0,2.1,5.5,5,3,6.8
		c-1.5,1.1-3.6,0.5-5.2,1.3c1.7-7,3-14.1,3.9-21.3c0-0.4,0.1-0.8,0.1-1.3c0.2-2,0.5-4.1,0.6-6.1c0.6-0.2,1.1-0.4,1.6-0.5
		c1.3-0.4,2.7-0.8,4-1.2c0.2-0.1,0.4-0.2,0.5-0.5c0.5-3-2.7-5.8-5.6-4.5c0.1-1.6,0.2-3.3,0.2-4.9c1.7-0.7,3.3-1.6,4.9-2.4
		c1-0.5,2.8-1.1,2.9-2.4c0.2-1.4-1.2-2.3-2.1-3.2c-1.4-1.2-3-2.2-4.8-2.6c-0.6-0.1-1,0.7-0.4,1c0.8,0.5,7.2,3.8,5.4,5.1
		c-1.8,1.3-3.9,2-5.9,3c0-1.8,0.1-3.7,0.1-5.5c0-2.8-0.1-5.5-0.2-8.2c0-0.4,0-0.8-0.1-1.3c-0.5-11.3-2-22.4-4.3-33.1
		c-0.1-0.4-0.1-0.8-0.2-1.1c-7.6-34.8-24.2-66.2-47.2-91.8c-0.3-0.3-0.5-0.6-0.8-0.9c-8-8.9-16.8-17-26.2-24.3h0c0,0,0,0,0,0
		c0.1-0.1,0.1-0.1,0.1-0.2c0.7-1.9,0.9-4,1-6c0-0.2-0.2-0.5-0.4-0.6c-1.5-0.3-2.8-0.3-4.2,0.1c-1.1,0.3-2.5,0.8-3.1,1.8
		c-6.6-4.7-13.6-9.1-20.8-13c-0.2-0.1-0.4-0.2-0.7-0.4c-8.9-4.8-18.2-9-27.8-12.4c-0.4-0.1-0.7-0.3-1.1-0.4
		c-0.4-0.1-0.8-0.3-1.2-0.4c0.2-0.3,0.3-0.7,0.4-1c0.1-0.1,0.2-0.2,0.1-0.3c0.2-1.6-0.6-3.4-2-4.3c-2.6-1.9-5.8,0.5-7.4,2.6
		c-0.1,0.1-0.1,0.2-0.1,0.3c-4.1-1.2-8.2-2.3-12.4-3.2c0-1-0.1-2-0.4-3c-0.2-0.8-0.8-2.8-1.7-3c-2.7-0.8-4.8,1.4-6.3,3.4
		c-0.5,0.7,0.7,1.4,1.2,0.7c0.5-0.7,1.1-1.3,1.7-1.9c0.4-0.4,2.4-1.8,2.9-0.9c0.9,1.3,1.2,2.8,1.3,4.4c-4.1-0.9-8.3-1.7-12.5-2.3
		c0.1-0.2,0.2-0.4,0.1-0.6c-0.6-1.3-1.2-2.6-1.6-4c-0.1-0.3-0.5-0.6-0.8-0.5c-1.8,0.7-3.2,1.8-4.4,3.4c-0.3,0.3-0.1,0.7,0.2,0.8
		c-0.3,0-0.6-0.1-1-0.1c0,0,0,0,0,0c-0.8-2.5-1.6-6.8-4.3-8c-2.6-1.1-6,4.2-7.1,5.9c-0.4,0.7,0.7,1.4,1.1,0.7
		c0.8-1.3,4.6-7.3,6.7-4.4c1.2,1.6,1.6,3.9,2.4,5.8c-6.2-0.7-12.5-1.1-18.8-1.2c0,0,0,0,0,0c-0.3,0-0.5,0-0.8,0c-0.9,0-1.8,0-2.7,0
		c-2.9,0-5.8,0.1-8.6,0.2c0-0.2,0-0.3-0.1-0.5c-1.3-1.6-2-5-4.6-4.9c-3.1,0.1-4.2,2.9-4.9,5.5c-0.1,0.2,0,0.4,0.1,0.5
		c-4.1,0.4-8.2,0.8-12.3,1.4c-0.3,0.1-0.6,0.1-0.9,0.1c-2.5,0.4-5,0.8-7.5,1.3c-0.3-2-2.4-3.3-4.3-3.1c-1.8,0.2-3.1,2.2-2.2,3.9
		c0.3,0.6,1.4,0.2,1.2-0.5c-0.5-1.3,0.5-2.2,1.7-2.1c1.2,0,2.2,1,2.6,2.1c-8.2,1.6-16.2,3.8-24.1,6.4c-0.3,0.1-0.6,0.2-0.9,0.3
		C115.6,70.3,67.8,118.6,47.8,179.4c0,0,0,0-0.1,0c-1.9,0.8-3.9,1.5-5.9,2c-0.4,0.1-0.6,0.5-0.5,0.9c0.4,2.6,1.4,5.2,3.2,7.1
		c0.1,0.1,0.2,0.1,0.3,0.2c-0.9,3.2-1.7,6.5-2.4,9.8c-0.1-0.1-0.2-0.2-0.4-0.3c-5.2-1.2-16.6-4.3-24.6-2.7c0,0,0-0.1-0.1-0.1
		c-2.2-0.6-3.7-2.1-4.2-4.2c-0.1-0.2-0.1-0.3-0.1-0.5c-0.3-1.4,0.2-2.8,0.2-4.2c0-0.3-0.3-0.3-0.5-0.2c0,0-0.1,0.1-0.1,0.1
		c-0.7,1.1-1,2.5-0.8,3.8v0c0.1,1,0.4,1.9,0.9,2.8c0.7,1.3,1.8,2.4,3.2,2.8c-1.6,0.5-3.1,1.2-4.2,2.2c-0.8,0.7-1.5,1.5-2,2.6
		c0,0,0,0,0,0c-0.1,0.3-0.3,0.6-0.4,0.9c-0.1,0.5-0.2,0.9-0.3,1.4c0.1,0.1,0.2,0.1,0.3,0.1c0,0,0.1,0,0.1-0.1
		c0.5-0.9,1.1-1.7,1.8-2.4c0,0,0,0,0,0c7-7.2,20.5-3,29.6-1.3c-0.8,0.6-1.8,0.6-2.7,1c-0.8,0.4-1.3,1.5-1.4,2.3
		c-0.1,2.5,1.8,4,3.9,4.8c-0.2,1-0.3,2-0.5,3c-0.1,0-0.2,0-0.4,0c-2.6,1-5.3,2-7.9,3c-0.3,0.1-0.5,0.4-0.5,0.7c0,4,3.9,6.2,7.4,6.8
		c-0.3,2.5-0.5,5.1-0.6,7.7c0,0,0,0.1,0,0.1c-0.2,3.4-0.3,6.9-0.4,10.3c-0.1,0-0.1,0-0.2,0c-2.5,0.8-4.9,1.6-7.2,2.7
		c-1.7,0.8-4.4,1.9-5,4c-0.8,3,4.5,5.1,7.6,5.7c-3.9,1.7-7.7,3.8-11.3,5.8c-2.3,1.3-4.9,2.6-7,4.3c-0.1,0-0.1-0.1-0.2,0
		c-2.4,0.3-4.4-0.4-5.7-2.5c-1-1.7-0.6-3.9-0.9-5.9c-0.2-3.8-0.3-7.6-0.3-11.5c0-2.9,0.1-5.8,0.2-8.7v0c0-0.6,0-1.3,0.1-2
		c-0.7,0.7-1.3,1.5-1.6,2.5v0c0,1.1-0.1,2.1-0.1,3.2c0,1.6-0.1,3.3-0.1,4.9C6.2,246.5,6.3,250.4,6.5,254.2z M444,255.4
		c0.1,0,0.2,0.1,0.3,0c1.8-0.7,4.1,0.7,4,2.7c-1.2,0.4-2.4,0.7-3.5,1.1c-0.4,0.1-0.8,0.2-1.1,0.3C443.8,258.2,443.9,256.8,444,255.4
		z M32.2,276.1c0.8-3.3,4.5-5.6,7.3-7.2c0.5,4,1.2,8,1.9,11.9c-0.1,0-0.2,0.1-0.3,0.2l0,0.1C38.2,280.5,31.3,280,32.2,276.1z
		 M26.2,296.4c-4.6-2.3,6.1-9.1,7.1-9.7c2.7-1.7,5.6-3.1,8.5-4.3c0.8,4.2,1.8,8.4,2.9,12.5l0.1,0.5c0.3,1.3,0.7,2.6,1.1,3.9
		C39.3,299.2,32.2,299.4,26.2,296.4z M30.2,303.7c0.3-1.5,2-2.4,2.4-3.8c4.2,0.8,8.6,1,12.7,0.3c-3.1,1.5-5.9,3.4-8.6,5.5
		c-0.4,0.3-0.8,0.6-1.2,1C33.3,306.4,29.6,306.3,30.2,303.7z M35.1,317.3c-1.7-0.2-5.1-1.2-3.5-4.2c0.6-1.1,1.9-2.3,2.7-3.3
		c3.4-3.6,7.5-6.5,11.9-8.8c0.1,0,0.1-0.1,0.1-0.1c1.3,4.4,2.8,8.7,4.4,12.9c-2.3,0.2-5.1,2.2-7.5,4.2
		C40.5,317.9,37.8,317.7,35.1,317.3z M35.9,337.4c-1.9-0.5-3.9-0.9-5.7-1.8c-3.3-1.6,1.4-5.5,2.3-6.4c2.9-2.9,6.1-5.6,9.4-8.1
		c1.4-1.1,2.9-2.1,4.4-3.1c0.3-0.2,3.1-2.4,4.2-3.3c0,0.1,0,0.2,0.1,0.2c0,0,0.1,0.1,0.1,0.1c0.2,0.2,0.4,0.3,0.6,0.2
		c0.5,1.3,1,2.6,1.5,3.8c-0.1,0-0.1,0-0.2,0.1c-2.4,1.6-4.3,4-6.1,6.2c-1.4,1.6-2.3,3.3-1.8,5.4c0.4,1.8,2.5,2.2,4,2.2
		c0.4,0,0.8,0,1.2,0c-0.4,0.5-1.5,1.7-1.6,1.9c-0.6,0.9-1,1.8-1.3,2.8c-0.2,0.6-0.5,1.4-0.6,2.2C42.9,338.9,39.4,338.3,35.9,337.4z
		 M68,349.2c-3,1.7-9.8,5.3-12.5,1.6c-1.9-2.5,4.8-8.5,7.2-10.9c1.5,2.8,3.1,5.6,4.8,8.4h0c0.1,0.2,0.3,0.4,0.4,0.6c0,0,0,0,0,0
		C67.9,349,68,349.1,68,349.2z M54.4,351.5c0,0.1,0.1,0.2,0.1,0.3c-2.7,0.1-5.5,0.6-8.2,0.9c-0.6,0-1.2,0-1.7-0.1
		c-3.2-0.5-0.5-4,0.1-4.8c0.8-1.2,1.7-2.4,2.5-3.6c0.7,0.7,1.6,1,2.8,0.9c2.3-0.1,4.8-0.3,7.1-0.9c-0.2,0.3-0.5,0.6-0.7,0.9
		C54.9,346.9,53.2,348.9,54.4,351.5z M58.1,342.9c-2.9,0.4-5.7,0.9-8.7,0.9c-0.8,0-1.3-0.3-1.6-0.7c0.2-0.3,0-0.7-0.3-0.8
		c-0.3-1.4,0.3-3.5,0.6-4.3c0.6-1.7,1.7-3.3,2.9-4.6c0.1-0.1,0.1-0.2,0.2-0.4c2.4-0.1,4.9-0.6,7.2-1.3c1.2,2.4,2.4,4.9,3.7,7.3
		C60.6,340,59.3,341.4,58.1,342.9z M48,331.6c-4.4-0.1-1.3-4.4-0.6-5.3c0.6-0.7,1.2-1.4,1.9-2.2c1.2-1.4,2.7-2.6,3.9-4.1
		c0.1,0.3,0.2,0.5,0.3,0.8c0.1,0.3,0.3,0.6,0.4,0.9c1.3,3.1,2.8,6.2,4.2,9.3C54.7,331.2,51.4,331.7,48,331.6z M32.5,361.8
		c-4.7,0.5-3-5.3-0.6-7.8c1.4-1.5,2.9-3,4.4-4.4c2.9-3,5.8-5.9,8.7-8.8c0.1-0.1,0.1-0.1,0.1-0.2c0.4,0,0.8,0.1,1.1,0.1
		c0,0.7,0,1.4,0.2,2c-0.1,0.1-0.1,0.2-0.1,0.4c-1.5,2-3,4-4.1,6.1c-0.7,1.4-0.5,2.9,0.7,3.9c1.1,0.9,2.8,0.7,4.1,0.6
		c2.7-0.3,5.5-0.7,8.1-1.2c0.9,1,2.2,1.3,3.6,1.2c-1.5,1.7-2.8,3.6-4.1,5.4C47.2,360,39.9,361.1,32.5,361.8z M67.3,376.6
		c-3.5,0.6-7,1.4-10.4,2.2c-5,1.1-13,2.8-9.2-5.5c3.2-7.1,7.8-13.4,12.2-19.7c3.2-0.6,6.8-2.7,8.5-3.9c0.5,0.8,1,1.6,1.5,2.4
		c-2.2,3.2-6,8.1-4,12.2c0.1,0.2,0.4,0.4,0.6,0.3c2.8-0.1,5.5-0.7,8-2c-2.1,2.8-3.9,5.9-5.8,8.8C68,372.7,66.7,375,67.3,376.6z
		 M76.1,361.7c0.1,0,0.1-0.1,0.2-0.1c0,0,0,0,0.1-0.1c2.8,3.8,5.6,7.5,8.6,11.1c-1.2,1.5-2.2,3.1-3.2,4.7c-3,0.5-16.1,2.6-12.4-4.5
		c1.9-3.7,4.8-6.9,6.8-10.6C76.2,362,76.2,361.9,76.1,361.7z M75.8,360.8c-1.4,0.7-8.8,4.1-9.1,1.2c-0.3-2.8,2.3-6.3,4-8.7
		C72.4,355.8,74.1,358.3,75.8,360.8C75.8,360.8,75.8,360.8,75.8,360.8z M78.1,403.8c-5,2.1-10.1,3.9-15.2,5.6
		c-2.7,0.9-5.2,1.5-8,1.9c-6.2,0.8-1.7-7.2-1-8.6c4.3-8.2,10.4-15.7,15.4-23.5c0.1-0.2,0.1-0.4,0-0.6c3.2,1.6,8.6,0.5,11.9-0.4
		c-1.5,2.5-2.8,5.1-4,7.8c-1,2.2-4.4,7.5-2.3,9.7c1,1.1,2.2,1.5,3.5,1.5C78.1,398.8,77.6,401.7,78.1,403.8z M78.5,396
		c-5.5,0.5,0.9-11.3,1.4-12.5c1.6-3.5,3.6-6.8,6-9.8c0.2,0.2,0.3,0.4,0.5,0.6c0.3,0.3,0.5,0.6,0.8,1c4.1,4.7,8.4,9.3,12.9,13.6
		C93.3,391.6,85.8,395.3,78.5,396z M100.8,389.6c2.4,2.3,4.9,4.5,7.4,6.7c-2.7,1.6-5.3,3.2-8.4,4.1c-1.9,0.6-4.8,1.3-5.3-1.4
		c-0.4-2-0.2-4.1-0.3-6.1c0-0.1-0.1-0.2-0.1-0.3C96.4,391.7,98.6,390.7,100.8,389.6z M84.9,403.8c-1,0.3-4.7,2-5.2,0.3
		c-0.7-2.1-0.4-4.7,0.1-6.8c1.1-0.2,2.2-0.5,3.3-0.8c3.4-1,6.9-2.1,10.2-3.5c-0.3,1.4-0.7,5.1,0,7.5C90.3,401,87.6,402.8,84.9,403.8
		z M108,415.7C108,415.7,107.9,415.7,108,415.7c-6.4,3.2-12,7.8-18.4,11c-1.6,0.8-3.3,1.6-5,2.2c-5.4,2-3.3-6.8-3.1-8.2
		c0.8-4.4,2.2-8.7,4-12.8c0,0,0-0.1,0-0.1c0.1,0,0.1-0.1,0.2-0.2c0.4-0.8,0.6-1.6,0.9-2.5c0.1-0.2,0-0.4-0.2-0.6
		c0.3-0.1,0.5-0.2,0.8-0.3c2.1-0.8,4.6-1.7,6.2-3.4c0.4,1,1,1.7,2.1,1.6c4.8-0.2,10.1-2.3,13.5-5.7c0.5,0.5,1,0.9,1.6,1.4
		c0.3,0.3,0.6,0.5,1,0.8c0.5,0.4,0.9,0.8,1.4,1.1c0,0-0.1,0.1-0.1,0.1c-0.1,0.1-0.1,0.3,0,0.4c-1.7,3.5-3.1,7.1-4.2,10.9
		C108.2,413,107.9,414.4,108,415.7z M109.9,412c0.4-1.2,0.8-2.4,1.2-3.7c0.8-2.4,1.9-4.8,3-7.1c3.2,2.6,6.5,5,9.8,7.4
		c-3.2,3.2-7.3,9-12,9.6c-0.3,0-0.5,0-0.7,0c0,0,0-0.1,0-0.1c-0.2-0.3-0.6-0.3-0.8-0.1c0,0,0,0,0,0
		C108.3,417.1,109.6,413.2,109.9,412z M122.1,429.9c0,0-0.1,0-0.1,0.1c-2.3,2-4.6,3.9-7.1,5.6c-1.1,0.7-2.2,1.4-3.4,2
		c-1.6,1.1-3.4,1-5.2-0.4c-0.2-1.8,0-3.5,0.7-5.2c1-3.3,2.4-6.5,3.5-9.7c0.3-0.8,0.8-1.7,1-2.7c4.7,0.5,11.4-8,13.3-10.4
		c0.6,0.4,1.2,0.8,1.7,1.2c0,0,0,0.1-0.1,0.1c-2,6.2-3.8,12.3-4.2,18.8C122.2,429.4,122.1,429.6,122.1,429.9z M129.1,438.4
		c-7.9,3-5.2-13.2-4.9-15.2c0.7-4.1,2.1-8.1,3.4-12.1c3.7,2.5,7.5,4.9,11.4,7.2c0.3,0.2,0.7,0.4,1,0.6c2.1,1.2,4.1,2.3,6.2,3.4
		C141,427.9,136.5,435.6,129.1,438.4z M153.7,426.5c-1.8,2.6-3.8,4.8-6.1,6.9c-0.8,0.7-3.6,3.4-4.6,0.6c-0.2-0.6-0.2-1.4-0.2-2
		c0-1.3,0.3-2.6,0.3-4c1.5-1.9,2.7-3.8,3.8-5.3c2.4,1.2,4.7,2.4,7.1,3.6C153.9,426.3,153.8,426.4,153.7,426.5z M164.8,431.1
		c-1.7,1.3-3.4,2.8-5.4,3.5c-1.7,0.6-1.3-2.6-1.2-3.3c0-0.7,0.1-1.4,0.2-2.1c0-0.1,0.1-0.5,0.1-1c2.1,1,4.3,1.9,6.5,2.8
		C164.8,431.1,164.8,431.1,164.8,431.1z M185.5,443.1c-2.2,1.3-2.1-2-2.2-3.2c-0.1-0.8-0.2-1.6-0.3-2.5c2.3,0.7,4.6,1.3,6.9,1.9
		C188.6,440.8,187.2,442.1,185.5,443.1z M197.1,445.4c-0.2-0.7-0.5-1.3-0.6-2c-0.2-0.8-0.2-1.7-0.4-2.5c1.7,0.4,3.4,0.7,5.1,1.1
		C200.1,443.4,198.9,444.7,197.1,445.4z M361.9,76.6c1.1-0.4,2.4-0.6,3.6-0.4c-0.1,1.7-0.3,3.4-0.7,5.1c-1.6-1.2-3.3-2.5-4.9-3.7
		C360.5,77.3,361.2,76.8,361.9,76.6z M304.7,45.4c2,0.4,2.4,3,1.7,4.6c-2.2-0.8-4.5-1.5-6.7-2.2C300.9,46.3,302.5,45,304.7,45.4z
		 M266.4,40.5c0.8-1.1,1.8-1.9,3-2.5c0.4,1.2,0.9,2.3,1.6,3.4c-1.7-0.2-3.3-0.5-5-0.7C266.2,40.7,266.3,40.7,266.4,40.5z
		 M224.2,39.9c0.5-1.9,2.3-6.4,4.9-3.8c1,1,1.3,2.4,2.3,3.4C229,39.6,226.6,39.8,224.2,39.9C224.2,39.9,224.2,39.9,224.2,39.9z
		 M42.9,182.6c1.5-0.4,3-0.9,4.4-1.5c-0.7,2.3-1.4,4.7-2.1,7.1C44.1,186.4,43.3,184.6,42.9,182.6z M39.1,205.7c-1-1-1.4-3.2,0.3-3.6
		c0.9-0.2,3-0.4,2.6-1.8c0.1,0,0.2,0,0.3-0.1c-0.5,2.3-0.9,4.7-1.3,7C40.3,206.7,39.7,206.2,39.1,205.7z M241.1,40.7
		c15,0,29.7,1.7,43.8,4.8c0.1,0.1,0.3,0.1,0.4,0.1c41.4,9.3,78,31.3,105.6,61.7c0.1,0.1,0.3,0.3,0.4,0.5
		c32.1,35.8,51.7,83,51.7,134.8c0,5.9-0.3,11.8-0.8,17.6c-0.2,0.1-0.3,0.2-0.5,0.3c-0.3,0.3,0,0.7,0.3,0.8c0,0,0,0,0.1,0
		c-9.5,102.6-96,183.2-201,183.2c-20.3,0-39.9-3-58.3-8.6c0,0,0-0.1,0-0.1c-0.1-0.4-0.6-0.5-0.9-0.2c-8-2.5-15.8-5.4-23.3-8.8
		c0,0,0,0-0.1,0c-15.8-7.1-30.5-16.2-43.9-27c-0.1-0.3-0.3-0.5-0.6-0.5c-40.6-33-68.2-81.5-73.7-136.5c0-0.4-0.1-0.8-0.1-1.3
		c-0.6-6.2-0.9-12.5-0.9-18.9C39.3,131.3,129.8,40.7,241.1,40.7z M33,215.4c2.4-0.9,4.7-1.8,7.1-2.7c-0.4,2.6-0.7,5.2-1,7.8
		C36.4,219.4,33.3,218.5,33,215.4z M14.4,264.4c1.1-0.9,2.3-1.8,3.5-2.5c6.3-4,13.1-6.9,19.7-10.2c0.6-0.3,0.2-1.2-0.4-1
		c-0.9,0.3-1.8,0.7-2.7,1c-2.1-0.8-11-3.4-6.5-6.5c2.8-1.9,6.4-3.3,9.8-4c0,0.5,0,0.9,0,1.4c0,6.4,0.3,12.8,0.9,19.1
		c0,0.5,0.1,1,0.1,1.4c0.2,1.5,0.3,3.1,0.5,4.6c-2,0.6-3.7,1.8-5.3,3.2c-1,1-2.5,2.6-3.1,4.2c-2.6-1-5.3-1.9-8-2.7
		c-1.6-0.5-3.3-1.1-4.9-1.7C14.5,270.3,13.3,268.1,14.4,264.4z"/>
</g>
<g>
	<path class="st7" d="M384.6,77.2c3.6-2,7-3.9,10.9-5.4c1.4-0.5,11-3.4,11-1.3c-0.1,8.1-3.7,16.7-7.2,23.8c-0.3,0.5,0.5,1,0.8,0.5
		c2.9-4.8,4.9-9.7,6.4-15.1c0.5-2,2.9-9.1,1.1-10.9c-1.8-1.8-7.2,0.2-9.1,0.6c-5.2,1.2-10.5,3.6-14.6,6.9
		C383.4,76.7,384.1,77.5,384.6,77.2z"/>
</g>
<g>
	<path class="st7" d="M410.4,95.9c4.1-0.8,8.2-1.8,12.3-2.4c0,5-1.5,9.2-3.6,13.7c-0.2,0.4,0.3,0.9,0.7,0.5
		c3.4-4.1,4.6-9.8,4.4-15.1c0-0.4-0.3-0.8-0.7-0.7c-4.5,0.6-9.1,1.2-13.4,2.7C409.2,94.9,409.5,96.1,410.4,95.9z"/>
</g>
<g>
	<path class="st7" d="M337.6,46.9c4.7-2.6,9.4-4.6,14.7-5.7c1.8-0.4,2.8-0.5,2.7,1.6c-0.1,1.4-0.2,2.8-0.3,4.1
		c-0.3,3.2-1,6.3-1.2,9.6c0,0.5,0.7,0.6,0.9,0.1c1.7-5.2,1.9-11.2,2.1-16.5c0-0.4-0.3-0.7-0.7-0.7c-6.7,0.7-13.3,2.6-18.9,6.4
		C336.1,46.2,336.7,47.4,337.6,46.9z"/>
</g>
<g>
	<path class="st7" d="M436.2,137.2c3,0.3,6.1,0,9.2-0.2c1.5-0.1,3.1-0.1,4.6-0.2c1.7-0.1,7-0.9,4.6,4.2c-2.5,5.4-8,9.7-11.9,14.1
		c-0.4,0.4,0.1,1.1,0.6,0.8c3.3-2.5,6-5.6,8.6-8.7c2.2-2.6,5-5.6,4.9-9.1c-0.1-2.6-3.4-2.8-5.2-2.8c-5,0.1-10.5-0.1-15.4,0.9
		C435.5,136.3,435.7,137.1,436.2,137.2z"/>
</g>
<g>
	<path class="st7" d="M443.6,165.8c4.3-0.6,8.4-0.2,12.5,1.1c3.3,1.1-0.9,4.6-1.8,5.6c-1.3,1.4-2.8,2.5-4.3,3.7
		c-0.6,0.5,0.2,1.4,0.8,1c2.5-1.6,4.6-3.7,6.5-5.9c0.8-1,2.7-2.8,1.8-4.2c-1.1-1.9-4.8-2.2-6.7-2.6c-2.9-0.6-5.9-0.5-8.9-0.1
		C442.6,164.5,442.8,165.9,443.6,165.8z"/>
</g>
<g>
	<path class="st7" d="M451.9,264.9c4.7,1.1,10,1.2,14.8,1.4c0.4,0,0.5-0.6,0.1-0.7c-4.8-0.8-10-1.7-14.8-1.6
		C451.5,264.1,451.4,264.8,451.9,264.9z"/>
</g>
<g>
	<path class="st7" d="M452.7,231.3c2-0.1,3.9-0.5,5.9-0.7c2-0.1,3.9,0,5.9,0.1c0.5,0,0.7-0.9,0.1-0.9c-3.8-0.6-8.4-0.8-12,0.6
		C452.1,230.6,452.1,231.4,452.7,231.3z"/>
</g>
<g>
	<path class="st7" d="M446,300.3c4,1.7,8.9,2.7,13.2,3.3c0.4,0.1,0.6-0.5,0.2-0.7c-4.1-1.6-8.9-3-13.2-3.5
		C445.6,299.4,445.6,300.2,446,300.3z"/>
</g>
<g>
	<path class="st7" d="M435.6,328.3c1.9,1.5,4.3,2.4,6.5,3.4c2.2,1,4.5,2.1,6.8,3.1c0.6,0.3,1.1-0.8,0.5-1.1
		c-2.1-1.1-4.3-2.1-6.5-3.1c-2.2-1-4.4-2.3-6.8-2.8C435.6,327.7,435.3,328,435.6,328.3z"/>
</g>
<g>
	<path class="st7" d="M421,355.4c2.3,1.6,5.1,2.7,7.6,3.9c2.6,1.3,5.2,2.6,7.9,3.6c0.4,0.2,0.7-0.5,0.3-0.7c-2.4-1.5-5-2.7-7.6-4
		c-2.6-1.3-5.1-2.8-7.9-3.7C420.8,354.3,420.5,355.1,421,355.4z"/>
</g>
<g>
	<path class="st7" d="M399.1,384.1c1.9,1.6,4.1,2.7,6.2,3.9c2.4,1.4,4.8,2.8,7.2,4.1c0.6,0.3,1.1-0.6,0.5-0.9
		c-2.3-1.5-4.8-2.8-7.1-4.2c-2.1-1.2-4.2-2.6-6.5-3.4C399.1,383.3,398.8,383.8,399.1,384.1z"/>
</g>
<g>
	<path class="st7" d="M388,418c0.5,0.2,0.9-0.6,0.4-0.9c-2.8-1.7-5.5-3.3-7.9-5.5c-2.5-2.2-4.2-5-6.4-7.5c-0.2-0.3-0.7,0-0.6,0.4
		C375.7,410.4,382.2,415.6,388,418z"/>
</g>
<g>
	<path class="st7" d="M359.8,436.6c0.4,0.3,0.9-0.4,0.5-0.7c-1.9-1.6-3.6-3.2-5.2-5.1c-1.9-2.3-2.9-5.1-4.6-7.4
		c-0.2-0.3-0.7-0.1-0.6,0.3C350.7,428.6,355.8,433.9,359.8,436.6z"/>
</g>
<g>
	<path class="st7" d="M324.6,456.1c0.4,0.5,1.1-0.1,0.8-0.6c-1.7-2.5-3.3-5-4.7-7.6c-1.4-2.6-2.2-5.5-3.7-8.1
		c-0.1-0.2-0.6-0.2-0.5,0.1C317.2,445.6,321.1,451.7,324.6,456.1z"/>
</g>
<g>
	<path class="st7" d="M281.6,449.7c1.3,5.7,3.1,11.5,5,17c0.2,0.5,1,0.3,0.9-0.2c-1.3-5.7-2.9-11.5-4.9-17
		C282.4,448.8,281.5,449,281.6,449.7z"/>
</g>
<g>
	<path class="st7" d="M250.8,471.1c0.2,0.4,0.9,0.1,0.7-0.3c-0.9-2.4-1.9-4.8-2.6-7.3c-0.8-2.9-0.8-5.8-1.4-8.8
		c-0.1-0.4-0.6-0.3-0.7,0.1C246.2,460.1,248.1,466.5,250.8,471.1z"/>
</g>
<g>
	<path class="st7" d="M207.1,469.5c0.1,0.5,0.9,0.6,0.8,0c0-2.5-0.1-5,0.2-7.5c0.3-3.3,1.6-6.3,2.2-9.5c0.1-0.3-0.4-0.5-0.5-0.2
		C207,457,206.4,464.1,207.1,469.5z"/>
</g>
<g>
	<path class="st7" d="M170.3,461.4c0,0.4,0.6,0.4,0.6,0c0.5-6.1,2.4-10.7,5.1-16.1c0.2-0.3-0.3-0.7-0.5-0.4
		C171.6,449.1,169.9,455.8,170.3,461.4z"/>
</g>
<g>
	<path class="st7" d="M13.9,235.6c6.5-1.6,12.3-2.5,19.1-1.9c0.5,0,0.6-0.8,0.1-0.8c-6.2-1.3-13.7-0.8-19.5,1.9
		C13.1,235,13.5,235.7,13.9,235.6z"/>
</g>
<g>
	<path class="st7" d="M17.5,202.1c4.7,1,10,1,14.8,0.7c0.4,0,0.6-0.7,0.1-0.8c-4.8-0.7-10.1-1.1-14.9-0.4
		C17.2,201.7,17.2,202.1,17.5,202.1z"/>
</g>
<g>
	<path class="st7" d="M26.3,165c6.5,1.3,12.8,2.4,19.2,4.2c0.4,0.1,0.7-0.6,0.3-0.7c-5.9-2.6-13-4.4-19.4-4.3
		C25.9,164.1,25.8,164.9,26.3,165z"/>
</g>
<g>
	<path class="st7" d="M41.8,131.9c3.4,0.4,6.7,0.5,10.1,1.5c3.3,1.1,6.2,3,9,4.8c0.4,0.2,0.8-0.3,0.5-0.6c-4.8-4.4-13-8-19.7-6.5
		C41.2,131.3,41.4,131.9,41.8,131.9z"/>
</g>
<g>
	<path class="st7" d="M64.5,97.5c6.3,2.2,11.8,5.2,17.1,9.1c0.4,0.3,0.8-0.3,0.5-0.6c-5-4.3-11-7.5-17.3-9.5
		C64.1,96.2,63.9,97.2,64.5,97.5z"/>
</g>
<g>
	<path class="st7" d="M95.5,69.1c1.9,1.5,4.1,2.4,5.9,4c2,1.7,3.8,3.7,5.3,5.8c0.3,0.4,0.9,0.1,0.6-0.4c-2.3-4.1-6.8-9-11.6-10.2
		C95.3,68.2,95.1,68.8,95.5,69.1z"/>
</g>
<g>
	<path class="st7" d="M125.2,48.3c1.7,1.8,3.6,3.3,5.1,5.3c1.5,2,2.4,4.4,3.4,6.7c0.2,0.4,0.7,0.1,0.6-0.3
		c-0.8-4.5-4.5-10.3-8.7-12.2C125.3,47.6,125,48,125.2,48.3z"/>
</g>
<g>
	<path class="st7" d="M164.7,27.8c1.1,2.5,2.6,4.8,3.6,7.4c0.9,2.6,1.4,5.3,1.7,8c0.1,0.5,0.8,0.5,0.8,0c0-5.3-1.5-12-5.4-16
		C165,26.8,164.5,27.3,164.7,27.8z"/>
</g>
<g>
	<path class="st7" d="M202.4,17.7c2.4,5,3.1,10,4.1,15.3c0.1,0.4,0.6,0.3,0.6-0.1c-0.1-5.3-0.8-11.3-3.8-15.8
		C203,16.6,202.1,17.1,202.4,17.7z"/>
</g>
<g>
	<path class="st7" d="M240.2,27.7c0,0.6,0.8,0.6,0.9,0c0.4-4.4,0.8-9.7-0.2-14.1c-0.1-0.3-0.5-0.3-0.6,0
		C239.4,18,239.8,23.3,240.2,27.7z"/>
</g>
<g>
	<path class="st7" d="M275.6,29.3c0.9-4,2.1-8.5,2.1-12.6c0-0.4-0.5-0.4-0.6-0.1c-1.4,3.9-1.8,8.5-2.3,12.6
		C274.8,29.6,275.5,29.7,275.6,29.3z"/>
</g>
<g>
	<path class="st7" d="M308.4,38.1c2.4-4.6,3.1-10.4,2.6-15.5c0-0.5-0.8-0.5-0.8,0c-0.4,5.2-1.4,10.2-2.2,15.4
		C308,38.1,308.3,38.3,308.4,38.1z"/>
</g>
<g>
	<g>
		<path class="st7" d="M47.3,260.8c0,0.5,0.1,0.9,0.1,1.4c1.1,10.4,2.9,20.6,5.6,30.4c0,0.2,0.1,0.3,0.1,0.5
			c2.2,8.4,5,16.5,8.3,24.4c0.1,0.3,0.3,0.6,0.4,0.9c3.7,8.8,8.1,17.3,13.1,25.4h0c0.1,0.2,0.2,0.4,0.4,0.6c0,0,0,0,0,0
			c5.3,8.6,11.2,16.7,17.7,24.3c0.3,0.3,0.5,0.6,0.8,0.9c6.9,7.9,14.3,15.3,22.4,22.1c0.3,0.3,0.6,0.5,0.9,0.8
			c8.2,6.8,17,13,26.2,18.4c0.3,0.2,0.6,0.4,1,0.6c10.2,5.9,21,10.9,32.2,14.8c0,0,0,0,0,0c0.2,0.1,0.3,0.1,0.5,0.2h0
			c9.8,3.4,19.9,6.1,30.3,7.9c0.4,0.1,0.8,0.1,1.3,0.2c10.5,1.8,21.3,2.7,32.3,2.7h1.1c11.2,0,22.2-1,32.9-2.9
			c0.2,0,0.4-0.1,0.6-0.1c21.9-3.9,42.6-11.5,61.4-22.1c0.3-0.2,0.6-0.4,0.9-0.5c8.1-4.6,15.8-9.8,23.1-15.5
			c0.2-0.2,0.4-0.3,0.7-0.5c7.8-6.1,15-12.8,21.8-20c0.3-0.3,0.6-0.6,0.9-1c7.5-8.1,14.3-16.9,20.3-26.2c0.1-0.2,0.3-0.4,0.4-0.6
			c4.6-7.2,8.8-14.7,12.5-22.5c0.2-0.4,0.3-0.7,0.5-1c4-8.5,7.3-17.4,10-26.6c0.1-0.3,0.2-0.6,0.2-0.9c2.8-9.5,4.8-19.3,6.1-29.4
			c0-0.4,0.1-0.8,0.1-1.2c0.9-7.7,1.4-15.6,1.4-23.6c0-2.6-0.1-5.2-0.2-7.9c0-0.4,0-0.8-0.1-1.2c-0.5-10.8-1.9-21.4-4.1-31.7
			c-0.1-0.4-0.1-0.7-0.2-1.1c-7.3-33.3-23.2-63.4-45.2-87.9c-0.2-0.3-0.5-0.5-0.7-0.8c-7.7-8.5-16.1-16.3-25.1-23.3h0
			c-0.2-0.1-0.3-0.3-0.5-0.4c0,0,0,0,0,0c-8.1-6.2-16.7-11.9-25.8-16.8c-0.2-0.1-0.4-0.2-0.6-0.3c-8.5-4.6-17.4-8.6-26.6-11.9
			c-0.4-0.1-0.7-0.3-1.1-0.4c-19.2-6.8-39.8-10.6-61.2-11c0,0,0,0,0,0c-0.2,0-0.5,0-0.7,0c-0.9,0-1.7,0-2.6,0
			c-9.9,0-19.6,0.7-29.2,2.2c-0.3,0.1-0.6,0.1-0.9,0.1c-10.7,1.7-21.1,4.2-31.2,7.6c-0.3,0.1-0.6,0.2-0.9,0.3
			c-64.2,21.7-113.5,76-128.1,143.2c-0.1,0.2-0.1,0.5-0.1,0.7c-1.9,9.1-3.3,18.5-3.9,28c0,0,0,0.1,0,0.1c-0.3,4.1-0.4,8.3-0.4,12.5
			C46.5,248.7,46.8,254.8,47.3,260.8z M241.1,49.3c56.8,0,108,24.6,143.4,63.8c0.1,0.1,0.3,0.3,0.4,0.4
			c30.8,34.2,49.5,79.5,49.5,129c0,106.5-86.7,193.2-193.2,193.2c-100,0-182.5-76.4-192.3-173.9c0-0.4-0.1-0.8-0.1-1.2
			c-0.6-6-0.8-12-0.8-18.1C47.9,136,134.6,49.3,241.1,49.3z"/>
	</g>
</g>
<rect x="1" y="0.7" class="st8" width="482" height="482"/>
</svg>
